/users/is16372/.bash_login: line 1: lastpwd: command not found
========= Job started  at Tue Aug  6 17:33:52 BST 2019 ==========
Running on host grendel.chm.bris.ac.uk
Time is Tue Aug 6 17:33:52 BST 2019
Directory is /users/is16372/projects/mcr-1/molpro/embedding/mp2-in-b3lyp_hf_density/no_trunc/inc_grid/region_4_Zn_H466/ps
PBS job ID is
g-3-2.local
