
 Primary working directories    : /tmp/is16372/1092914/molpro.EUbP5uxONl
 Secondary working directories  : /tmp/is16372/1092914/molpro.EUbP5uxONl
 Wavefunction directory         : /users/is16372/projects/mcr-1/molpro/mp2/ion_substitutions/na/ts/
 Main file repository           : /tmp/is16372/1092914/molpro.EUbP5uxONl/

 id        : uob

 Nodes      nprocs
 g-0-3.local    2

 Using customized tuning parameters: mindgm=1; mindgv=20; mindgc=4; mindgr=1; noblas=0; minvec=7
 default implementation of scratch files=sf  


 Variables initialized (930), CPU time= 0.01 sec
 memory,950,mw
 gdirect
 set,charge=0
 geomtyp=xyz
 noorient
 
 geometry={
   C1       3.373290    0.211660    3.771240
   C2       3.789110   -1.233860    3.474600
   C3       2.643430   -2.129710    2.948180
   C4       2.169740   -1.696850    1.572370
   O5       2.765540   -2.115660    0.548280
   O6       1.172640   -0.880420    1.539650
   C7       2.186860   -1.083900   -3.951520
   C8       2.449450   -2.286820   -3.053060
   C9       3.902300   -2.392570   -2.609570
  O10       1.607290   -2.221600   -1.862570
  P11      -0.442510   -2.328180   -1.789520
  O12      -0.242700   -3.390330   -0.588820
  O13      -0.499030   -0.889090   -1.245540
  O14      -0.502020   -2.784560   -3.210860
  C15      -1.963320   -1.961450    5.374960
  C16      -1.804330   -0.864830    4.306240
  C17      -2.460010   -1.218010    3.009710
  C18      -1.935160   -1.630380    1.807460
  N19      -3.834570   -1.248890    2.828180
  C20      -4.095100   -1.662370    1.563500
  N21      -2.960970   -1.899460    0.918370
  C22       5.327870    2.955380   -0.612080
  C23       4.279670    2.180110   -1.406690
  C24       3.189340    1.550580   -0.548520
  O25       2.308190    0.857700   -1.207840
  O26       3.168450    1.705220    0.685490
  C27       2.434270    5.480600   -0.363760
  C28       0.923670    5.460490   -0.050720
  C29       0.481690    4.101810    0.389700
  C30       0.088710    2.999980   -0.324290
  N31       0.583480    3.658890    1.701110
  C32       0.291050    2.344090    1.742320
  N33      -0.018220    1.903450    0.523340
  C34      -5.446300    4.498540   -1.455550
  C35      -5.629170    3.023860   -1.852590
  C36      -4.488050    2.156940   -1.429840
  C37      -3.616420    1.381580   -2.146580
  N38      -4.104230    2.010610   -0.100670
  C39      -3.054090    1.186290   -0.011380
  N40      -2.745290    0.796320   -1.246130
 Na41       0.826190    0.132180   -0.124030
  H42       4.211520    0.772290    4.201430
  H43       2.545360    0.238860    4.492290
  H44       3.054080    0.727700    2.861750
  H45       4.611000   -1.242740    2.744310
  H46       4.177690   -1.701180    4.390170
  H47       1.798080   -2.092790    3.647820
  H48       2.999230   -3.165080    2.880590
  H49       2.781380   -1.178520   -4.869020
  H50       2.464980   -0.158580   -3.438170
  H51       1.129750   -1.036470   -4.229060
  H52       2.144040   -3.207960   -3.567720
  H53       4.210630   -1.487460   -2.071750
  H54       4.545330   -2.506600   -3.490000
  H55       4.055310   -3.258580   -1.955100
  H56      -1.462520   -1.666940    6.304520
  H57      -1.523140   -2.903820    5.028660
  H58      -3.020910   -2.143980    5.601950
  H59      -0.738230   -0.695480    4.104530
  H60      -2.212920    0.083670    4.686260
  H61      -0.897200   -1.733280    1.530010
  H62      -2.641500   -2.221470   -0.531490
  H63      -5.095490   -1.771450    1.159650
  H64       6.078710    3.385180   -1.286120
  H65       5.843000    2.302020    0.100890
  H66       4.870290    3.771530   -0.044330
  H67       3.783370    2.830580   -2.142670
  H68       4.745460    1.373370   -1.992180
  H69       2.751520    6.483600   -0.673210
  H70       2.667280    4.777500   -1.170530
  H71       3.019880    5.189470    0.515690
  H72       0.356670    5.743750   -0.947140
  H73       0.689030    6.202630    0.725350
  H74      -0.079140    2.905600   -1.389300
  H75       0.342920    1.735550    2.637540
  H76      -6.303930    5.089000   -1.796020
  H77      -4.538290    4.915170   -1.906610
  H78      -5.370180    4.613920   -0.367220
  H79      -6.561180    2.635200   -1.414820
  H80      -5.729920    2.934570   -2.941600
  H81      -3.546840    1.197640   -3.210360
  H82      -1.970600    0.142310   -1.471620
  H83      -2.537230    0.897060    0.893670
  O84      -2.377260   -2.444290   -1.534350
  C85      -3.019600   -3.680160   -1.914300
  H86      -2.824010   -3.841390   -2.974710
  H87      -2.623080   -4.512400   -1.322310
  H88      -4.093390   -3.568730   -1.737650
  C89       0.405110   -4.662100   -0.822460
  H90       0.277470   -5.227330    0.103050
  H91      -0.073150   -5.187100   -1.655240
  H92       1.465910   -4.505660   -1.031510
  H93       2.098410   -2.080170   -0.996720
  H94       0.889030    4.235380    2.511370
  H95      -4.546950   -1.024940    3.551010
  H96      -4.560010    2.478220    0.714080
 }
 
 
 basis={
 default,6-31G(d)
                                                                                 !i.e. C,N,H,Na=6-31G(d)
 O=6-31+G(d,p)
 P=6-31+G(d,p)
 }
 
 {hf}
 {mp2}
 show EMP2_SCS
 Commands  initialized (760), CPU time= 0.01 sec, 617 directives.
 Default parameters read. Elapsed time= 0.86 sec

 Checking input...
 Passed
1


                                         ***  PROGRAM SYSTEM MOLPRO  ***
                                       Copyright, TTI GmbH Stuttgart, 2015
                                    Version 2019.1 linked Jan 14 2019 13:09:19


 **********************************************************************************************************************************
 LABEL *                                                                                 
  64 bit mpp version                                                                     DATE: 11-Aug-19          TIME: 21:11:31  
 **********************************************************************************************************************************

 SHA1:             d688ac825633d238f2093ded1675ba87ccd55965
 **********************************************************************************************************************************
 SETTING CHARGE         =     0.00000000D+00                                  
 SETTING GEOMTYP        =    XYZ

 Variable memory set to  950000000 words,  buffer space 

 SETTING BASIS          =    6-31G(D),O=6-31+G(D,P),P=6-31+G(D,P)


 Recomputing integrals since basis changed


 Using spherical harmonics

 Library entry C      S 6-31G                selected for orbital group  1
 Library entry C      P 6-31G                selected for orbital group  1
 Library entry C      D 6-31G*               selected for orbital group  1
 Library entry O      S 6-31G                selected for orbital group  2
 Library entry O      S 6-31++G              selected for orbital group  2
 Library entry O      P 6-31G                selected for orbital group  2
 Library entry O      P 6-31++G              selected for orbital group  2
 Library entry O      D 6-31G*               selected for orbital group  2
 Library entry P      S 6-31G                selected for orbital group  5
 Library entry P      S 6-31++G              selected for orbital group  5
 Library entry P      P 6-31G                selected for orbital group  5
 Library entry P      P 6-31++G              selected for orbital group  5
 Library entry P      D 6-31G*               selected for orbital group  5
 Library entry N      S 6-31G                selected for orbital group  8
 Library entry N      P 6-31G                selected for orbital group  8
 Library entry N      D 6-31G*               selected for orbital group  8
 Library entry NA     S 6-31G                selected for orbital group 21
 Library entry NA     P 6-31G                selected for orbital group 21
 Library entry NA     D 6-31G*               selected for orbital group 21
 Library entry H      S 6-31G                selected for orbital group 22


 PROGRAM * SEWARD (Integral evaluation for generally contracted gaussian basis sets)     Author: Roland Lindh, 1990

 Geometry written to block  1 of record 700


 Point group  C1  



 ATOMIC COORDINATES

 NR  ATOM    CHARGE       X              Y              Z

   1  C1      6.00    6.374594239    0.399979432    7.126610750
   2  C2      6.00    7.160380156   -2.331657476    6.566042392
   3  C3      6.00    4.995358729   -4.024568625    5.571252766
   4  C4      6.00    4.100214362   -3.206581774    2.971348666
   5  O5      8.00    5.226113187   -3.998017973    1.036099040
   6  O6      8.00    2.215968443   -1.663752675    2.909516828
   7  C7      6.00    4.132566473   -2.048274146   -7.467290576
   8  C8      6.00    4.628789656   -4.321463496   -5.769447242
   9  C9      6.00    7.374278256   -4.521302034   -4.931372603
  10  O10     8.00    3.037337903   -4.198215558   -3.519747188
  11  P11    15.00   -0.836222707   -4.399622569   -3.381702694
  12  O12     8.00   -0.458636530   -6.406795172   -1.112708537
  13  O13     8.00   -0.943030028   -1.680136600   -2.353729477
  14  O14     8.00   -0.948680309   -5.262055777   -6.067646024
  15  C15     6.00   -3.710137095   -3.706603307   10.157202330
  16  C16     6.00   -3.409689538   -1.634291844    8.137614227
  17  C17     6.00   -4.648745164   -2.301705317    5.687527614
  18  C18     6.00   -3.656922407   -3.080971679    3.415604381
  19  N19     7.00   -7.246287105   -2.360060060    5.344485631
  20  C20     6.00   -7.738617453   -3.141424018    2.954586796
  21  N21     7.00   -5.595422363   -3.589459185    1.735467781
  22  C22     6.00   10.068215127    5.584858794   -1.156663566
  23  C23     6.00    8.087404204    4.119810821   -2.658258842
  24  C24     6.00    6.026979118    2.930171534   -1.036552574
  25  O25     8.00    4.361846943    1.620818097   -2.282486802
  26  O26     8.00    5.987502739    3.222398782    1.295388361
  27  C27     6.00    4.600103613   10.356832998   -0.687406775
  28  C28     6.00    1.745483329   10.318830606   -0.095846909
  29  C29     6.00    0.910262177    7.751297515    0.736426271
  30  C30     6.00    0.167637605    5.669140579   -0.612819285
  31  N31     7.00    1.102617399    6.914300020    3.214632008
  32  C32     6.00    0.550004789    4.429688111    3.292507621
  33  N33     7.00   -0.034430810    3.596999192    0.988969270
  34  C34     6.00  -10.292015392    8.501008560   -2.750590861
  35  C35     6.00  -10.637589609    5.714267239   -3.500887721
  36  C36     6.00   -8.481185333    4.076025867   -2.702006002
  37  C37     6.00   -6.834043351    2.610807819   -4.056448304
  38  N38     7.00   -7.755870652    3.799502243   -0.190238729
  39  C39     6.00   -5.771393660    2.241763204   -0.021505083
  40  N40     7.00   -5.187846233    1.504826708   -2.354844416
  41  NA41   11.00    1.561272827    0.249783999   -0.234382731
  42  H42     1.00    7.958619368    1.459416589    7.939552032
  43  H43     1.00    4.810033288    0.451379982    8.489197772
  44  H44     1.00    5.771374763    1.375153701    5.407923737
  45  H45     1.00    8.713527160   -2.348438244    5.185994301
  46  H46     1.00    7.894689933   -3.214764289    8.296218940
  47  H47     1.00    3.397878750   -3.954799936    6.893380752
  48  H48     1.00    5.667723285   -5.981134362    5.443526177
  49  H49     1.00    5.256046448   -2.227080032   -9.201114295
  50  H50     1.00    4.658137103   -0.299672769   -6.497199670
  51  H51     1.00    2.134918089   -1.958644436   -7.991765164
  52  H52     1.00    4.051648400   -6.062165819   -6.742013689
  53  H53     1.00    7.956937512   -2.810892021   -3.915040099
  54  H54     1.00    8.589428846   -4.736787504   -6.595144175
  55  H55     1.00    7.663425250   -6.157823755   -3.694603546
  56  H56     1.00   -2.763762252   -3.150060066   11.913816147
  57  H57     1.00   -2.878317449   -5.487424515    9.502790174
  58  H58     1.00   -5.708692547   -4.051535017   10.586151264
  59  H59     1.00   -1.395052517   -1.314266725    7.756437570
  60  H60     1.00   -4.181812736    0.158113385    8.855747949
  61  H61     1.00   -1.695462279   -3.275424497    2.891299868
  62  H62     1.00   -4.991711558   -4.197969894   -1.004370538
  63  H63     1.00   -9.629080570   -3.347555343    2.191420900
  64  H64     1.00   11.487097091    6.397063082   -2.430414563
  65  H65     1.00   11.041669746    4.350187333    0.190654469
  66  H66     1.00    9.203514247    7.127158771   -0.083771559
  67  H67     1.00    7.149533128    5.349020974   -4.049059475
  68  H68     1.00    8.967619735    2.595293168   -3.764674591
  69  H69     1.00    5.199619226   12.252228301   -1.272182524
  70  H70     1.00    5.040428698    9.028166560   -2.211981121
  71  H71     1.00    5.706746129    9.806677032    0.974512865
  72  H72     1.00    0.674008617   10.854114428   -1.789835202
  73  H73     1.00    1.302077992   11.721271952    1.370712844
  74  H74     1.00   -0.149552925    5.490788228   -2.625396505
  75  H75     1.00    0.648024883    3.279714175    4.984228243
  76  H76     1.00  -11.912701208    9.616816248   -3.393985914
  77  H77     1.00   -8.576125174    9.288325156   -3.602970726
  78  H78     1.00  -10.148169440    8.719045161   -0.693945227
  79  H79     1.00  -12.398833254    4.979806283   -2.673622316
  80  H80     1.00  -10.827979516    5.545533593   -5.558818368
  81  H81     1.00   -6.702556208    2.263211596   -6.066701161
  82  H82     1.00   -3.723894301    0.268926925   -2.780958759
  83  H83     1.00   -4.794669815    1.695197717    1.688791546
  84  O84     8.00   -4.492370327   -4.619038669   -2.899501279
  85  C85     6.00   -5.706217006   -6.954494495   -3.617502720
  86  H86     1.00   -5.336605473   -7.259175038   -5.621387200
  87  H87     1.00   -4.956902803   -8.527200164   -2.498803752
  88  H88     1.00   -7.735386021   -6.743922313   -3.283682600
  89  C89     6.00    0.765546950   -8.810092165   -1.554224148
  90  H90     1.00    0.524342308   -9.878222063    0.194736277
  91  H91     1.00   -0.138233466   -9.802198381   -3.127950270
  92  H92     1.00    2.770168423   -8.514463410   -1.949271395
  93  H93     1.00    3.965420197   -3.930951593   -1.883527823
  94  H94     1.00    1.680023217    8.003708233    4.745801497
  95  H95     1.00   -8.592490202   -1.936855894    6.710436366
  96  H96     1.00   -8.617170025    4.683157076    1.349415631

 Bond lengths in Bohr (Angstrom)

  1- 2  2.897160090   1-42  2.071814719   1-43  2.075364155   1-44  2.066088972   2- 3  2.922819244
       ( 1.533111096)       ( 1.096357134)       ( 1.098235415)       ( 1.093327200)       ( 1.546689336)

  2-45  2.077758395   2-46  2.076679893   3- 4  2.868778007   3-47  2.074808995   3-48  2.072809123
       ( 1.099502392)       ( 1.098931674)       ( 1.518091944)       ( 1.097941637)       ( 1.096883351)

  4- 5  2.374702200   4- 6  2.436088564   4-41  5.354381596   5-41  5.752303920   6-41  3.738228643
       ( 1.256638287)       ( 1.289122552)       ( 2.833416719)       ( 3.043988145)       ( 1.978185407)

  7- 8  2.880329713   7-49  2.073722134   7-50  2.067584975   7-51  2.067294402   8- 9  2.877501033
       ( 1.524204844)       ( 1.097366495)       ( 1.094118851)       ( 1.093965086)       ( 1.522707971)

  8-10  2.758452296   8-52  2.075818417   9-53  2.073143984   9-54  2.071511715   9-55  2.071571150
       ( 1.459710092)       ( 1.098475800)       ( 1.097060551)       ( 1.096196792)       ( 1.096228243)

 10-11  3.881248880  10-41  5.723380800  10-93  1.899994890  11-12  3.052809799  11-13  2.909250878
       ( 2.053868457)       ( 3.028682689)       ( 1.005433997)       ( 1.615477375)       ( 1.539509266)

 11-14  2.823248009  11-41  6.104964310  11-84  3.694330392  12-89  2.733019881  13-41  3.806278621
       ( 1.493998507)       ( 3.230607986)       ( 1.954955453)       ( 1.446251838)       ( 2.014195904)

 15-16  2.909206016  15-56  2.071486863  15-57  2.071594403  15-58  2.072968636  16-17  2.825530746
       ( 1.539485525)       ( 1.096183641)       ( 1.096240548)       ( 1.096967761)       ( 1.495206479)

 16-59  2.075204580  16-60  2.079568893  17-18  2.598577230  17-19  2.620745546  18-21  2.615186536
       ( 1.098150972)       ( 1.100460467)       ( 1.375107851)       ( 1.386838819)       ( 1.383897117)

 18-61  2.039615884  19-20  2.562134900  19-95  1.963971984  20-21  2.506047062  20-63  2.049088360
       ( 1.079318245)       ( 1.355823401)       ( 1.039289217)       ( 1.326142995)       ( 1.084330863)

 22-23  2.885267033  22-64  2.072521034  22-65  2.070578035  22-66  2.068210359  23-24  2.879327072
       ( 1.526817561)       ( 1.096730900)       ( 1.095702709)       ( 1.094449789)       ( 1.523674269)

 23-67  2.079636063  23-68  2.079203999  24-25  2.457523893  24-26  2.350511364  24-41  5.269771008
       ( 1.100496011)       ( 1.100267373)       ( 1.300465639)       ( 1.243837048)       ( 2.788642724)

 25-41  3.730640718  26-41  5.546904495  27-28  2.915517831  27-69  2.072173980  27-70  2.069678144
       ( 1.974170050)       ( 2.935295450)       ( 1.542825594)       ( 1.096547247)       ( 1.095226508)

 27-71  2.071064011  28-29  2.825331696  28-72  2.074652541  28-73  2.077076680  29-30  2.589851797
       ( 1.095959877)       ( 1.495101147)       ( 1.097858845)       ( 1.099141644)       ( 1.370490551)

 29-31  2.622797936  30-33  2.626847569  30-41  5.608463167  30-74  2.045210615  31-32  2.546515589
       ( 1.387924897)       ( 1.390067870)       ( 2.967870896)       ( 1.082278849)       ( 1.347558017)

 31-94  1.965880907  32-33  2.518178854  32-41  5.561763838  32-75  2.047917638  33-41  3.904703543
       ( 1.040299375)       ( 1.332562863)       ( 2.943158676)       ( 1.083711344)       ( 2.066280131)

 34-35  2.906594934  34-76  2.070170646  34-77  2.071400033  34-78  2.073167354  35-36  2.823495386
       ( 1.538103800)       ( 1.095487129)       ( 1.096137692)       ( 1.097072918)       ( 1.494129413)

 35-79  2.079850986  35-80  2.073595406  36-37  2.587364410  36-38  2.628977279  37-40  2.613161872
       ( 1.100609744)       ( 1.097299433)       ( 1.369174282)       ( 1.391194864)       ( 1.382825711)

 37-81  2.044316157  38-39  2.528472047  38-96  1.973123925  39-40  2.515566624  39-83  2.043975993
       ( 1.081805522)       ( 1.338009786)       ( 1.044132215)       ( 1.331180530)       ( 1.081625515)

 40-82  1.962696351  41-93  5.096876906  62-84  2.004535134  84-85  2.728241878  85-86  2.060338789
       ( 1.038614181)       ( 2.697151106)       ( 1.060754312)       ( 1.443723427)       ( 1.090284334)

 85-87  2.070353178  85-88  2.067196993  89-90  2.063478550  89-91  2.068261998  89-92  2.064452939
       ( 1.095583720)       ( 1.093913539)       ( 1.091945824)       ( 1.094477115)       ( 1.092461448)

 Bond angles

  1- 2- 3  114.27157342   1- 2-45  109.80834571   1- 2-46  109.61232861   2- 1-42  110.52980876

  2- 1-43  110.78473656   2- 1-44  111.30037057   2- 3- 4  111.98923419   2- 3-47  109.50926986

  2- 3-48  109.11238320   3- 2-45  108.84225659   3- 2-46  107.40821952   3- 4- 5  119.70898672

  3- 4- 6  116.41891790   3- 4-41  150.99962323   4- 3-47  109.12756284   4- 3-48  108.33143902

  4- 5-41   68.39630209   4- 6-41  118.75044074   4-41- 5   24.35262127   4-41- 6   23.50840549

  4-41-10   73.72243360   4-41-11   90.18669658   4-41-13  108.54467967   4-41-24   91.01082497

  4-41-25  102.11990366   4-41-26   78.60578754   4-41-30  141.44240291   4-41-32  101.05157178

  4-41-33  124.02533058   4-41-93   55.98302706   5- 4- 6  123.85602772   5- 4-41   87.25107665

  5-41- 6   47.52008337   5-41-10   52.30727439   5-41-11   78.56096115   5-41-13   99.65616593

  5-41-24   82.49138244   5-41-25   85.08748964   5-41-26   80.00507347   5-41-30  152.47011399

  5-41-32  122.05705109   5-41-33  145.50597881   5-41-93   33.40774041   6- 4-41   37.74115377

  6-41-10   92.27973917   6-41-11   96.46003224   6-41-13  108.90280449   6-41-24  103.88467321

  6-41-25  121.22226726   6-41-26   84.41212483   6-41-30  126.50484243   6-41-32   83.29445533

  6-41-33  104.29294837   6-41-93   76.68138366   7- 8- 9  113.00846019   7- 8-10  110.24823066

  7- 8-52  109.73851120   8- 7-49  109.35734299   8- 7-50  110.30948143   8- 7-51  110.50199556

  8- 9-53  110.71022698   8- 9-54  109.45036191   8- 9-55  111.21824250   8-10-11  127.04789027

  8-10-41  130.66775058   8-10-93  115.26545124   9- 8-10  108.42341342   9- 8-52  110.09000003

 10- 8-52  105.02091116  10-11-12   86.39449968  10-11-13   90.04012260  10-11-14   91.24733353

 10-11-41   65.59911096  10-11-84  174.51933857  10-41-11   38.13860377  10-41-13   57.04465864

 10-41-24   95.12696225  10-41-25   77.10707541  10-41-26  111.65392139  10-41-30  140.92403156

 10-41-32  174.25178798  10-41-33  162.07165555  10-41-93   19.11692700  10-93-41   99.41692010

 11-10-41   76.26228527  11-10-93  117.65640796  11-12-89  120.89676213  11-13-41  130.28216846

 11-41-13   21.31756081  11-41-24  129.91734579  11-41-25  106.95772846  11-41-26  149.73258572

 11-41-30  127.12303327  11-41-32  145.88058741  11-41-33  130.83449782  11-41-93   52.68076942

 11-84-62  110.94404771  11-84-85  117.18156635  12-11-13  110.88627457  12-11-14  120.74262829

 12-11-41   93.95555522  12-11-84   89.21757598  12-89-90  105.42055194  12-89-91  110.42615934

 12-89-92  109.87272122  13-11-14  128.33435175  13-11-41   28.40027073  13-11-84   88.45652884

 13-41-24  136.94427757  13-41-25  111.99769167  13-41-26  161.85939680  13-41-30  106.79084705

 13-41-32  127.91673737  13-41-33  109.89011122  13-41-93   73.39848250  14-11-41  137.62491560

 14-11-84   93.81946118  15-16-17  112.85602410  15-16-59  109.73219654  15-16-60  109.62672825

 16-15-56  110.49478229  16-15-57  110.58388008  16-15-58  111.20734231  16-17-18  131.42068779

 16-17-19  123.60060792  17-16-59  107.63032919  17-16-60  109.88994373  17-18-21  109.69928655

 17-18-61  128.34465126  17-19-20  108.62308040  17-19-95  125.70022809  18-17-19  104.90290803

 18-21-20  106.65600241  19-20-21  110.11814034  19-20-63  123.73581055  20-19-95  125.64431609

 21-18-61  121.94850937  21-20-63  126.14555479  22-23-24  114.07572942  22-23-67  110.94882662

 22-23-68  111.01503145  23-22-64  110.43490115  23-22-65  111.01594205  23-22-66  111.19843066

 23-24-25  114.79955210  23-24-26  121.29373464  23-24-41  154.46098766  24-23-67  107.34718018

 24-23-68  107.44015639  24-25-41  115.22132802  24-26-41   70.92326923  24-41-25   24.95373791

 24-41-26   24.93192509  24-41-30   73.07125711  24-41-32   82.43502502  24-41-33   87.59196485

 24-41-93   88.17984082  25-24-26  123.90669769  25-24-41   39.82493407  25-41-26   49.86656966

 25-41-30   78.13420155  25-41-32  102.03057781  25-41-33   99.42438219  25-41-93   76.68645305

 26-24-41   84.14480568  26-41-30   72.48580909  26-41-32   64.37037862  26-41-33   77.30860704

 26-41-93   98.76723732  27-28-29  111.16523195  27-28-72  109.67215636  27-28-73  110.08888800

 28-27-69  110.63760840  28-27-70  110.45063789  28-27-71  110.90962930  28-29-30  131.44570571

 28-29-31  123.13820605  29-28-72  108.80325201  29-28-73  110.02881645  29-30-33  109.79010886

 29-30-41  132.10209137  29-30-74  128.84695202  29-31-32  108.92597756  29-31-94  125.49482312

 30-29-31  104.87539192  30-33-32  106.20672676  30-33-41  116.98308885  30-41-32   43.23126389

 30-41-33   24.66962172  30-41-93  152.61972756  31-32-33  110.18317737  31-32-41  132.40940581

 31-32-75  124.24677529  32-31-94  125.49316228  32-33-41  118.37318272  32-41-33   23.47668851

 32-41-93  155.14863048  33-30-41   38.34728943  33-30-74  121.28706823  33-32-41   38.15012877

 33-32-75  125.52676315  33-41-93  175.77127437  34-35-36  113.10715943  34-35-79  109.66841055

 34-35-80  110.18908432  35-34-76  110.08795247  35-34-77  110.89650868  35-34-78  111.41756871

 35-36-37  131.81001320  35-36-38  122.82424945  36-35-79  109.22674975  36-35-80  107.68074550

 36-37-40  107.44817788  36-37-81  130.69214808  36-38-39  110.18753192  36-38-96  125.30905778

 37-36-38  105.36361400  37-40-39  109.50407142  37-40-82  126.51396225  38-39-40  107.49647802

 38-39-83  126.55728089  39-38-96  124.50204319  39-40-82  123.97809556  40-37-81  121.85932603

 40-39-83  125.94085347  41-10-93   61.46615290  41-11-84  111.50581904  41-30-74   91.18454147

 41-32-75   95.34296124  42- 1-43  107.82415001  42- 1-44  107.95506455  43- 1-44  108.32249625

 45- 2-46  106.59608243  47- 3-48  108.70860792  49- 7-50  109.11669323  49- 7-51  108.36918759

 50- 7-51  109.14734434  53- 9-54  108.34273933  53- 9-55  108.65429994  54- 9-55  108.38814940

 56-15-57  108.38454606  56-15-58  108.04063518  57-15-58  108.02606989  59-16-60  106.91574697

 62-84-85  108.52957417  64-22-65  108.16357330  64-22-66  108.22881566  65-22-66  107.67845259

 67-23-68  105.57072022  69-27-70  108.52813870  69-27-71  108.35108424  70-27-71  107.87190003

 72-28-73  106.98111291  76-34-77  108.40643717  76-34-78  107.81530594  77-34-78  108.10560822

 79-35-80  106.75387751  84-85-86  107.62198717  84-85-87  110.30610918  84-85-88  107.88079225

 86-85-87  110.38189403  86-85-88  110.37827381  87-85-88  110.20559405  90-89-91  110.21461726

 90-89-92  110.47628702  91-89-92  110.32833816

 NUCLEAR CHARGE:                  354
 NUMBER OF PRIMITIVE AOS:        1528
 NUMBER OF SYMMETRY AOS:         1484
 NUMBER OF CONTRACTIONS:          768   (  768A   )
 NUMBER OF CORE ORBITALS:          52   (   52A   )
 NUMBER OF VALENCE ORBITALS:      228   (  228A   )


 NUCLEAR REPULSION ENERGY 6889.50981461


 Eigenvalues of metric

         1 0.235E-03 0.401E-03 0.444E-03 0.633E-03 0.688E-03 0.781E-03 0.111E-02 0.121E-02


 OPERATOR DM      FOR CENTER  0  COORDINATES:    0.000000    0.000000    0.000000


 **********************************************************************************************************************************
 DATASETS  * FILE   NREC   LENGTH (MB)   RECORD NAMES
              1      18       53.27       500      610      700      900      950      970     1000      129      960     1100   
                                          VAR    BASINP    GEOM    SYMINP    ZMAT    AOBASIS   BASIS     P2S    ABASIS      S 
                                         1400     1410     1200     1210     1080     1600     1650     1700   
                                           T        V       H0       H01     AOSYM     SMH    MOLCAS    OPER   

 PROGRAMS   *        TOTAL       INT
 CPU TIMES  *         3.62      3.47
 REAL TIME  *         5.72 SEC
 DISK USED  *        55.45 MB (local),      110.90 MB (total)
 GA USED    *         0.00 MB       (max)       0.00 MB       (current)
 **********************************************************************************************************************************


 PROGRAM * RHF-SCF (CLOSED SHELL)       Authors: W. Meyer, H.-J. Werner


 NUMBER OF ELECTRONS:     177+  177-    SPACE SYMMETRY=1    SPIN SYMMETRY: Singlet 
 CONVERGENCE THRESHOLDS:    1.00E-05 (Density)    1.00E-07 (Energy)
 INTEGRAL THRESHOLDS:       1.00E-11 (Initial)    1.00E-11 (Final)
 MAX. NUMBER OF ITERATIONS:       60
 INTERPOLATION TYPE:            DIIS
 INTERPOLATION STEPS:              2 (START)      1 (STEP)
 LEVEL SHIFTS:                  0.00 (CLOSED)  0.00 (OPEN) 



 Orbital guess generated from atomic densities. Full valence occupancy:  177

 Molecular orbital dump at record        2100.2

 Initial occupancy: 177

 Direct Fock-matrix evaluation.        Authors: Roland Lindh & Martin Schuetz (1993/96)

 Integral Threshold:                  0.1D-10
 Threshold for writing integrals:     0.1D-06
 Prescreening on density matrix:        ON 
 Calculation will be performed fully direct        

 ITERATION   DDIFF            GRAD            ENERGY        2-EL.EN.            DIPOLE MOMENTS         DIIS   CPU(IT)  CPU(TOT)
    1      0.000D+00      0.000D+00     -2554.98230479  15657.282149  -11.41878    3.74142    4.94442    0    598.7    663.3     start
    2      0.000D+00      0.271D-02     -2555.58118822  15591.610715   -9.57216    2.57150    1.29819    1    569.9   1233.2     diag
    3      0.530D-02      0.170D-02     -2555.82265352  15614.934824   -9.78361    2.72453    2.58945    2    532.6   1765.8     diag
    4      0.208D-02      0.338D-03     -2555.83689627  15613.653641   -9.70266    2.48988    2.29122    3    481.2   2247.0     diag
    5      0.565D-03      0.128D-03     -2555.83884217  15613.260703   -9.63612    2.56144    2.35883    4    435.7   2682.7     diag
    6      0.179D-03      0.331D-04     -2555.83904579  15612.885062   -9.62131    2.52461    2.32530    5    388.8   3071.4     diag
    7      0.614D-04      0.141D-04     -2555.83909310  15613.020162   -9.61739    2.52384    2.33113    6    360.1   3431.5     diag
    8      0.293D-04      0.517D-05     -2555.83910297  15612.998703   -9.61405    2.52143    2.32964    7    319.1   3750.6     diag
    9      0.125D-04      0.218D-05     -2555.83910468  15613.003838   -9.61314    2.52066    2.33109    8    287.0   4037.6     diag
   10      0.549D-05      0.853D-06     -2555.83910489  15613.003139   -9.61283    2.52024    2.33085    9    257.4   4295.0     orth
   11      0.208D-05      0.235D-06     -2555.83910494  15613.003681   -9.61295    2.52024    2.33107    9    215.1   4510.1     diag
   12      0.535D-06      0.101D-06     -2555.83910500  15613.002824   -9.61291    2.52020    2.33106    0    182.6   4692.7     orth

 Final occupancy: 177

 !RHF STATE  1.1 Energy             -2555.839105001226
 Nuclear energy                      6889.50981461
 One-electron energy               -17251.85033170
 Two-electron energy                 7806.50141208
 Virial quotient                       -1.00115836
 !RHF STATE  1.1 Dipole moment         -9.61291252     2.52019766     2.33106182
 Dipole moment /Debye                 -24.43198619     6.40528396     5.92458010

 Orbital energies:

         1.1          2.1          3.1          4.1          5.1          6.1          7.1          8.1          9.1         10.1
    -80.074576   -40.229699   -20.583771   -20.558473   -20.524513   -20.478321   -20.469662   -20.446785   -20.430239   -20.418138

        11.1         12.1         13.1         14.1         15.1         16.1         17.1         18.1         19.1         20.1
    -20.397636   -15.706547   -15.676093   -15.664622   -15.606947   -15.597912   -15.525661   -11.395221   -11.343735   -11.338032

        21.1         22.1         23.1         24.1         25.1         26.1         27.1         28.1         29.1         30.1
    -11.324763   -11.294366   -11.288868   -11.282404   -11.279730   -11.274133   -11.268591   -11.258022   -11.255645   -11.254140

        31.1         32.1         33.1         34.1         35.1         36.1         37.1         38.1         39.1         40.1
    -11.252265   -11.245287   -11.235833   -11.235032   -11.228615   -11.222044   -11.198736   -11.172959   -11.166754   -11.163411

        41.1         42.1         43.1         44.1         45.1         46.1         47.1         48.1         49.1         50.1
    -11.154900   -11.153018   -11.152208   -11.146198    -7.591724    -5.490871    -5.489553    -5.488539    -2.574187    -1.436854

        51.1         52.1         53.1         54.1         55.1         56.1         57.1         58.1         59.1         60.1
     -1.393640    -1.376897    -1.354080    -1.322761    -1.320174    -1.314566    -1.310257    -1.301337    -1.292294    -1.275241

        61.1         62.1         63.1         64.1         65.1         66.1         67.1         68.1         69.1         70.1
     -1.271218    -1.258632    -1.227217    -1.203345    -1.197137    -1.165724    -1.139017    -1.135288    -1.088327    -1.057097

        71.1         72.1         73.1         74.1         75.1         76.1         77.1         78.1         79.1         80.1
     -1.052491    -1.007143    -1.005504    -0.992145    -0.968549    -0.961822    -0.936664    -0.934840    -0.926750    -0.919919

        81.1         82.1         83.1         84.1         85.1         86.1         87.1         88.1         89.1         90.1
     -0.891466    -0.886543    -0.880996    -0.873138    -0.858532    -0.848191    -0.818406    -0.806276    -0.805055    -0.798918

        91.1         92.1         93.1         94.1         95.1         96.1         97.1         98.1         99.1        100.1
     -0.773090    -0.767993    -0.761745    -0.757383    -0.744569    -0.731230    -0.713377    -0.703538    -0.697254    -0.686940

       101.1        102.1        103.1        104.1        105.1        106.1        107.1        108.1        109.1        110.1
     -0.680092    -0.666850    -0.659332    -0.657083    -0.653584    -0.644482    -0.638618    -0.632658    -0.629848    -0.627646

       111.1        112.1        113.1        114.1        115.1        116.1        117.1        118.1        119.1        120.1
     -0.615682    -0.613199    -0.612167    -0.609728    -0.605543    -0.599006    -0.595716    -0.588693    -0.581591    -0.578380

       121.1        122.1        123.1        124.1        125.1        126.1        127.1        128.1        129.1        130.1
     -0.577669    -0.569704    -0.568455    -0.565592    -0.563750    -0.561266    -0.555256    -0.552150    -0.551140    -0.549051

       131.1        132.1        133.1        134.1        135.1        136.1        137.1        138.1        139.1        140.1
     -0.548054    -0.540516    -0.535369    -0.531059    -0.526031    -0.523963    -0.518325    -0.512176    -0.508614    -0.503636

       141.1        142.1        143.1        144.1        145.1        146.1        147.1        148.1        149.1        150.1
     -0.501245    -0.497785    -0.493495    -0.492457    -0.488246    -0.483509    -0.482662    -0.476493    -0.470360    -0.468765

       151.1        152.1        153.1        154.1        155.1        156.1        157.1        158.1        159.1        160.1
     -0.463084    -0.461940    -0.459752    -0.450353    -0.441665    -0.439348    -0.436772    -0.433770    -0.432048    -0.425526

       161.1        162.1        163.1        164.1        165.1        166.1        167.1        168.1        169.1        170.1
     -0.423652    -0.421499    -0.415830    -0.411612    -0.400286    -0.399899    -0.389673    -0.387602    -0.374305    -0.346308

       171.1        172.1        173.1        174.1        175.1        176.1        177.1        178.1        179.1
     -0.343871    -0.337667    -0.334657    -0.317494    -0.315583    -0.304446    -0.287471     0.102934     0.105450


 HOMO    177.1    -0.287471 =      -7.8225eV
 LUMO    178.1     0.102934 =       2.8010eV
 LUMO-HOMO         0.390405 =      10.6235eV


 **********************************************************************************************************************************
 DATASETS  * FILE   NREC   LENGTH (MB)   RECORD NAMES
              1      18       53.27       500      610      700      900      950      970     1000      129      960     1100   
                                          VAR    BASINP    GEOM    SYMINP    ZMAT    AOBASIS   BASIS     P2S    ABASIS      S 
                                         1400     1410     1200     1210     1080     1600     1650     1700   
                                           T        V       H0       H01     AOSYM     SMH    MOLCAS    OPER   

              2       4       16.34       700     1000      520     2100   
                                         GEOM     BASIS   MCVARS     RHF  

 PROGRAMS   *        TOTAL    HF-SCF       INT
 CPU TIMES  *      4696.68   4693.05      3.47
 REAL TIME  *      4714.33 SEC
 DISK USED  *       112.32 MB (local),      224.64 MB (total)
 SF USED    *         7.09 MB
 GA USED    *         0.00 MB       (max)       0.00 MB       (current)
 **********************************************************************************************************************************


 PROGRAM * MP2 (Closed-shell)     Authors: C. Hampel, H.-J. Werner, 1991, M. Deegan, P.J. Knowles, 1992

                    Integral-direct implementation by R. Lindh, M. Schuetz, and H.-J. Werner, 1997


 Convergence thresholds:  THRVAR = 1.00D-08  THRDEN = 1.00D-06

 Number of core orbitals:          52 (  52 )
 Number of closed-shell orbitals: 125 ( 125 )
 Number of external orbitals:     591 ( 591 )

 Molecular orbitals read from record     2100.2  Type=RHF/CANONICAL (state 1.1)

 Direct MP2 entered at time              0.25

 Integral Thresholds in transformation     1.0D-09 (AO)    1.0D-09 (SO)    1.0D-10 (Product)

 Disk space for sorting:                    173.26 GB
 Total memory available for dtraf:          941.16 MW

 Semi-direct algorithm used

 Paging enabled !
 Paging memory available to dtraf  :        758.82 MW
 Minimum Paging memory needed      :        144.00 MW
 Minimum memory needed by dtraf    :        326.34 MW

 Dtraf would need  7 passes for fully direct algorithm

 Number of operators formed in this pass:    15625
 DTRAF will do 13 out-of-core pages

 Integral pass  1 finished at time   4607.01

 SCS-MP2 correlation energy:           -5.938948561797   (PS=  1.200000  PT=  0.333333)
 SCS-MP2 total energy:              -2561.778053562356

 Norm of first-order wave function:     2.022030144157
 Coefficient of reference function:     0.575242021749

  Reference energy                  -2555.839105000558
  MP2 singlet pair energy              -3.678425508841
  MP2 triplet pair energy              -2.450632421551
  MP2 correlation energy               -6.129057930392

 !MP2 total energy                  -2561.968162930951


 **********************************************************************************************************************************
 DATASETS  * FILE   NREC   LENGTH (MB)   RECORD NAMES
              1      18       53.27       500      610      700      900      950      970     1000      129      960     1100   
                                          VAR    BASINP    GEOM    SYMINP    ZMAT    AOBASIS   BASIS     P2S    ABASIS      S 
                                         1400     1410     1200     1210     1080     1600     1650     1700   
                                           T        V       H0       H01     AOSYM     SMH    MOLCAS    OPER   

              2       4       16.34       700     1000      520     2100   
                                         GEOM     BASIS   MCVARS     RHF  

 PROGRAMS   *        TOTAL       MP2    HF-SCF       INT
 CPU TIMES  *     10392.79   5696.10   4693.05      3.47
 REAL TIME  *     28131.90 SEC
 DISK USED  *       145.20 GB (local),      290.40 GB (total)
 SF USED    *        95.78 GB
 GA USED    *         0.00 MB       (max)       0.00 MB       (current)
 **********************************************************************************************************************************
 EMP2_SCS         =     -2561.77805356 AU

 MP2/6-31G(D),O=6-31+G(D,P),P=6-31+G(D,P) energy=  -2561.968162930951

             MP2          HF-SCF
  -2561.96816293  -2555.83910500
 **********************************************************************************************************************************
 Molpro calculation terminated
