
 Primary working directories    : /tmp/is16372/1092900/molpro.45fIfJG49A
 Secondary working directories  : /tmp/is16372/1092900/molpro.45fIfJG49A
 Wavefunction directory         : /users/is16372/projects/mcr-1/molpro/mp2/ion_substitutions/lattice_point_charges/+1.5_charge/ts/
 Main file repository           : /tmp/is16372/1092900/molpro.45fIfJG49A/

 id        : uob

 Nodes       nprocs
 g-2-20.local    2

 Using customized tuning parameters: mindgm=1; mindgv=20; mindgc=4; mindgr=1; noblas=0; minvec=7
 default implementation of scratch files=sf  


 Variables initialized (930), CPU time= 0.01 sec
 memory,1000,mw
 gdirect
 set,charge=-1
 geomtyp=xyz
 noorient
 
 geometry={
   C1       3.373290    0.211660    3.771240
   C2       3.789110   -1.233860    3.474600
   C3       2.643430   -2.129710    2.948180
   C4       2.169740   -1.696850    1.572370
   O5       2.765540   -2.115660    0.548280
   O6       1.172640   -0.880420    1.539650
   C7       2.186860   -1.083900   -3.951520
   C8       2.449450   -2.286820   -3.053060
   C9       3.902300   -2.392570   -2.609570
  O10       1.607290   -2.221600   -1.862570
  P11      -0.442510   -2.328180   -1.789520
  O12      -0.242700   -3.390330   -0.588820
  O13      -0.499030   -0.889090   -1.245540
  O14      -0.502020   -2.784560   -3.210860
  C15      -1.963320   -1.961450    5.374960
  C16      -1.804330   -0.864830    4.306240
  C17      -2.460010   -1.218010    3.009710
  C18      -1.935160   -1.630380    1.807460
  N19      -3.834570   -1.248890    2.828180
  C20      -4.095100   -1.662370    1.563500
  N21      -2.960970   -1.899460    0.918370
  C22       5.327870    2.955380   -0.612080
  C23       4.279670    2.180110   -1.406690
  C24       3.189340    1.550580   -0.548520
  O25       2.308190    0.857700   -1.207840
  O26       3.168450    1.705220    0.685490
  C27       2.434270    5.480600   -0.363760
  C28       0.923670    5.460490   -0.050720
  C29       0.481690    4.101810    0.389700
  C30       0.088710    2.999980   -0.324290
  N31       0.583480    3.658890    1.701110
  C32       0.291050    2.344090    1.742320
  N33      -0.018220    1.903450    0.523340
  C34      -5.446300    4.498540   -1.455550
  C35      -5.629170    3.023860   -1.852590
  C36      -4.488050    2.156940   -1.429840
  C37      -3.616420    1.381580   -2.146580
  N38      -4.104230    2.010610   -0.100670
  C39      -3.054090    1.186290   -0.011380
  N40      -2.745290    0.796320   -1.246130
  H42       4.211520    0.772290    4.201430
  H43       2.545360    0.238860    4.492290
  H44       3.054080    0.727700    2.861750
  H45       4.611000   -1.242740    2.744310
  H46       4.177690   -1.701180    4.390170
  H47       1.798080   -2.092790    3.647820
  H48       2.999230   -3.165080    2.880590
  H49       2.781380   -1.178520   -4.869020
  H50       2.464980   -0.158580   -3.438170
  H51       1.129750   -1.036470   -4.229060
  H52       2.144040   -3.207960   -3.567720
  H53       4.210630   -1.487460   -2.071750
  H54       4.545330   -2.506600   -3.490000
  H55       4.055310   -3.258580   -1.955100
  H56      -1.462520   -1.666940    6.304520
  H57      -1.523140   -2.903820    5.028660
  H58      -3.020910   -2.143980    5.601950
  H59      -0.738230   -0.695480    4.104530
  H60      -2.212920    0.083670    4.686260
  H61      -0.897200   -1.733280    1.530010
  H62      -2.641500   -2.221470   -0.531490
  H63      -5.095490   -1.771450    1.159650
  H64       6.078710    3.385180   -1.286120
  H65       5.843000    2.302020    0.100890
  H66       4.870290    3.771530   -0.044330
  H67       3.783370    2.830580   -2.142670
  H68       4.745460    1.373370   -1.992180
  H69       2.751520    6.483600   -0.673210
  H70       2.667280    4.777500   -1.170530
  H71       3.019880    5.189470    0.515690
  H72       0.356670    5.743750   -0.947140
  H73       0.689030    6.202630    0.725350
  H74      -0.079140    2.905600   -1.389300
  H75       0.342920    1.735550    2.637540
  H76      -6.303930    5.089000   -1.796020
  H77      -4.538290    4.915170   -1.906610
  H78      -5.370180    4.613920   -0.367220
  H79      -6.561180    2.635200   -1.414820
  H80      -5.729920    2.934570   -2.941600
  H81      -3.546840    1.197640   -3.210360
  H82      -1.970600    0.142310   -1.471620
  H83      -2.537230    0.897060    0.893670
  O84      -2.377260   -2.444290   -1.534350
  C85      -3.019600   -3.680160   -1.914300
  H86      -2.824010   -3.841390   -2.974710
  H87      -2.623080   -4.512400   -1.322310
  H88      -4.093390   -3.568730   -1.737650
  C89       0.405110   -4.662100   -0.822460
  H90       0.277470   -5.227330    0.103050
  H91      -0.073150   -5.187100   -1.655240
  H92       1.465910   -4.505660   -1.031510
  H93       2.098410   -2.080170   -0.996720
  H94       0.889030    4.235380    2.511370
  H95      -4.546950   -1.024940    3.551010
  H96      -4.560010    2.478220    0.714080
 }
 
 lattice,infile=lattice
 
 basis={
 default,6-31G(d)
                                                                                 !i.e. C,N,H=6-31G(d)
 O=6-31+G(d,p)
 P=6-31+G(d,p)
 
 }
 
 {hf}
 {mp2}
 show EMP2_SCS
 Commands  initialized (760), CPU time= 0.02 sec, 617 directives.
 Default parameters read. Elapsed time= 0.09 sec

 Checking input...
 Passed
1


                                         ***  PROGRAM SYSTEM MOLPRO  ***
                                       Copyright, TTI GmbH Stuttgart, 2015
                                    Version 2019.1 linked Jan 14 2019 13:09:19


 **********************************************************************************************************************************
 LABEL *                                                                                 
  64 bit mpp version                                                                     DATE: 11-Aug-19          TIME: 10:23:20  
 **********************************************************************************************************************************

 SHA1:             d688ac825633d238f2093ded1675ba87ccd55965
 **********************************************************************************************************************************
 SETTING CHARGE         =        -1.00000000                                  
 SETTING GEOMTYP        =    XYZ

 Variable memory set to 1000000000 words,  buffer space 


 Read      1 lattice point charges from file lattice

 SETTING BASIS          =    6-31G(D),O=6-31+G(D,P),P=6-31+G(D,P)


 Recomputing integrals since basis changed


 Using spherical harmonics

 Library entry C      S 6-31G                selected for orbital group  1
 Library entry C      P 6-31G                selected for orbital group  1
 Library entry C      D 6-31G*               selected for orbital group  1
 Library entry O      S 6-31G                selected for orbital group  2
 Library entry O      S 6-31++G              selected for orbital group  2
 Library entry O      P 6-31G                selected for orbital group  2
 Library entry O      P 6-31++G              selected for orbital group  2
 Library entry O      D 6-31G*               selected for orbital group  2
 Library entry P      S 6-31G                selected for orbital group  5
 Library entry P      S 6-31++G              selected for orbital group  5
 Library entry P      P 6-31G                selected for orbital group  5
 Library entry P      P 6-31++G              selected for orbital group  5
 Library entry P      D 6-31G*               selected for orbital group  5
 Library entry N      S 6-31G                selected for orbital group  8
 Library entry N      P 6-31G                selected for orbital group  8
 Library entry N      D 6-31G*               selected for orbital group  8
 Library entry H      S 6-31G                selected for orbital group 21


 PROGRAM * SEWARD (Integral evaluation for generally contracted gaussian basis sets)     Author: Roland Lindh, 1990

 Geometry written to block  1 of record 700


 Point group  C1  



 ATOMIC COORDINATES

 NR  ATOM    CHARGE       X              Y              Z

   1  C1      6.00    6.374594239    0.399979432    7.126610750
   2  C2      6.00    7.160380156   -2.331657476    6.566042392
   3  C3      6.00    4.995358729   -4.024568625    5.571252766
   4  C4      6.00    4.100214362   -3.206581774    2.971348666
   5  O5      8.00    5.226113187   -3.998017973    1.036099040
   6  O6      8.00    2.215968443   -1.663752675    2.909516828
   7  C7      6.00    4.132566473   -2.048274146   -7.467290576
   8  C8      6.00    4.628789656   -4.321463496   -5.769447242
   9  C9      6.00    7.374278256   -4.521302034   -4.931372603
  10  O10     8.00    3.037337903   -4.198215558   -3.519747188
  11  P11    15.00   -0.836222707   -4.399622569   -3.381702694
  12  O12     8.00   -0.458636530   -6.406795172   -1.112708537
  13  O13     8.00   -0.943030028   -1.680136600   -2.353729477
  14  O14     8.00   -0.948680309   -5.262055777   -6.067646024
  15  C15     6.00   -3.710137095   -3.706603307   10.157202330
  16  C16     6.00   -3.409689538   -1.634291844    8.137614227
  17  C17     6.00   -4.648745164   -2.301705317    5.687527614
  18  C18     6.00   -3.656922407   -3.080971679    3.415604381
  19  N19     7.00   -7.246287105   -2.360060060    5.344485631
  20  C20     6.00   -7.738617453   -3.141424018    2.954586796
  21  N21     7.00   -5.595422363   -3.589459185    1.735467781
  22  C22     6.00   10.068215127    5.584858794   -1.156663566
  23  C23     6.00    8.087404204    4.119810821   -2.658258842
  24  C24     6.00    6.026979118    2.930171534   -1.036552574
  25  O25     8.00    4.361846943    1.620818097   -2.282486802
  26  O26     8.00    5.987502739    3.222398782    1.295388361
  27  C27     6.00    4.600103613   10.356832998   -0.687406775
  28  C28     6.00    1.745483329   10.318830606   -0.095846909
  29  C29     6.00    0.910262177    7.751297515    0.736426271
  30  C30     6.00    0.167637605    5.669140579   -0.612819285
  31  N31     7.00    1.102617399    6.914300020    3.214632008
  32  C32     6.00    0.550004789    4.429688111    3.292507621
  33  N33     7.00   -0.034430810    3.596999192    0.988969270
  34  C34     6.00  -10.292015392    8.501008560   -2.750590861
  35  C35     6.00  -10.637589609    5.714267239   -3.500887721
  36  C36     6.00   -8.481185333    4.076025867   -2.702006002
  37  C37     6.00   -6.834043351    2.610807819   -4.056448304
  38  N38     7.00   -7.755870652    3.799502243   -0.190238729
  39  C39     6.00   -5.771393660    2.241763204   -0.021505083
  40  N40     7.00   -5.187846233    1.504826708   -2.354844416
  41  H42     1.00    7.958619368    1.459416589    7.939552032
  42  H43     1.00    4.810033288    0.451379982    8.489197772
  43  H44     1.00    5.771374763    1.375153701    5.407923737
  44  H45     1.00    8.713527160   -2.348438244    5.185994301
  45  H46     1.00    7.894689933   -3.214764289    8.296218940
  46  H47     1.00    3.397878750   -3.954799936    6.893380752
  47  H48     1.00    5.667723285   -5.981134362    5.443526177
  48  H49     1.00    5.256046448   -2.227080032   -9.201114295
  49  H50     1.00    4.658137103   -0.299672769   -6.497199670
  50  H51     1.00    2.134918089   -1.958644436   -7.991765164
  51  H52     1.00    4.051648400   -6.062165819   -6.742013689
  52  H53     1.00    7.956937512   -2.810892021   -3.915040099
  53  H54     1.00    8.589428846   -4.736787504   -6.595144175
  54  H55     1.00    7.663425250   -6.157823755   -3.694603546
  55  H56     1.00   -2.763762252   -3.150060066   11.913816147
  56  H57     1.00   -2.878317449   -5.487424515    9.502790174
  57  H58     1.00   -5.708692547   -4.051535017   10.586151264
  58  H59     1.00   -1.395052517   -1.314266725    7.756437570
  59  H60     1.00   -4.181812736    0.158113385    8.855747949
  60  H61     1.00   -1.695462279   -3.275424497    2.891299868
  61  H62     1.00   -4.991711558   -4.197969894   -1.004370538
  62  H63     1.00   -9.629080570   -3.347555343    2.191420900
  63  H64     1.00   11.487097091    6.397063082   -2.430414563
  64  H65     1.00   11.041669746    4.350187333    0.190654469
  65  H66     1.00    9.203514247    7.127158771   -0.083771559
  66  H67     1.00    7.149533128    5.349020974   -4.049059475
  67  H68     1.00    8.967619735    2.595293168   -3.764674591
  68  H69     1.00    5.199619226   12.252228301   -1.272182524
  69  H70     1.00    5.040428698    9.028166560   -2.211981121
  70  H71     1.00    5.706746129    9.806677032    0.974512865
  71  H72     1.00    0.674008617   10.854114428   -1.789835202
  72  H73     1.00    1.302077992   11.721271952    1.370712844
  73  H74     1.00   -0.149552925    5.490788228   -2.625396505
  74  H75     1.00    0.648024883    3.279714175    4.984228243
  75  H76     1.00  -11.912701208    9.616816248   -3.393985914
  76  H77     1.00   -8.576125174    9.288325156   -3.602970726
  77  H78     1.00  -10.148169440    8.719045161   -0.693945227
  78  H79     1.00  -12.398833254    4.979806283   -2.673622316
  79  H80     1.00  -10.827979516    5.545533593   -5.558818368
  80  H81     1.00   -6.702556208    2.263211596   -6.066701161
  81  H82     1.00   -3.723894301    0.268926925   -2.780958759
  82  H83     1.00   -4.794669815    1.695197717    1.688791546
  83  O84     8.00   -4.492370327   -4.619038669   -2.899501279
  84  C85     6.00   -5.706217006   -6.954494495   -3.617502720
  85  H86     1.00   -5.336605473   -7.259175038   -5.621387200
  86  H87     1.00   -4.956902803   -8.527200164   -2.498803752
  87  H88     1.00   -7.735386021   -6.743922313   -3.283682600
  88  C89     6.00    0.765546950   -8.810092165   -1.554224148
  89  H90     1.00    0.524342308   -9.878222063    0.194736277
  90  H91     1.00   -0.138233466   -9.802198381   -3.127950270
  91  H92     1.00    2.770168423   -8.514463410   -1.949271395
  92  H93     1.00    3.965420197   -3.930951593   -1.883527823
  93  H94     1.00    1.680023217    8.003708233    4.745801497
  94  H95     1.00   -8.592490202   -1.936855894    6.710436366
  95  H96     1.00   -8.617170025    4.683157076    1.349415631

 Bond lengths in Bohr (Angstrom)

  1- 2  2.897160090   1-41  2.071814719   1-42  2.075364155   1-43  2.066088972   2- 3  2.922819244
       ( 1.533111096)       ( 1.096357134)       ( 1.098235415)       ( 1.093327200)       ( 1.546689336)

  2-44  2.077758395   2-45  2.076679893   3- 4  2.868778007   3-46  2.074808995   3-47  2.072809123
       ( 1.099502392)       ( 1.098931674)       ( 1.518091944)       ( 1.097941637)       ( 1.096883351)

  4- 5  2.374702200   4- 6  2.436088564   7- 8  2.880329713   7-48  2.073722134   7-49  2.067584975
       ( 1.256638287)       ( 1.289122552)       ( 1.524204844)       ( 1.097366495)       ( 1.094118851)

  7-50  2.067294402   8- 9  2.877501033   8-10  2.758452296   8-51  2.075818417   9-52  2.073143984
       ( 1.093965086)       ( 1.522707971)       ( 1.459710092)       ( 1.098475800)       ( 1.097060551)

  9-53  2.071511715   9-54  2.071571150  10-11  3.881248880  10-92  1.899994890  11-12  3.052809799
       ( 1.096196792)       ( 1.096228243)       ( 2.053868457)       ( 1.005433997)       ( 1.615477375)

 11-13  2.909250878  11-14  2.823248009  11-83  3.694330392  12-88  2.733019881  15-16  2.909206016
       ( 1.539509266)       ( 1.493998507)       ( 1.954955453)       ( 1.446251838)       ( 1.539485525)

 15-55  2.071486863  15-56  2.071594403  15-57  2.072968636  16-17  2.825530746  16-58  2.075204580
       ( 1.096183641)       ( 1.096240548)       ( 1.096967761)       ( 1.495206479)       ( 1.098150972)

 16-59  2.079568893  17-18  2.598577230  17-19  2.620745546  18-21  2.615186536  18-60  2.039615884
       ( 1.100460467)       ( 1.375107851)       ( 1.386838819)       ( 1.383897117)       ( 1.079318245)

 19-20  2.562134900  19-94  1.963971984  20-21  2.506047062  20-62  2.049088360  22-23  2.885267033
       ( 1.355823401)       ( 1.039289217)       ( 1.326142995)       ( 1.084330863)       ( 1.526817561)

 22-63  2.072521034  22-64  2.070578035  22-65  2.068210359  23-24  2.879327072  23-66  2.079636063
       ( 1.096730900)       ( 1.095702709)       ( 1.094449789)       ( 1.523674269)       ( 1.100496011)

 23-67  2.079203999  24-25  2.457523893  24-26  2.350511364  27-28  2.915517831  27-68  2.072173980
       ( 1.100267373)       ( 1.300465639)       ( 1.243837048)       ( 1.542825594)       ( 1.096547247)

 27-69  2.069678144  27-70  2.071064011  28-29  2.825331696  28-71  2.074652541  28-72  2.077076680
       ( 1.095226508)       ( 1.095959877)       ( 1.495101147)       ( 1.097858845)       ( 1.099141644)

 29-30  2.589851797  29-31  2.622797936  30-33  2.626847569  30-73  2.045210615  31-32  2.546515589
       ( 1.370490551)       ( 1.387924897)       ( 1.390067870)       ( 1.082278849)       ( 1.347558017)

 31-93  1.965880907  32-33  2.518178854  32-74  2.047917638  34-35  2.906594934  34-75  2.070170646
       ( 1.040299375)       ( 1.332562863)       ( 1.083711344)       ( 1.538103800)       ( 1.095487129)

 34-76  2.071400033  34-77  2.073167354  35-36  2.823495386  35-78  2.079850986  35-79  2.073595406
       ( 1.096137692)       ( 1.097072918)       ( 1.494129413)       ( 1.100609744)       ( 1.097299433)

 36-37  2.587364410  36-38  2.628977279  37-40  2.613161872  37-80  2.044316157  38-39  2.528472047
       ( 1.369174282)       ( 1.391194864)       ( 1.382825711)       ( 1.081805522)       ( 1.338009786)

 38-95  1.973123925  39-40  2.515566624  39-82  2.043975993  40-81  1.962696351  61-83  2.004535134
       ( 1.044132215)       ( 1.331180530)       ( 1.081625515)       ( 1.038614181)       ( 1.060754312)

 83-84  2.728241878  84-85  2.060338789  84-86  2.070353178  84-87  2.067196993  88-89  2.063478550
       ( 1.443723427)       ( 1.090284334)       ( 1.095583720)       ( 1.093913539)       ( 1.091945824)

 88-90  2.068261998  88-91  2.064452939
       ( 1.094477115)       ( 1.092461448)

 Bond angles

  1- 2- 3  114.27157342   1- 2-44  109.80834571   1- 2-45  109.61232861   2- 1-41  110.52980876

  2- 1-42  110.78473656   2- 1-43  111.30037057   2- 3- 4  111.98923419   2- 3-46  109.50926986

  2- 3-47  109.11238320   3- 2-44  108.84225659   3- 2-45  107.40821952   3- 4- 5  119.70898672

  3- 4- 6  116.41891790   4- 3-46  109.12756284   4- 3-47  108.33143902   5- 4- 6  123.85602772

  7- 8- 9  113.00846019   7- 8-10  110.24823066   7- 8-51  109.73851120   8- 7-48  109.35734299

  8- 7-49  110.30948143   8- 7-50  110.50199556   8- 9-52  110.71022698   8- 9-53  109.45036191

  8- 9-54  111.21824250   8-10-11  127.04789027   8-10-92  115.26545124   9- 8-10  108.42341342

  9- 8-51  110.09000003  10- 8-51  105.02091116  10-11-12   86.39449968  10-11-13   90.04012260

 10-11-14   91.24733353  10-11-83  174.51933857  11-10-92  117.65640796  11-12-88  120.89676213

 11-83-61  110.94404771  11-83-84  117.18156635  12-11-13  110.88627457  12-11-14  120.74262829

 12-11-83   89.21757598  12-88-89  105.42055194  12-88-90  110.42615934  12-88-91  109.87272122

 13-11-14  128.33435175  13-11-83   88.45652884  14-11-83   93.81946118  15-16-17  112.85602410

 15-16-58  109.73219654  15-16-59  109.62672825  16-15-55  110.49478229  16-15-56  110.58388008

 16-15-57  111.20734231  16-17-18  131.42068779  16-17-19  123.60060792  17-16-58  107.63032919

 17-16-59  109.88994373  17-18-21  109.69928655  17-18-60  128.34465126  17-19-20  108.62308040

 17-19-94  125.70022809  18-17-19  104.90290803  18-21-20  106.65600241  19-20-21  110.11814034

 19-20-62  123.73581055  20-19-94  125.64431609  21-18-60  121.94850937  21-20-62  126.14555479

 22-23-24  114.07572942  22-23-66  110.94882662  22-23-67  111.01503145  23-22-63  110.43490115

 23-22-64  111.01594205  23-22-65  111.19843066  23-24-25  114.79955210  23-24-26  121.29373464

 24-23-66  107.34718018  24-23-67  107.44015639  25-24-26  123.90669769  27-28-29  111.16523195

 27-28-71  109.67215636  27-28-72  110.08888800  28-27-68  110.63760840  28-27-69  110.45063789

 28-27-70  110.90962930  28-29-30  131.44570571  28-29-31  123.13820605  29-28-71  108.80325201

 29-28-72  110.02881645  29-30-33  109.79010886  29-30-73  128.84695202  29-31-32  108.92597756

 29-31-93  125.49482312  30-29-31  104.87539192  30-33-32  106.20672676  31-32-33  110.18317737

 31-32-74  124.24677529  32-31-93  125.49316228  33-30-73  121.28706823  33-32-74  125.52676315

 34-35-36  113.10715943  34-35-78  109.66841055  34-35-79  110.18908432  35-34-75  110.08795247

 35-34-76  110.89650868  35-34-77  111.41756871  35-36-37  131.81001320  35-36-38  122.82424945

 36-35-78  109.22674975  36-35-79  107.68074550  36-37-40  107.44817788  36-37-80  130.69214808

 36-38-39  110.18753192  36-38-95  125.30905778  37-36-38  105.36361400  37-40-39  109.50407142

 37-40-81  126.51396225  38-39-40  107.49647802  38-39-82  126.55728089  39-38-95  124.50204319

 39-40-81  123.97809556  40-37-80  121.85932603  40-39-82  125.94085347  41- 1-42  107.82415001

 41- 1-43  107.95506455  42- 1-43  108.32249625  44- 2-45  106.59608243  46- 3-47  108.70860792

 48- 7-49  109.11669323  48- 7-50  108.36918759  49- 7-50  109.14734434  52- 9-53  108.34273933

 52- 9-54  108.65429994  53- 9-54  108.38814940  55-15-56  108.38454606  55-15-57  108.04063518

 56-15-57  108.02606989  58-16-59  106.91574697  61-83-84  108.52957417  63-22-64  108.16357330

 63-22-65  108.22881566  64-22-65  107.67845259  66-23-67  105.57072022  68-27-69  108.52813870

 68-27-70  108.35108424  69-27-70  107.87190003  71-28-72  106.98111291  75-34-76  108.40643717

 75-34-77  107.81530594  76-34-77  108.10560822  78-35-79  106.75387751  83-84-85  107.62198717

 83-84-86  110.30610918  83-84-87  107.88079225  85-84-86  110.38189403  85-84-87  110.37827381

 86-84-87  110.20559405  89-88-90  110.21461726  89-88-91  110.47628702  90-88-91  110.32833816

 NUCLEAR CHARGE:                  343
 NUMBER OF PRIMITIVE AOS:        1476
 NUMBER OF SYMMETRY AOS:         1433
 NUMBER OF CONTRACTIONS:          750   (  750A   )
 NUMBER OF CORE ORBITALS:          47   (   47A   )
 NUMBER OF VALENCE ORBITALS:      224   (  224A   )


 NUCLEAR REPULSION ENERGY 6445.99035094


 Eigenvalues of metric

         1 0.508E-03 0.575E-03 0.807E-03 0.892E-03 0.114E-02 0.129E-02 0.131E-02 0.180E-02


 OPERATOR DM      FOR CENTER  0  COORDINATES:    0.000000    0.000000    0.000000

 Lattice contribution by fast summation, iforce=0 (Bellchambers and Manby 2008)
 Number of lattice points:      1 processed in     0.50 secs


 **********************************************************************************************************************************
 DATASETS  * FILE   NREC   LENGTH (MB)   RECORD NAMES
              1      18       52.25       500      610      700      900      950      970     1000      129      960     1100   
                                          VAR    BASINP    GEOM    SYMINP    ZMAT    AOBASIS   BASIS     P2S    ABASIS      S 
                                         1400     1410     1200     1210     1080     1600     1650     1700   
                                           T        V       H0       H01     AOSYM     SMH    MOLCAS    OPER   

              3       2        4.68      1000     6724   
                                         BASIS    AOPT   

 PROGRAMS   *        TOTAL       INT
 CPU TIMES  *         2.53      2.40
 REAL TIME  *         3.37 SEC
 DISK USED  *        58.91 MB (local),      117.82 MB (total)
 GA USED    *        18.07 MB       (max)       0.00 MB       (current)
 **********************************************************************************************************************************


 PROGRAM * RHF-SCF (CLOSED SHELL)       Authors: W. Meyer, H.-J. Werner


 NUMBER OF ELECTRONS:     172+  172-    SPACE SYMMETRY=1    SPIN SYMMETRY: Singlet 
 CONVERGENCE THRESHOLDS:    1.00E-05 (Density)    1.00E-07 (Energy)
 INTEGRAL THRESHOLDS:       1.00E-11 (Initial)    1.00E-11 (Final)
 MAX. NUMBER OF ITERATIONS:       60
 INTERPOLATION TYPE:            DIIS
 INTERPOLATION STEPS:              2 (START)      1 (STEP)
 LEVEL SHIFTS:                  0.00 (CLOSED)  0.00 (OPEN) 



 Orbital guess generated from atomic densities. Full valence occupancy:  172

 Molecular orbital dump at record        2100.2

 Initial occupancy: 172

 Direct Fock-matrix evaluation.        Authors: Roland Lindh & Martin Schuetz (1993/96)

 Integral Threshold:                  0.1D-10
 Threshold for writing integrals:     0.1D-06
 Prescreening on density matrix:        ON 
 Calculation will be performed fully direct        

 ITERATION   DDIFF            GRAD            ENERGY        2-EL.EN.            DIPOLE MOMENTS         DIIS   CPU(IT)  CPU(TOT)
    1      0.000D+00      0.000D+00     -2391.59262983  14652.577074  -30.85632    9.64895    2.83646    0    340.2    374.1     start
    2      0.000D+00      0.431D-02     -2340.95748301  14222.670596  168.65665  -62.21864   33.42669    1    345.5    719.6     diag
    3      0.912D-01      0.153D-01     -2394.34493160  14556.713723  -13.14728    3.56270    1.87617    2    323.7   1043.3     diag
    4      0.721D-01      0.166D-02     -2394.61143387  14553.998323  -11.51631    3.16275    3.02206    3    287.4   1330.8     diag
    5      0.364D-02      0.582D-03     -2394.64329716  14552.754418  -11.16609    2.68263    2.77256    4    256.0   1586.7     diag
    6      0.764D-03      0.164D-03     -2394.64700233  14552.277574  -10.97126    2.68785    2.82253    5    237.1   1823.8     diag
    7      0.330D-03      0.563D-04     -2394.64761503  14551.923683  -10.89398    2.60393    2.82282    6    211.5   2035.3     diag
    8      0.114D-03      0.225D-04     -2394.64772770  14551.739097  -10.85991    2.58598    2.82282    7    196.1   2231.5     diag
    9      0.615D-04      0.895D-05     -2394.64775619  14551.705379  -10.83841    2.57679    2.83026    8    178.4   2409.9     diag
   10      0.292D-04      0.379D-05     -2394.64776016  14551.698068  -10.83524    2.57403    2.82996    9    162.6   2572.5     orth
   11      0.138D-04      0.160D-05     -2394.64776076  14551.705665  -10.83518    2.57432    2.83080    9    145.2   2717.6     diag
   12      0.420D-05      0.540D-06     -2394.64776085  14551.709449  -10.83554    2.57443    2.83076    9    125.8   2843.4     diag
   13      0.174D-05      0.207D-06     -2394.64776092  14551.709301  -10.83570    2.57468    2.83089    0    102.4   2945.8     orth

 Final occupancy: 172

 !RHF STATE  1.1 Energy             -2394.647760922739
 Nuclear energy                      6445.99035094
 One-electron energy               -16116.49276222
 Two-electron energy                 7275.85465036
 Virial quotient                       -1.00174367
 !RHF STATE  1.1 Dipole moment        -10.83569791     2.57468422     2.83088809
 Dipole moment /Debye                 -27.53979309     6.54376591     7.19492856

 Orbital energies:

         1.1          2.1          3.1          4.1          5.1          6.1          7.1          8.1          9.1         10.1
    -80.136344   -20.633201   -20.610099   -20.580217   -20.563107   -20.540452   -20.523081   -20.519283   -20.517630   -20.494818

        11.1         12.1         13.1         14.1         15.1         16.1         17.1         18.1         19.1         20.1
    -15.749446   -15.722730   -15.706328   -15.673251   -15.641485   -15.615478   -11.439914   -11.386228   -11.379395   -11.366200

        21.1         22.1         23.1         24.1         25.1         26.1         27.1         28.1         29.1         30.1
    -11.356323   -11.356086   -11.333759   -11.333215   -11.329314   -11.316950   -11.308626   -11.304399   -11.302140   -11.301408

        31.1         32.1         33.1         34.1         35.1         36.1         37.1         38.1         39.1         40.1
    -11.296815   -11.287204   -11.285421   -11.279877   -11.273212   -11.248181   -11.227909   -11.226036   -11.219915   -11.211635

        41.1         42.1         43.1         44.1         45.1         46.1         47.1         48.1         49.1         50.1
    -11.207277   -11.204634   -11.195922    -7.652989    -5.552055    -5.550858    -5.550041    -1.480758    -1.445310    -1.420081

        51.1         52.1         53.1         54.1         55.1         56.1         57.1         58.1         59.1         60.1
     -1.404743    -1.389378    -1.387827    -1.368221    -1.365583    -1.330805    -1.314148    -1.290547    -1.282698    -1.259274

        61.1         62.1         63.1         64.1         65.1         66.1         67.1         68.1         69.1         70.1
     -1.246336    -1.211499    -1.174508    -1.130812    -1.109223    -1.095889    -1.062395    -1.048976    -1.042201    -1.029801

        71.1         72.1         73.1         74.1         75.1         76.1         77.1         78.1         79.1         80.1
     -1.022314    -0.982430    -0.978548    -0.967581    -0.963704    -0.949564    -0.930136    -0.927562    -0.914890    -0.902837

        81.1         82.1         83.1         84.1         85.1         86.1         87.1         88.1         89.1         90.1
     -0.900974    -0.868666    -0.866533    -0.862479    -0.847509    -0.837440    -0.823978    -0.814576    -0.803041    -0.793945

        91.1         92.1         93.1         94.1         95.1         96.1         97.1         98.1         99.1        100.1
     -0.777541    -0.768073    -0.762783    -0.738694    -0.734338    -0.729626    -0.724171    -0.708547    -0.705813    -0.696275

       101.1        102.1        103.1        104.1        105.1        106.1        107.1        108.1        109.1        110.1
     -0.695400    -0.688541    -0.685737    -0.684359    -0.678280    -0.671166    -0.662176    -0.660710    -0.657828    -0.657365

       111.1        112.1        113.1        114.1        115.1        116.1        117.1        118.1        119.1        120.1
     -0.652213    -0.650466    -0.644236    -0.637421    -0.633932    -0.632471    -0.630830    -0.627187    -0.624795    -0.619813

       121.1        122.1        123.1        124.1        125.1        126.1        127.1        128.1        129.1        130.1
     -0.618121    -0.614928    -0.614088    -0.603872    -0.603345    -0.596204    -0.592385    -0.589441    -0.587580    -0.583174

       131.1        132.1        133.1        134.1        135.1        136.1        137.1        138.1        139.1        140.1
     -0.578997    -0.565317    -0.564576    -0.557704    -0.556675    -0.554443    -0.547418    -0.546472    -0.544877    -0.542830

       141.1        142.1        143.1        144.1        145.1        146.1        147.1        148.1        149.1        150.1
     -0.541058    -0.535875    -0.534923    -0.533566    -0.529323    -0.523400    -0.515029    -0.513310    -0.508431    -0.507487

       151.1        152.1        153.1        154.1        155.1        156.1        157.1        158.1        159.1        160.1
     -0.499439    -0.496244    -0.490822    -0.488517    -0.482090    -0.481025    -0.476933    -0.475235    -0.472983    -0.458508

       161.1        162.1        163.1        164.1        165.1        166.1        167.1        168.1        169.1        170.1
     -0.457224    -0.452612    -0.442995    -0.431163    -0.425956    -0.418405    -0.413475    -0.402018    -0.394793    -0.390578

       171.1        172.1        173.1        174.1
     -0.381290    -0.353178     0.061222     0.069084


 HOMO    172.1    -0.353178 =      -9.6105eV
 LUMO    173.1     0.061222 =       1.6659eV
 LUMO-HOMO         0.414400 =      11.2764eV


 **********************************************************************************************************************************
 DATASETS  * FILE   NREC   LENGTH (MB)   RECORD NAMES
              1      18       52.25       500      610      700      900      950      970     1000      129      960     1100   
                                          VAR    BASINP    GEOM    SYMINP    ZMAT    AOBASIS   BASIS     P2S    ABASIS      S 
                                         1400     1410     1200     1210     1080     1600     1650     1700   
                                           T        V       H0       H01     AOSYM     SMH    MOLCAS    OPER   

              2       6       15.77       800      801      700     1000      520     2100   
                                        LATTICE  LATGRAD   GEOM     BASIS   MCVARS     RHF  

              3       2        4.68      1000     6724   
                                         BASIS    AOPT   

 PROGRAMS   *        TOTAL    HF-SCF       INT
 CPU TIMES  *      2948.52   2945.99      2.40
 REAL TIME  *      2957.31 SEC
 DISK USED  *       113.26 MB (local),      226.53 MB (total)
 SF USED    *         6.76 MB
 GA USED    *        18.07 MB       (max)       0.00 MB       (current)
 **********************************************************************************************************************************


 PROGRAM * MP2 (Closed-shell)     Authors: C. Hampel, H.-J. Werner, 1991, M. Deegan, P.J. Knowles, 1992

                    Integral-direct implementation by R. Lindh, M. Schuetz, and H.-J. Werner, 1997


 Convergence thresholds:  THRVAR = 1.00D-08  THRDEN = 1.00D-06

 Number of core orbitals:          47 (  47 )
 Number of closed-shell orbitals: 125 ( 125 )
 Number of external orbitals:     578 ( 578 )

 Molecular orbitals read from record     2100.2  Type=RHF/CANONICAL (state 1.1)

 Direct MP2 entered at time              0.12

 Integral Thresholds in transformation     1.0D-09 (AO)    1.0D-09 (SO)    1.0D-10 (Product)

 Disk space for sorting:                    165.24 GB
 Total memory available for dtraf:          991.60 MW

 Semi-direct algorithm used

 Paging enabled !
 Paging memory available to dtraf  :        813.39 MW
 Minimum Paging memory needed      :        140.62 MW
 Minimum memory needed by dtraf    :        318.84 MW

 Dtraf would need  7 passes for fully direct algorithm

 Number of operators formed in this pass:    15625
 DTRAF will do 12 out-of-core pages

 Integral pass  1 finished at time   2552.57

 SCS-MP2 correlation energy:           -6.114229193287   (PS=  1.200000  PT=  0.333333)
 SCS-MP2 total energy:              -2400.761990116011

 Norm of first-order wave function:     2.071887610568
 Coefficient of reference function:     0.570554767732

  Reference energy                  -2394.647760922724
  MP2 singlet pair energy              -3.798647655852
  MP2 triplet pair energy              -2.500476438639
  MP2 correlation energy               -6.299124094491

 !MP2 total energy                  -2400.946885017215


 **********************************************************************************************************************************
 DATASETS  * FILE   NREC   LENGTH (MB)   RECORD NAMES
              1      18       52.25       500      610      700      900      950      970     1000      129      960     1100   
                                          VAR    BASINP    GEOM    SYMINP    ZMAT    AOBASIS   BASIS     P2S    ABASIS      S 
                                         1400     1410     1200     1210     1080     1600     1650     1700   
                                           T        V       H0       H01     AOSYM     SMH    MOLCAS    OPER   

              2       6       15.77       800      801      700     1000      520     2100   
                                        LATTICE  LATGRAD   GEOM     BASIS   MCVARS     RHF  

              3       2        4.68      1000     6724   
                                         BASIS    AOPT   

 PROGRAMS   *        TOTAL       MP2    HF-SCF       INT
 CPU TIMES  *      5951.08   3002.56   2945.99      2.40
 REAL TIME  *     17883.10 SEC
 DISK USED  *       138.22 GB (local),      276.44 GB (total)
 SF USED    *        91.44 GB
 GA USED    *        18.07 MB       (max)       0.00 MB       (current)
 **********************************************************************************************************************************
 EMP2_SCS         =     -2400.76199012 AU

 MP2/6-31G(D),O=6-31+G(D,P),P=6-31+G(D,P) energy=  -2400.946885017215

             MP2          HF-SCF
  -2400.94688502  -2394.64776092
 **********************************************************************************************************************************
 Molpro calculation terminated
