/users/is16372/.bash_login: line 1: lastpwd: command not found
========= Job started  at Fri Jul 12 16:57:10 BST 2019 ==========
Running on host grendel.chm.bris.ac.uk
Time is Fri Jul 12 16:57:10 BST 2019
Directory is /users/is16372/projects/mcr-1/molpro/embedding/mp2-in-bhlyp/inc_grid/no_trunc/region_4_Zn_D465/ts
PBS job ID is
g-3-2.local
