
 Primary working directories    : /tmp/is16372/1092890/molpro.pE9xFtJfvq
 Secondary working directories  : /tmp/is16372/1092890/molpro.pE9xFtJfvq
 Wavefunction directory         : /users/is16372/projects/mcr-1/molpro/mp2/ion_substitutions/lattice_point_charges/+1_charge/rs/
 Main file repository           : /tmp/is16372/1092890/molpro.pE9xFtJfvq/

 id        : uob

 Nodes      nprocs
 g-0-3.local    2

 Using customized tuning parameters: mindgm=1; mindgv=20; mindgc=4; mindgr=1; noblas=0; minvec=7
 default implementation of scratch files=sf  


 Variables initialized (930), CPU time= 0.01 sec
 memory,1000,mw
 gdirect
 set,charge=-1
 geomtyp=xyz
 noorient
 
 geometry={
   C1       3.138380   -0.218260    4.024610
   C2       3.002000   -1.746140    3.971550
   C3       1.753730   -2.248670    3.215110
   C4       1.827200   -2.042210    1.703380
   O5       2.688870   -2.664560    1.042620
   O6       0.964110   -1.226960    1.194720
   C7       2.420120   -1.050030   -3.818560
   C8       2.914290   -2.055580   -2.782540
   C9       4.378890   -1.852400   -2.409510
  O10       2.072240   -1.971400   -1.597770
  P11      -1.101350   -1.967450   -2.168980
  O12      -0.912290   -3.081790   -1.006030
  O13      -0.600550   -0.613350   -1.623620
  O14      -0.703620   -2.450300   -3.526790
  C15      -2.391040   -2.199110    5.153880
  C16      -2.105730   -1.009870    4.219920
  C17      -2.724470   -1.180930    2.871610
  C18      -2.166880   -1.401940    1.639410
  N19      -4.100360   -1.188220    2.671720
  C20      -4.374320   -1.399530    1.379100
  N21      -3.211570   -1.531950    0.741690
  C22       5.513160    2.646870   -0.063550
  C23       4.544980    2.142000   -1.125670
  C24       3.471010    1.214900   -0.576590
  O25       2.492580    0.963910   -1.381890
  O26       3.570320    0.725570    0.567730
  C27       2.731130    5.298780    0.133790
  C28       1.232890    5.155060    0.467040
  C29       0.844800    3.726110    0.675430
  C30       0.392930    2.764640   -0.192480
  N31       1.043590    3.054130    1.874690
  C32       0.736970    1.749110    1.693040
  N33       0.338230    1.533070    0.444050
  C34      -5.094570    4.774070   -1.523110
  C35      -5.441480    3.275460   -1.518640
  C36      -4.293000    2.447210   -1.048450
  C37      -3.465560    1.572320   -1.700820
  N38      -3.793210    2.533170    0.245980
  C39      -2.709330    1.757490    0.372060
  N40      -2.499970    1.166500   -0.801150
  H42       4.015800    0.073600    4.612950
  H43       2.254880    0.237460    4.492220
  H44       3.249920    0.205890    3.020670
  H45       3.896380   -2.183600    3.507410
  H46       2.954250   -2.141380    4.996010
  H47       0.855120   -1.754760    3.605770
  H48       1.648870   -3.329040    3.389000
  H49       2.974240   -1.197360   -4.753610
  H50       2.578990   -0.028110   -3.466100
  H51       1.355840   -1.204910   -4.016040
  H52       2.777470   -3.074780   -3.180530
  H53       4.539890   -0.843250   -2.015750
  H54       5.013380   -1.987640   -3.294220
  H55       4.696960   -2.577380   -1.649260
  H56      -1.915890   -2.036570    6.127630
  H57      -1.996700   -3.128510    4.727250
  H58      -3.467640   -2.328050    5.319410
  H59      -1.024250   -0.894550    4.077640
  H60      -2.473640   -0.078640    4.675780
  H61      -1.128080   -1.462240    1.340300
  H62      -3.111620   -1.672280   -0.276220
  H63      -5.360360   -1.453700    0.931500
  H64       6.263470    3.312130   -0.508470
  H65       6.036330    1.815060    0.419460
  H66       4.985540    3.205590    0.717380
  H67       4.050680    2.972930   -1.646110
  H68       5.083590    1.578260   -1.904220
  H69       2.999040    6.354100    0.002500
  H70       2.972180    4.762060   -0.789660
  H71       3.352830    4.884440    0.935790
  H72       0.632260    5.564690   -0.355760
  H73       0.990740    5.744860    1.363010
  H74       0.146210    2.867760   -1.241130
  H75       0.841540    0.988530    2.453930
  H76      -5.948120    5.360930   -1.880550
  H77      -4.239410    4.972120   -2.179350
  H78      -4.840620    5.127120   -0.516100
  H79      -6.317710    3.094450   -0.878640
  H80      -5.708610    2.944250   -2.529950
  H81      -3.477570    1.212160   -2.720710
  H82      -1.723190    0.506160   -1.020330
  H83      -2.109110    1.629300    1.262470
  O84      -2.739860   -1.746040   -2.060040
  C85      -3.587030   -2.733660   -2.691150
  H86      -3.368020   -2.783750   -3.761240
  H87      -3.433300   -3.716430   -2.230150
  H88      -4.615890   -2.401980   -2.531540
  C89      -0.075570   -4.248370   -1.159340
  H90      -0.664280   -5.110640   -0.833120
  H91       0.227260   -4.371760   -2.201710
  H92       0.805600   -4.127180   -0.525880
  H93       2.500060   -2.438830   -0.833900
  H94       1.420440    3.471250    2.748010
  H95      -4.820500   -1.070610    3.420340
  H96      -4.184300    3.135650    1.003690
 }
 
 lattice,infile=lattice
 
 basis={
 default,6-31G(d)
                                                                                 !i.e. C,N,H=6-31G(d)
 O=6-31+G(d,p)
 P=6-31+G(d,p)
 
 }
 
 {hf}
 {mp2}
 show EMP2_SCS
 Commands  initialized (760), CPU time= 0.02 sec, 617 directives.
 Default parameters read. Elapsed time= 2.39 sec

 Checking input...
 Passed
1


                                         ***  PROGRAM SYSTEM MOLPRO  ***
                                       Copyright, TTI GmbH Stuttgart, 2015
                                    Version 2019.1 linked Jan 14 2019 13:09:19


 **********************************************************************************************************************************
 LABEL *                                                                                 
  64 bit mpp version                                                                     DATE: 10-Aug-19          TIME: 19:38:33  
 **********************************************************************************************************************************

 SHA1:             d688ac825633d238f2093ded1675ba87ccd55965
 **********************************************************************************************************************************
 SETTING CHARGE         =        -1.00000000                                  
 SETTING GEOMTYP        =    XYZ

 Variable memory set to 1000000000 words,  buffer space 


 Read      1 lattice point charges from file lattice

 SETTING BASIS          =    6-31G(D),O=6-31+G(D,P),P=6-31+G(D,P)


 Recomputing integrals since basis changed


 Using spherical harmonics

 Library entry C      S 6-31G                selected for orbital group  1
 Library entry C      P 6-31G                selected for orbital group  1
 Library entry C      D 6-31G*               selected for orbital group  1
 Library entry O      S 6-31G                selected for orbital group  2
 Library entry O      S 6-31++G              selected for orbital group  2
 Library entry O      P 6-31G                selected for orbital group  2
 Library entry O      P 6-31++G              selected for orbital group  2
 Library entry O      D 6-31G*               selected for orbital group  2
 Library entry P      S 6-31G                selected for orbital group  5
 Library entry P      S 6-31++G              selected for orbital group  5
 Library entry P      P 6-31G                selected for orbital group  5
 Library entry P      P 6-31++G              selected for orbital group  5
 Library entry P      D 6-31G*               selected for orbital group  5
 Library entry N      S 6-31G                selected for orbital group  8
 Library entry N      P 6-31G                selected for orbital group  8
 Library entry N      D 6-31G*               selected for orbital group  8
 Library entry H      S 6-31G                selected for orbital group 21


 PROGRAM * SEWARD (Integral evaluation for generally contracted gaussian basis sets)     Author: Roland Lindh, 1990

 Geometry written to block  1 of record 700


 Point group  C1  



 ATOMIC COORDINATES

 NR  ATOM    CHARGE       X              Y              Z

   1  C1      6.00    5.930678675   -0.412451624    7.605410658
   2  C2      6.00    5.672957826   -3.299726375    7.505141790
   3  C3      6.00    3.314069396   -4.249370445    6.075677360
   4  C4      6.00    3.452907575   -3.859217589    3.218921686
   5  O5      8.00    5.081227885   -5.035288642    1.970266252
   6  O6      8.00    1.821903854   -2.318618366    2.257693596
   7  C7      6.00    4.573363989   -1.984269123   -7.216032590
   8  C8      6.00    5.507209948   -3.884483227   -5.258238531
   9  C9      6.00    8.274902830   -3.500528673   -4.553313994
  10  O10     8.00    3.915966064   -3.725406082   -3.019347710
  11  P11    15.00   -2.081249867   -3.717941664   -4.098778170
  12  O12     8.00   -1.723978246   -5.823739073   -1.901121173
  13  O13     8.00   -1.134875024   -1.159063519   -3.068197130
  14  O14     8.00   -1.329649096   -4.630395923   -6.664667199
  15  C15     6.00   -4.518410753   -4.155715618    9.739421679
  16  C16     6.00   -3.979252992   -1.908377721    7.974493068
  17  C17     6.00   -5.148502135   -2.231634272    5.426556437
  18  C18     6.00   -4.094809745   -2.649282643    3.098035906
  19  N19     7.00   -7.748557412   -2.245410376    5.048819082
  20  C20     6.00   -8.266266781   -2.644728403    2.606121298
  21  N21     7.00   -6.068987730   -2.894965937    1.401590969
  22  C22     6.00   10.418362481    5.001859387   -0.120092095
  23  C23     6.00    8.588767442    4.047793359   -2.127208007
  24  C24     6.00    6.559258276    2.295828269   -1.089597186
  25  O25     8.00    4.710293544    1.821525909   -2.611393634
  26  O26     8.00    6.746926977    1.371128584    1.072854213
  27  C27     6.00    5.161087711   10.013242994    0.252826458
  28  C28     6.00    2.329824442    9.741651556    0.882577689
  29  C29     6.00    1.596440630    7.041327410    1.276377716
  30  C30     6.00    0.742530086    5.224412433   -0.363734484
  31  N31     7.00    1.972099286    5.771469249    3.542650668
  32  C32     6.00    1.392671462    3.305338862    3.199381918
  33  N33     7.00    0.639162067    2.897082430    0.839132886
  34  C34     6.00   -9.627342022    9.021684800   -2.878260758
  35  C35     6.00  -10.282906912    6.189722332   -2.869813682
  36  C36     6.00   -8.112594253    4.624556669   -1.981283355
  37  C37     6.00   -6.548959268    2.971254180   -3.214083987
  38  N38     7.00   -7.168128033    4.786997527    0.464834832
  39  C39     6.00   -5.119891681    3.321174767    0.703091502
  40  N40     7.00   -4.724258620    2.204365524   -1.513954085
  41  H42     1.00    7.588762171    0.139083843    8.717212126
  42  H43     1.00    4.261105644    0.448734366    8.489065491
  43  H44     1.00    6.141458727    0.389075712    5.708239013
  44  H45     1.00    7.363091077   -4.126405966    6.628044307
  45  H46     1.00    5.582723403   -4.046621729    9.441090616
  46  H47     1.00    1.615942604   -3.316015814    6.813917768
  47  H48     1.00    3.115912715   -6.290973858    6.404281836
  48  H49     1.00    5.620499029   -2.262682473   -8.983021003
  49  H50     1.00    4.873584778   -0.053120201   -6.549979720
  50  H51     1.00    2.562166269   -2.276949905   -7.589215705
  51  H52     1.00    5.248657619   -5.810492093   -6.010330631
  52  H53     1.00    8.579148736   -1.593511555   -3.809215436
  53  H54     1.00    9.473915158   -3.756095234   -6.225173594
  54  H55     1.00    8.875968018   -4.870542319   -3.116649708
  55  H56     1.00   -3.620507385   -3.848559534   11.579542493
  56  H57     1.00   -3.773216153   -5.912027078    8.933207822
  57  H58     1.00   -6.552889899   -4.399376904   10.052228044
  58  H59     1.00   -1.935551983   -1.690454505    7.705622835
  59  H60     1.00   -4.674502131   -0.148608062    8.835943619
  60  H61     1.00   -2.131762247   -2.763233128    2.532799925
  61  H62     1.00   -5.880109604   -3.160151204   -0.521980150
  62  H63     1.00  -10.129612329   -2.747094867    1.760279885
  63  H64     1.00   11.836242889    6.259018589   -0.960869043
  64  H65     1.00   11.407010497    3.429966300    0.792664520
  65  H66     1.00    9.421305183    6.057687168    1.355651727
  66  H67     1.00    7.654675818    5.618023488   -3.110697071
  67  H68     1.00    9.606592830    2.982479153   -3.598454281
  68  H69     1.00    5.667364237   12.007508768    0.004724315
  69  H70     1.00    5.616606193    8.998989189   -1.492241132
  70  H71     1.00    6.335930442    9.230253872    1.768386810
  71  H72     1.00    1.194798240   10.515740068   -0.672288966
  72  H73     1.00    1.872227261   10.856212024    2.575715605
  73  H74     1.00    0.276296857    5.419280991   -2.345395785
  74  H75     1.00    1.590280123    1.868050966    4.637255629
  75  H76     1.00  -11.240317756   10.130689473   -3.553724464
  76  H77     1.00   -8.011323830    9.395945058   -4.118374630
  77  H78     1.00   -9.147446073    9.688852608   -0.975287653
  78  H79     1.00  -11.938741634    5.847663006   -1.660388962
  79  H80     1.00  -10.787709452    5.563826142   -4.780912609
  80  H81     1.00   -6.571654879    2.290650419   -5.141396764
  81  H82     1.00   -3.256357161    0.956503775   -1.928144257
  82  H83     1.00   -3.985640267    3.078930775    2.385722540
  83  O84     8.00   -5.177585020   -3.299537403   -3.892911406
  84  C85     6.00   -6.778504301   -5.165868718   -5.085536460
  85  H86     1.00   -6.364635382   -5.260525099   -7.107713489
  86  H87     1.00   -6.487996703   -7.023034861   -4.214372717
  87  H88     1.00   -8.722767921   -4.539084357   -4.783917273
  88  C89     6.00   -0.142806603   -8.028255776   -2.190835085
  89  H90     1.00   -1.255307270   -9.657709921   -1.574368629
  90  H91     1.00    0.429459159   -8.261429082   -4.160628906
  91  H92     1.00    1.522363366   -7.799239867   -0.993769174
  92  H93     1.00    4.724428695   -4.608720764   -1.575842615
  93  H94     1.00    2.684242576    6.559711810    5.192986288
  94  H95     1.00   -9.109424783   -2.023159686    6.463505853
  95  H96     1.00   -7.907181023    5.925519722    1.896699214

 Bond lengths in Bohr (Angstrom)

  1- 2  2.900487782   1-41  2.071119204   1-42  2.076044623   1-43  2.070298180   2- 3  2.917112791
       ( 1.534872035)       ( 1.095989084)       ( 1.098595504)       ( 1.095554616)       ( 1.543669611)

  2-44  2.075873201   2-45  2.076991280   3- 4  2.886615366   3-46  2.073592142   3-47  2.077352033
       ( 1.098504791)       ( 1.099096452)       ( 1.527531069)       ( 1.097297706)       ( 1.099287355)

  4- 5  2.365102650   4- 6  2.440815140   7- 8  2.883719733   7-48  2.072740658   7-49  2.064726399
       ( 1.251558424)       ( 1.291623748)       ( 1.525998765)       ( 1.096847121)       ( 1.092606157)

  7-50  2.066360072   8- 9  2.881746622   8-10  2.751362343   8-51  2.083747102   9-52  2.069531958
       ( 1.093470660)       ( 1.524954640)       ( 1.455958251)       ( 1.102671480)       ( 1.095149150)

  9-53  2.073176151   9-54  2.074179602  10-92  1.875516892  11-12  3.064591656  11-13  2.916432750
       ( 1.097077573)       ( 1.097608577)       ( 0.992480798)       ( 1.621712065)       ( 1.543309748)

 11-14  2.825112919  11-83  3.131251288  12-88  2.728356979  15-16  2.907953183  15-55  2.070415400
       ( 1.494985375)       ( 1.656986823)       ( 1.443784337)       ( 1.538822555)       ( 1.095616647)

 15-56  2.071213586  15-57  2.072757593  16-17  2.821988560  16-58  2.072798964  16-59  2.079004009
       ( 1.096039029)       ( 1.096856082)       ( 1.493332035)       ( 1.096877975)       ( 1.100161543)

 17-18  2.589730811  17-19  2.627387055  18-21  2.614510360  18-60  2.045979449  19-20  2.528685496
       ( 1.370426528)       ( 1.390353354)       ( 1.383539300)       ( 1.082685699)       ( 1.338122738)

 19-94  1.975523736  20-21  2.518242912  20-62  2.048898050  21-61  1.950929016  22-23  2.878571569
       ( 1.045402141)       ( 1.332596761)       ( 1.084230156)       ( 1.032387175)       ( 1.523274474)

 22-63  2.073099126  22-64  2.069153793  22-65  2.070438453  23-24  2.874878319  23-66  2.074945917
       ( 1.097036813)       ( 1.094949033)       ( 1.095628846)       ( 1.521320090)       ( 1.098014093)

 23-67  2.082169176  24-25  2.441208254  24-26  2.359339971  27-28  2.913142671  27-68  2.072430112
       ( 1.101836477)       ( 1.291831775)       ( 1.248508946)       ( 1.541568714)       ( 1.096682787)

 27-69  2.069171033  27-70  2.071292010  28-29  2.825717744  28-71  2.074875375  28-72  2.078065499
       ( 1.094958156)       ( 1.096080529)       ( 1.495305435)       ( 1.097976764)       ( 1.099664905)

 29-30  2.592356318  29-31  2.624814711  30-33  2.621839011  30-73  2.045074250  31-32  2.556436802
       ( 1.371815886)       ( 1.388992128)       ( 1.387417455)       ( 1.082206688)       ( 1.352808097)

 31-93  1.962672172  32-33  2.511020752  32-74  2.042627349  34-35  2.906862242  34-75  2.070708406
       ( 1.038601386)       ( 1.328774958)       ( 1.080911843)       ( 1.538245254)       ( 1.095771699)

 34-76  2.071103077  34-77  2.072853020  35-36  2.819483416  35-78  2.078822109  35-79  2.073371832
       ( 1.095980550)       ( 1.096906580)       ( 1.492006370)       ( 1.100065286)       ( 1.097181123)

 36-37  2.588080540  36-38  2.627146296  37-40  2.609232139  37-80  2.044081973  38-39  2.529955485
       ( 1.369553242)       ( 1.390225949)       ( 1.380746186)       ( 1.081681597)       ( 1.338794788)

 38-95  1.972984470  39-40  2.513777941  39-82  2.043637843  40-81  1.970646375  83-84  2.732853754
       ( 1.044058419)       ( 1.330234000)       ( 1.081446574)       ( 1.042821153)       ( 1.446163928)

 84-85  2.066264080  84-86  2.071807669  84-87  2.064944017  88-89  2.067077511  88-90  2.064448011
       ( 1.093419863)       ( 1.096353404)       ( 1.092721316)       ( 1.093850312)       ( 1.092458840)

 88-91  2.063542126
       ( 1.091979467)

 Bond angles

  1- 2- 3  114.38402592   1- 2-44  109.79654001   1- 2-45  109.24476811   2- 1-41  110.77977730

  2- 1-42  110.86625982   2- 1-43  111.26975828   2- 3- 4  113.70732747   2- 3-46  109.95164529

  2- 3-47  108.63637302   3- 2-44  108.76508831   3- 2-45  107.73128486   3- 4- 5  119.23502091

  3- 4- 6  116.28977885   4- 3-46  109.32270557   4- 3-47  107.09574355   5- 4- 6  124.47194744

  7- 8- 9  112.91064187   7- 8-10  109.09106945   7- 8-51  108.89534920   8- 7-48  109.06595730

  8- 7-49  110.50077089   8- 7-50  110.14923519   8- 9-52  110.60475989   8- 9-53  109.98451624

  8- 9-54  111.08444757   8-10-92  110.47302835   9- 8-10  110.40781460   9- 8-51  109.30584720

 10- 8-51  105.98490293  11-12-88  123.13566500  11-83-84  117.34371114  12-11-13  108.15920741

 12-11-14  113.47602865  12-11-83   99.20400315  12-88-89  107.05960049  12-88-90  110.68473749

 12-88-91  108.44413165  13-11-14  121.19808782  13-11-83  100.39342869  14-11-83  111.46584703

 15-16-17  112.49749834  15-16-58  110.04653579  15-16-59  109.91748782  16-15-55  110.14281897

 16-15-56  110.63250834  16-15-57  111.37230488  16-17-18  131.43040241  16-17-19  122.71311668

 17-16-58  107.66464323  17-16-59  109.42168637  17-18-21  106.93830452  17-18-60  130.37325887

 17-19-20  110.01786604  17-19-94  125.32081225  18-17-19  105.81469901  18-21-20  109.82479258

 18-21-61  125.41035792  19-20-21  107.40406173  19-20-62  126.36111023  20-19-94  124.64482501

 20-21-61  124.72207717  21-18-60  122.68276196  21-20-62  126.23482311  22-23-24  113.51661054

 22-23-66  111.45685637  22-23-67  110.58274040  23-22-63  110.66550974  23-22-64  111.06833298

 23-22-65  111.09546990  23-24-25  115.34648295  23-24-26  120.89698478  24-23-66  108.32718152

 24-23-67  106.75735445  25-24-26  123.74200560  27-28-29  111.80590716  27-28-71  109.56515692

 27-28-72  109.88563276  28-27-68  110.67202240  28-27-69  110.52244741  28-27-70  110.96774875

 28-29-30  131.84302029  28-29-31  123.05901763  29-28-71  108.60128145  29-28-72  109.98931622

 29-30-33  110.17384491  29-30-73  128.41594059  29-31-32  108.56176843  29-31-93  125.70653263

 30-29-31  104.73318686  30-33-32  105.96717370  31-32-33  110.55283199  31-32-74  124.21789122

 32-31-93  125.63205304  33-30-73  121.34276967  33-32-74  125.19030437  34-35-36  111.60091386

 34-35-78  109.97625104  34-35-79  110.26269146  35-34-75  110.30667562  35-34-76  110.71736927

 35-34-77  111.29135514  35-36-37  132.03391190  35-36-38  122.40015166  36-35-78  109.78209753

 36-35-79  108.07786855  36-37-40  107.45113352  36-37-80  130.92876212  36-38-39  110.05437231

 36-38-95  125.22176801  37-36-38  105.41532074  37-40-39  109.51330775  37-40-81  124.75573974

 38-39-40  107.56383003  38-39-82  126.55212664  39-38-95  124.69834093  39-40-81  125.72742087

 40-37-80  121.61862885  40-39-82  125.88402507  41- 1-42  107.75045002  41- 1-43  107.89750457

 42- 1-43  108.13922337  44- 2-45  106.61824050  46- 3-47  107.93483941  48- 7-49  109.09742224

 48- 7-50  108.58570678  49- 7-50  109.40595610  52- 9-53  108.57333311  52- 9-54  108.48159228

 53- 9-54  108.03181212  55-15-56  108.40409507  55-15-57  107.99816514  56-15-57  108.19205072

 58-16-59  107.12615759  63-22-64  108.22784564  63-22-65  108.01074578  64-22-65  107.64241719

 66-23-67  105.80302638  68-27-69  108.47814294  68-27-70  108.22775937  69-27-70  107.87410094

 71-28-72  106.85864517  75-34-76  108.40255443  75-34-77  107.90419005  76-34-77  108.11299929

 78-35-79  107.01661160  83-84-85  109.94029870  83-84-86  110.27523997  83-84-87  106.29204180

 85-84-86  110.02090987  85-84-87  110.20910343  86-84-87  110.04115275  89-88-90  110.16418187

 89-88-91  110.41272726  90-88-91  110.02035470

 NUCLEAR CHARGE:                  343
 NUMBER OF PRIMITIVE AOS:        1476
 NUMBER OF SYMMETRY AOS:         1433
 NUMBER OF CONTRACTIONS:          750   (  750A   )
 NUMBER OF CORE ORBITALS:          47   (   47A   )
 NUMBER OF VALENCE ORBITALS:      224   (  224A   )


 NUCLEAR REPULSION ENERGY 6434.25095464


 Eigenvalues of metric

         1 0.482E-03 0.887E-03 0.100E-02 0.108E-02 0.123E-02 0.126E-02 0.138E-02 0.191E-02


 OPERATOR DM      FOR CENTER  0  COORDINATES:    0.000000    0.000000    0.000000

 Lattice contribution by fast summation, iforce=0 (Bellchambers and Manby 2008)
 Number of lattice points:      1 processed in     0.75 secs


 **********************************************************************************************************************************
 DATASETS  * FILE   NREC   LENGTH (MB)   RECORD NAMES
              1      18       52.25       500      610      700      900      950      970     1000      129      960     1100   
                                          VAR    BASINP    GEOM    SYMINP    ZMAT    AOBASIS   BASIS     P2S    ABASIS      S 
                                         1400     1410     1200     1210     1080     1600     1650     1700   
                                           T        V       H0       H01     AOSYM     SMH    MOLCAS    OPER   

              3       2        4.68      1000     6724   
                                         BASIS    AOPT   

 PROGRAMS   *        TOTAL       INT
 CPU TIMES  *         4.18      4.00
 REAL TIME  *         9.21 SEC
 DISK USED  *        58.91 MB (local),      117.82 MB (total)
 GA USED    *        18.07 MB       (max)       0.00 MB       (current)
 **********************************************************************************************************************************


 PROGRAM * RHF-SCF (CLOSED SHELL)       Authors: W. Meyer, H.-J. Werner


 NUMBER OF ELECTRONS:     172+  172-    SPACE SYMMETRY=1    SPIN SYMMETRY: Singlet 
 CONVERGENCE THRESHOLDS:    1.00E-05 (Density)    1.00E-07 (Energy)
 INTEGRAL THRESHOLDS:       1.00E-11 (Initial)    1.00E-11 (Final)
 MAX. NUMBER OF ITERATIONS:       60
 INTERPOLATION TYPE:            DIIS
 INTERPOLATION STEPS:              2 (START)      1 (STEP)
 LEVEL SHIFTS:                  0.00 (CLOSED)  0.00 (OPEN) 



 Orbital guess generated from atomic densities. Full valence occupancy:  172

 Molecular orbital dump at record        2100.2

 Initial occupancy: 172

 Direct Fock-matrix evaluation.        Authors: Roland Lindh & Martin Schuetz (1993/96)

 Integral Threshold:                  0.1D-10
 Threshold for writing integrals:     0.1D-06
 Prescreening on density matrix:        ON 
 Calculation will be performed fully direct        

 ITERATION   DDIFF            GRAD            ENERGY        2-EL.EN.            DIPOLE MOMENTS         DIIS   CPU(IT)  CPU(TOT)
    1      0.000D+00      0.000D+00     -2393.05978662  14632.461623  -17.76281    6.40720    9.89871    0    491.0    546.3     start
    2      0.000D+00      0.335D-02     -2393.81290582  14530.748929  -14.41463    3.78865    4.13775    1    480.1   1026.4     diag
    3      0.721D-02      0.241D-02     -2394.29185096  14567.472654  -14.82980    4.34310    6.38449    2    446.7   1473.1     diag
    4      0.312D-02      0.422D-03     -2394.31099831  14566.463151  -14.82673    4.05887    5.93924    3    392.7   1865.8     diag
    5      0.593D-03      0.175D-03     -2394.31436082  14565.787807  -14.67301    4.07967    6.04102    4    358.2   2224.0     diag
    6      0.235D-03      0.423D-04     -2394.31464502  14565.357031  -14.66312    4.05605    5.99528    5    316.8   2540.8     diag
    7      0.663D-04      0.162D-04     -2394.31470674  14565.455523  -14.65579    4.04463    6.00037    6    290.0   2830.8     diag
    8      0.318D-04      0.636D-05     -2394.31471971  14565.434759  -14.65299    4.04256    5.99905    7    259.6   3090.4     diag
    9      0.142D-04      0.270D-05     -2394.31472231  14565.439345  -14.65177    4.04083    6.00004    8    234.4   3324.9     diag
   10      0.667D-05      0.107D-05     -2394.31472261  14565.441115  -14.65177    4.04042    5.99979    9    210.1   3534.9     orth
   11      0.262D-05      0.329D-06     -2394.31472263  14565.440713  -14.65182    4.04035    5.99992    9    176.7   3711.6     diag
   12      0.694D-06      0.128D-06     -2394.31472258  14565.440065  -14.65185    4.04037    5.99985    0    145.9   3857.5     orth

 Final occupancy: 172

 !RHF STATE  1.1 Energy             -2394.314722576516
 Nuclear energy                      6434.25095464
 One-electron energy               -16111.28570967
 Two-electron energy                 7282.72003245
 Virial quotient                       -1.00148791
 !RHF STATE  1.1 Dipole moment        -14.65184917     4.04037025     5.99985186
 Dipole moment /Debye                 -37.23884683    10.26892423    15.24910350

 Orbital energies:

         1.1          2.1          3.1          4.1          5.1          6.1          7.1          8.1          9.1         10.1
    -80.042583   -20.581254   -20.537945   -20.468961   -20.457497   -20.455524   -20.437435   -20.430418   -20.402955   -20.402897

        11.1         12.1         13.1         14.1         15.1         16.1         17.1         18.1         19.1         20.1
    -15.729390   -15.714115   -15.705788   -15.676131   -15.601211   -15.522050   -11.422873   -11.399982   -11.342329   -11.341990

        21.1         22.1         23.1         24.1         25.1         26.1         27.1         28.1         29.1         30.1
    -11.327294   -11.318187   -11.299717   -11.288420   -11.287348   -11.272632   -11.271653   -11.271607   -11.262867   -11.239880

        31.1         32.1         33.1         34.1         35.1         36.1         37.1         38.1         39.1         40.1
    -11.239826   -11.233526   -11.227792   -11.214685   -11.199056   -11.193419   -11.177659   -11.175284   -11.164825   -11.147600

        41.1         42.1         43.1         44.1         45.1         46.1         47.1         48.1         49.1         50.1
    -11.146918   -11.131848   -11.110725    -7.564503    -5.463352    -5.462587    -5.461641    -1.458037    -1.442559    -1.393150

        51.1         52.1         53.1         54.1         55.1         56.1         57.1         58.1         59.1         60.1
     -1.329407    -1.312434    -1.297082    -1.293221    -1.276082    -1.268896    -1.246623    -1.242552    -1.210308    -1.191336

        61.1         62.1         63.1         64.1         65.1         66.1         67.1         68.1         69.1         70.1
     -1.159332    -1.141650    -1.140504    -1.133406    -1.061484    -1.060548    -1.049397    -1.011679    -0.962849    -0.958833

        71.1         72.1         73.1         74.1         75.1         76.1         77.1         78.1         79.1         80.1
     -0.957422    -0.950670    -0.946183    -0.939326    -0.930383    -0.929680    -0.899354    -0.898245    -0.881249    -0.877481

        81.1         82.1         83.1         84.1         85.1         86.1         87.1         88.1         89.1         90.1
     -0.847296    -0.846183    -0.822637    -0.811653    -0.798269    -0.792566    -0.771893    -0.765381    -0.764158    -0.741226

        91.1         92.1         93.1         94.1         95.1         96.1         97.1         98.1         99.1        100.1
     -0.729739    -0.715752    -0.708120    -0.707489    -0.699680    -0.697095    -0.692943    -0.668211    -0.664624    -0.662020

       101.1        102.1        103.1        104.1        105.1        106.1        107.1        108.1        109.1        110.1
     -0.660875    -0.658076    -0.650742    -0.647113    -0.640213    -0.635942    -0.629909    -0.618445    -0.610066    -0.595328

       111.1        112.1        113.1        114.1        115.1        116.1        117.1        118.1        119.1        120.1
     -0.593033    -0.586549    -0.584461    -0.581830    -0.578788    -0.577682    -0.570889    -0.568270    -0.565794    -0.564356

       121.1        122.1        123.1        124.1        125.1        126.1        127.1        128.1        129.1        130.1
     -0.561016    -0.556862    -0.553074    -0.550353    -0.544929    -0.543962    -0.541853    -0.540669    -0.536414    -0.527725

       131.1        132.1        133.1        134.1        135.1        136.1        137.1        138.1        139.1        140.1
     -0.524508    -0.520652    -0.515170    -0.508651    -0.505267    -0.502013    -0.494792    -0.493050    -0.490852    -0.483124

       141.1        142.1        143.1        144.1        145.1        146.1        147.1        148.1        149.1        150.1
     -0.480561    -0.478105    -0.464966    -0.462720    -0.459573    -0.449018    -0.448354    -0.442222    -0.439295    -0.433364

       151.1        152.1        153.1        154.1        155.1        156.1        157.1        158.1        159.1        160.1
     -0.431351    -0.430087    -0.424426    -0.420947    -0.418457    -0.409617    -0.405027    -0.403832    -0.397004    -0.396045

       161.1        162.1        163.1        164.1        165.1        166.1        167.1        168.1        169.1        170.1
     -0.392321    -0.379216    -0.374214    -0.367900    -0.345924    -0.337309    -0.327781    -0.324105    -0.306284    -0.301145

       171.1        172.1        173.1        174.1
     -0.294748    -0.277135     0.070413     0.093123


 HOMO    172.1    -0.277135 =      -7.5412eV
 LUMO    173.1     0.070413 =       1.9160eV
 LUMO-HOMO         0.347547 =       9.4572eV


 **********************************************************************************************************************************
 DATASETS  * FILE   NREC   LENGTH (MB)   RECORD NAMES
              1      18       52.25       500      610      700      900      950      970     1000      129      960     1100   
                                          VAR    BASINP    GEOM    SYMINP    ZMAT    AOBASIS   BASIS     P2S    ABASIS      S 
                                         1400     1410     1200     1210     1080     1600     1650     1700   
                                           T        V       H0       H01     AOSYM     SMH    MOLCAS    OPER   

              2       6       15.77       800      801      700     1000      520     2100   
                                        LATTICE  LATGRAD   GEOM     BASIS   MCVARS     RHF  

              3       2        4.68      1000     6724   
                                         BASIS    AOPT   

 PROGRAMS   *        TOTAL    HF-SCF       INT
 CPU TIMES  *      3862.03   3857.85      4.00
 REAL TIME  *      3878.64 SEC
 DISK USED  *       113.26 MB (local),      226.53 MB (total)
 SF USED    *         6.76 MB
 GA USED    *        18.07 MB       (max)       0.00 MB       (current)
 **********************************************************************************************************************************


 PROGRAM * MP2 (Closed-shell)     Authors: C. Hampel, H.-J. Werner, 1991, M. Deegan, P.J. Knowles, 1992

                    Integral-direct implementation by R. Lindh, M. Schuetz, and H.-J. Werner, 1997


 Convergence thresholds:  THRVAR = 1.00D-08  THRDEN = 1.00D-06

 Number of core orbitals:          47 (  47 )
 Number of closed-shell orbitals: 125 ( 125 )
 Number of external orbitals:     578 ( 578 )

 Molecular orbitals read from record     2100.2  Type=RHF/CANONICAL (state 1.1)

 Direct MP2 entered at time              0.23

 Integral Thresholds in transformation     1.0D-09 (AO)    1.0D-09 (SO)    1.0D-10 (Product)

 Disk space for sorting:                    165.24 GB
 Total memory available for dtraf:          991.60 MW

 Semi-direct algorithm used

 Paging enabled !
 Paging memory available to dtraf  :        813.39 MW
 Minimum Paging memory needed      :        140.62 MW
 Minimum memory needed by dtraf    :        318.84 MW

 Dtraf would need  7 passes for fully direct algorithm

 Number of operators formed in this pass:    15625
 DTRAF will do 12 out-of-core pages

 Integral pass  1 finished at time   3653.76

 SCS-MP2 correlation energy:           -6.099718225374   (PS=  1.200000  PT=  0.333333)
 SCS-MP2 total energy:              -2400.414440801948

 Norm of first-order wave function:     2.060992516455
 Coefficient of reference function:     0.571569263235

  Reference energy                  -2394.314722576574
  MP2 singlet pair energy              -3.791610830483
  MP2 triplet pair energy              -2.490726260563
  MP2 correlation energy               -6.282337091046

 !MP2 total energy                  -2400.597059667620


 **********************************************************************************************************************************
 DATASETS  * FILE   NREC   LENGTH (MB)   RECORD NAMES
              1      18       52.25       500      610      700      900      950      970     1000      129      960     1100   
                                          VAR    BASINP    GEOM    SYMINP    ZMAT    AOBASIS   BASIS     P2S    ABASIS      S 
                                         1400     1410     1200     1210     1080     1600     1650     1700   
                                           T        V       H0       H01     AOSYM     SMH    MOLCAS    OPER   

              2       6       15.77       800      801      700     1000      520     2100   
                                        LATTICE  LATGRAD   GEOM     BASIS   MCVARS     RHF  

              3       2        4.68      1000     6724   
                                         BASIS    AOPT   

 PROGRAMS   *        TOTAL       MP2    HF-SCF       INT
 CPU TIMES  *      8533.62   4671.58   3857.85      4.00
 REAL TIME  *     24884.09 SEC
 DISK USED  *       138.05 GB (local),      276.10 GB (total)
 SF USED    *        91.44 GB
 GA USED    *        18.07 MB       (max)       0.00 MB       (current)
 **********************************************************************************************************************************
 EMP2_SCS         =     -2400.41444080 AU

 MP2/6-31G(D),O=6-31+G(D,P),P=6-31+G(D,P) energy=  -2400.597059667620

             MP2          HF-SCF
  -2400.59705967  -2394.31472258
 **********************************************************************************************************************************
 Molpro calculation terminated
