/users/is16372/.bash_login: line 1: lastpwd: command not found
========= Job started  at Fri Aug  9 15:04:16 BST 2019 ==========
Running on host grendel.chm.bris.ac.uk
Time is Fri Aug 9 15:04:16 BST 2019
Directory is /users/is16372/projects/mcr-1/molpro/mp2/vtz_basis/zinc_ion/ts
PBS job ID is
g-0-1.local
0:0:fehler on processor   0                                         :: 1
(rank:0 hostname:g-0-1.local pid:18198):ARMCI DASSERT fail. src/common/armci.c:ARMCI_Error():208 cond:0
Last System Error Message from Task 0:: Inappropriate ioctl for device
application called MPI_Abort(comm=0x84000007, 1) - process 0
