location                                        SCS-MP2_correlation_energy
region_1/rs/mp2-in-bhlyp.out                    -0.829736263672
region_1/ts/mp2-in-bhlyp.out                    -0.838760096877
region_1/ps/mp2-in-bhlyp.out                    -0.823651988935
region_1_H466_D465/rs/mp2-in-bhlyp.out          -1.630424840381
region_1_H466_D465/ts/mp2-in-bhlyp.out          -1.639361634858
region_1_H466_D465/ps/mp2-in-bhlyp.out          -1.621820696868
region_1_Zn_H466_D465/rs/mp2-in-bhlyp.out       -1.780164812791
region_1_Zn_H466_D465/ts/mp2-in-bhlyp.out       -1.792575506537
region_1_Zn_H466_D465/ps/mp2-in-bhlyp.out       -1.775638007040
region_2/rs/mp2-in-bhlyp.out                    -2.017022832826
region_2/ts/mp2-in-bhlyp.out                    -2.031821654570
region_2/ps/mp2-in-bhlyp.out                    -1.994611248146
region_2_Zn_H466_D465/rs/mp2-in-bhlyp.out       -3.059859876736
region_2_Zn_H466_D465/ts/mp2-in-bhlyp.out       -3.076131325414
region_2_Zn_H466_D465/ps/mp2-in-bhlyp.out       -3.053250084630
region_3/rs/mp2-in-bhlyp.out                    -2.937155488455
region_3/ts/mp2-in-bhlyp.out                    -2.952677926360
region_3/ps/mp2-in-bhlyp.out                    -2.923685659145
region_3_Zn_H466_D465/rs/mp2-in-bhlyp.out       -4.391883190229
region_3_Zn_H466_D465/ts/mp2-in-bhlyp.out       -4.407033001251
region_3_Zn_H466_D465/ps/mp2-in-bhlyp.out       -4.382449881674
region_4/rs/mp2-in-bhlyp.out                    -2.937154195827
region_4/ts/mp2-in-bhlyp.out                    -2.952677924629
region_4/ps/mp2-in-bhlyp.out                    -2.923685904839
region_4_D465/rs/mp2-in-bhlyp.out               -3.550072616165
region_4_D465/ts/mp2-in-bhlyp.out               -3.563479844949
region_4_D465/ps/mp2-in-bhlyp.out               -3.535177783475
region_4_H466/rs/mp2-in-bhlyp.out               -3.621103004131
region_4_H466/ts/mp2-in-bhlyp.out               -3.635096445666
region_4_H466/ps/mp2-in-bhlyp.out               -3.609550010915
region_4_H466_D465/rs/mp2-in-bhlyp.out          -4.241373633592
region_4_H466_D465/ts/mp2-in-bhlyp.out          -4.252887229036
region_4_H466_D465/ps/mp2-in-bhlyp.out          -4.227689405182
region_4_Zn/rs/mp2-in-bhlyp.out                 -3.082922934267
region_4_Zn/ts/mp2-in-bhlyp.out                 -3.100107786317
region_4_Zn/ps/mp2-in-bhlyp.out                 -3.071348530711
region_4_Zn_D465/rs/mp2-in-bhlyp.out            -3.698456686929
region_4_Zn_D465/ts/mp2-in-bhlyp.out            -3.713922166347
region_4_Zn_D465/ps/mp2-in-bhlyp.out            -3.685793194267
region_4_Zn_H466/rs/mp2-in-bhlyp.out            -3.768890800264
region_4_Zn_H466/ts/mp2-in-bhlyp.out            -3.786098634836
region_4_Zn_H466/ps/mp2-in-bhlyp.out            -3.761205490131
region_4_Zn_H466_D465/rs/mp2-in-bhlyp.out       -4.391883189769
region_4_Zn_H466_D465/ts/mp2-in-bhlyp.out       -4.407032957939
region_4_Zn_H466_D465/ps/mp2-in-bhlyp.out       -4.382449881243
region_4_Zn_H466_D465_H478/rs/mp2-in-bhlyp.out  -5.075719028048
region_4_Zn_H466_D465_H478/ts/mp2-in-bhlyp.out  -5.087866173340
region_4_Zn_H466_D465_H478/ps/mp2-in-bhlyp.out  -5.062675065772
