/users/is16372/.bash_login: line 1: lastpwd: command not found
========= Job started  at Mon Jun 24 14:17:27 BST 2019 ==========
Running on host grendel.chm.bris.ac.uk
Time is Mon Jun 24 14:17:27 BST 2019
Directory is /users/is16372/projects/mcr-1/molpro/embedding/mp2-in-b3lyp/no_trunc/region_set_1/region_4/ps
PBS job ID is
g-0-5.local
