
 Primary working directories    : /tmp/is16372/1095263/molpro.0WENPmTiGZ
 Secondary working directories  : /tmp/is16372/1095263/molpro.0WENPmTiGZ
 Wavefunction directory         : /users/is16372/projects/mcr-1/molpro/mp2/vtz_basis/zinc_ion/2000mw_more_wall/ts/
 Main file repository           : /tmp/is16372/1095263/molpro.0WENPmTiGZ/

 id        : uob

 Nodes      nprocs
 g-0-9.local    1

 Using customized tuning parameters: mindgm=1; mindgv=20; mindgc=4; mindgr=1; noblas=0; minvec=7
 default implementation of scratch files=df  


 Variables initialized (930), CPU time= 0.00 sec
 memory,2000,mw
 gdirect
 set,charge=1
 geomtyp=xyz
 noorient
 
 geometry={
   C1       3.373290    0.211660    3.771240
   C2       3.789110   -1.233860    3.474600
   C3       2.643430   -2.129710    2.948180
   C4       2.169740   -1.696850    1.572370
   O5       2.765540   -2.115660    0.548280
   O6       1.172640   -0.880420    1.539650
   C7       2.186860   -1.083900   -3.951520
   C8       2.449450   -2.286820   -3.053060
   C9       3.902300   -2.392570   -2.609570
  O10       1.607290   -2.221600   -1.862570
  P11      -0.442510   -2.328180   -1.789520
  O12      -0.242700   -3.390330   -0.588820
  O13      -0.499030   -0.889090   -1.245540
  O14      -0.502020   -2.784560   -3.210860
  C15      -1.963320   -1.961450    5.374960
  C16      -1.804330   -0.864830    4.306240
  C17      -2.460010   -1.218010    3.009710
  C18      -1.935160   -1.630380    1.807460
  N19      -3.834570   -1.248890    2.828180
  C20      -4.095100   -1.662370    1.563500
  N21      -2.960970   -1.899460    0.918370
  C22       5.327870    2.955380   -0.612080
  C23       4.279670    2.180110   -1.406690
  C24       3.189340    1.550580   -0.548520
  O25       2.308190    0.857700   -1.207840
  O26       3.168450    1.705220    0.685490
  C27       2.434270    5.480600   -0.363760
  C28       0.923670    5.460490   -0.050720
  C29       0.481690    4.101810    0.389700
  C30       0.088710    2.999980   -0.324290
  N31       0.583480    3.658890    1.701110
  C32       0.291050    2.344090    1.742320
  N33      -0.018220    1.903450    0.523340
  C34      -5.446300    4.498540   -1.455550
  C35      -5.629170    3.023860   -1.852590
  C36      -4.488050    2.156940   -1.429840
  C37      -3.616420    1.381580   -2.146580
  N38      -4.104230    2.010610   -0.100670
  C39      -3.054090    1.186290   -0.011380
  N40      -2.745290    0.796320   -1.246130
 Zn41       0.826190    0.132180   -0.124030
  H42       4.211520    0.772290    4.201430
  H43       2.545360    0.238860    4.492290
  H44       3.054080    0.727700    2.861750
  H45       4.611000   -1.242740    2.744310
  H46       4.177690   -1.701180    4.390170
  H47       1.798080   -2.092790    3.647820
  H48       2.999230   -3.165080    2.880590
  H49       2.781380   -1.178520   -4.869020
  H50       2.464980   -0.158580   -3.438170
  H51       1.129750   -1.036470   -4.229060
  H52       2.144040   -3.207960   -3.567720
  H53       4.210630   -1.487460   -2.071750
  H54       4.545330   -2.506600   -3.490000
  H55       4.055310   -3.258580   -1.955100
  H56      -1.462520   -1.666940    6.304520
  H57      -1.523140   -2.903820    5.028660
  H58      -3.020910   -2.143980    5.601950
  H59      -0.738230   -0.695480    4.104530
  H60      -2.212920    0.083670    4.686260
  H61      -0.897200   -1.733280    1.530010
  H62      -2.641500   -2.221470   -0.531490
  H63      -5.095490   -1.771450    1.159650
  H64       6.078710    3.385180   -1.286120
  H65       5.843000    2.302020    0.100890
  H66       4.870290    3.771530   -0.044330
  H67       3.783370    2.830580   -2.142670
  H68       4.745460    1.373370   -1.992180
  H69       2.751520    6.483600   -0.673210
  H70       2.667280    4.777500   -1.170530
  H71       3.019880    5.189470    0.515690
  H72       0.356670    5.743750   -0.947140
  H73       0.689030    6.202630    0.725350
  H74      -0.079140    2.905600   -1.389300
  H75       0.342920    1.735550    2.637540
  H76      -6.303930    5.089000   -1.796020
  H77      -4.538290    4.915170   -1.906610
  H78      -5.370180    4.613920   -0.367220
  H79      -6.561180    2.635200   -1.414820
  H80      -5.729920    2.934570   -2.941600
  H81      -3.546840    1.197640   -3.210360
  H82      -1.970600    0.142310   -1.471620
  H83      -2.537230    0.897060    0.893670
  O84      -2.377260   -2.444290   -1.534350
  C85      -3.019600   -3.680160   -1.914300
  H86      -2.824010   -3.841390   -2.974710
  H87      -2.623080   -4.512400   -1.322310
  H88      -4.093390   -3.568730   -1.737650
  C89       0.405110   -4.662100   -0.822460
  H90       0.277470   -5.227330    0.103050
  H91      -0.073150   -5.187100   -1.655240
  H92       1.465910   -4.505660   -1.031510
  H93       2.098410   -2.080170   -0.996720
  H94       0.889030    4.235380    2.511370
  H95      -4.546950   -1.024940    3.551010
  H96      -4.560010    2.478220    0.714080
 }
 
 
 basis={
 default,vtz
                                                                                 !cc-pVTZ
 }
 
 {hf}
 {mp2}
 show EMP2_SCS
 Commands  initialized (760), CPU time= 0.01 sec, 617 directives.
 Default parameters read. Elapsed time= 0.19 sec

 Checking input...
 Passed
1


                                         ***  PROGRAM SYSTEM MOLPRO  ***
                                       Copyright, TTI GmbH Stuttgart, 2015
                                    Version 2019.1 linked Jan 14 2019 13:09:19


 **********************************************************************************************************************************
 LABEL *                                                                                 
  64 bit serial version                                                                  DATE: 13-Aug-19          TIME: 17:25:01  
 **********************************************************************************************************************************

 SHA1:             d688ac825633d238f2093ded1675ba87ccd55965
 **********************************************************************************************************************************
 SETTING CHARGE         =         1.00000000                                  
 SETTING GEOMTYP        =    XYZ

 Variable memory set to 2000000000 words,  buffer space 

 SETTING BASIS          =    VTZ


 Recomputing integrals since basis changed


 Using spherical harmonics

 Library entry C      S cc-pVTZ              selected for orbital group  1
 Library entry C      P cc-pVTZ              selected for orbital group  1
 Library entry C      D cc-pVTZ              selected for orbital group  1
 Library entry C      F cc-pVTZ              selected for orbital group  1
 Library entry O      S cc-pVTZ              selected for orbital group  2
 Library entry O      P cc-pVTZ              selected for orbital group  2
 Library entry O      D cc-pVTZ              selected for orbital group  2
 Library entry O      F cc-pVTZ              selected for orbital group  2
 Library entry P      S cc-pVTZ              selected for orbital group  5
 Library entry P      P cc-pVTZ              selected for orbital group  5
 Library entry P      D cc-pVTZ              selected for orbital group  5
 Library entry P      F cc-pVTZ              selected for orbital group  5
 Library entry N      S cc-pVTZ              selected for orbital group  8
 Library entry N      P cc-pVTZ              selected for orbital group  8
 Library entry N      D cc-pVTZ              selected for orbital group  8
 Library entry N      F cc-pVTZ              selected for orbital group  8
 Library entry ZN     S cc-pVTZ              selected for orbital group 21
 Library entry ZN     P cc-pVTZ              selected for orbital group 21
 Library entry ZN     D cc-pVTZ              selected for orbital group 21
 Library entry ZN     F cc-pVTZ              selected for orbital group 21
 Library entry ZN     G cc-pVTZ              selected for orbital group 21
 Library entry H      S cc-pVTZ              selected for orbital group 22
 Library entry H      P cc-pVTZ              selected for orbital group 22
 Library entry H      D cc-pVTZ              selected for orbital group 22


 PROGRAM * SEWARD (Integral evaluation for generally contracted gaussian basis sets)     Author: Roland Lindh, 1990

 Geometry written to block  1 of record 700


 Point group  C1  



 ATOMIC COORDINATES

 NR  ATOM    CHARGE       X              Y              Z

   1  C1      6.00    6.374594239    0.399979432    7.126610750
   2  C2      6.00    7.160380156   -2.331657476    6.566042392
   3  C3      6.00    4.995358729   -4.024568625    5.571252766
   4  C4      6.00    4.100214362   -3.206581774    2.971348666
   5  O5      8.00    5.226113187   -3.998017973    1.036099040
   6  O6      8.00    2.215968443   -1.663752675    2.909516828
   7  C7      6.00    4.132566473   -2.048274146   -7.467290576
   8  C8      6.00    4.628789656   -4.321463496   -5.769447242
   9  C9      6.00    7.374278256   -4.521302034   -4.931372603
  10  O10     8.00    3.037337903   -4.198215558   -3.519747188
  11  P11    15.00   -0.836222707   -4.399622569   -3.381702694
  12  O12     8.00   -0.458636530   -6.406795172   -1.112708537
  13  O13     8.00   -0.943030028   -1.680136600   -2.353729477
  14  O14     8.00   -0.948680309   -5.262055777   -6.067646024
  15  C15     6.00   -3.710137095   -3.706603307   10.157202330
  16  C16     6.00   -3.409689538   -1.634291844    8.137614227
  17  C17     6.00   -4.648745164   -2.301705317    5.687527614
  18  C18     6.00   -3.656922407   -3.080971679    3.415604381
  19  N19     7.00   -7.246287105   -2.360060060    5.344485631
  20  C20     6.00   -7.738617453   -3.141424018    2.954586796
  21  N21     7.00   -5.595422363   -3.589459185    1.735467781
  22  C22     6.00   10.068215127    5.584858794   -1.156663566
  23  C23     6.00    8.087404204    4.119810821   -2.658258842
  24  C24     6.00    6.026979118    2.930171534   -1.036552574
  25  O25     8.00    4.361846943    1.620818097   -2.282486802
  26  O26     8.00    5.987502739    3.222398782    1.295388361
  27  C27     6.00    4.600103613   10.356832998   -0.687406775
  28  C28     6.00    1.745483329   10.318830606   -0.095846909
  29  C29     6.00    0.910262177    7.751297515    0.736426271
  30  C30     6.00    0.167637605    5.669140579   -0.612819285
  31  N31     7.00    1.102617399    6.914300020    3.214632008
  32  C32     6.00    0.550004789    4.429688111    3.292507621
  33  N33     7.00   -0.034430810    3.596999192    0.988969270
  34  C34     6.00  -10.292015392    8.501008560   -2.750590861
  35  C35     6.00  -10.637589609    5.714267239   -3.500887721
  36  C36     6.00   -8.481185333    4.076025867   -2.702006002
  37  C37     6.00   -6.834043351    2.610807819   -4.056448304
  38  N38     7.00   -7.755870652    3.799502243   -0.190238729
  39  C39     6.00   -5.771393660    2.241763204   -0.021505083
  40  N40     7.00   -5.187846233    1.504826708   -2.354844416
  41  ZN41   30.00    1.561272827    0.249783999   -0.234382731
  42  H42     1.00    7.958619368    1.459416589    7.939552032
  43  H43     1.00    4.810033288    0.451379982    8.489197772
  44  H44     1.00    5.771374763    1.375153701    5.407923737
  45  H45     1.00    8.713527160   -2.348438244    5.185994301
  46  H46     1.00    7.894689933   -3.214764289    8.296218940
  47  H47     1.00    3.397878750   -3.954799936    6.893380752
  48  H48     1.00    5.667723285   -5.981134362    5.443526177
  49  H49     1.00    5.256046448   -2.227080032   -9.201114295
  50  H50     1.00    4.658137103   -0.299672769   -6.497199670
  51  H51     1.00    2.134918089   -1.958644436   -7.991765164
  52  H52     1.00    4.051648400   -6.062165819   -6.742013689
  53  H53     1.00    7.956937512   -2.810892021   -3.915040099
  54  H54     1.00    8.589428846   -4.736787504   -6.595144175
  55  H55     1.00    7.663425250   -6.157823755   -3.694603546
  56  H56     1.00   -2.763762252   -3.150060066   11.913816147
  57  H57     1.00   -2.878317449   -5.487424515    9.502790174
  58  H58     1.00   -5.708692547   -4.051535017   10.586151264
  59  H59     1.00   -1.395052517   -1.314266725    7.756437570
  60  H60     1.00   -4.181812736    0.158113385    8.855747949
  61  H61     1.00   -1.695462279   -3.275424497    2.891299868
  62  H62     1.00   -4.991711558   -4.197969894   -1.004370538
  63  H63     1.00   -9.629080570   -3.347555343    2.191420900
  64  H64     1.00   11.487097091    6.397063082   -2.430414563
  65  H65     1.00   11.041669746    4.350187333    0.190654469
  66  H66     1.00    9.203514247    7.127158771   -0.083771559
  67  H67     1.00    7.149533128    5.349020974   -4.049059475
  68  H68     1.00    8.967619735    2.595293168   -3.764674591
  69  H69     1.00    5.199619226   12.252228301   -1.272182524
  70  H70     1.00    5.040428698    9.028166560   -2.211981121
  71  H71     1.00    5.706746129    9.806677032    0.974512865
  72  H72     1.00    0.674008617   10.854114428   -1.789835202
  73  H73     1.00    1.302077992   11.721271952    1.370712844
  74  H74     1.00   -0.149552925    5.490788228   -2.625396505
  75  H75     1.00    0.648024883    3.279714175    4.984228243
  76  H76     1.00  -11.912701208    9.616816248   -3.393985914
  77  H77     1.00   -8.576125174    9.288325156   -3.602970726
  78  H78     1.00  -10.148169440    8.719045161   -0.693945227
  79  H79     1.00  -12.398833254    4.979806283   -2.673622316
  80  H80     1.00  -10.827979516    5.545533593   -5.558818368
  81  H81     1.00   -6.702556208    2.263211596   -6.066701161
  82  H82     1.00   -3.723894301    0.268926925   -2.780958759
  83  H83     1.00   -4.794669815    1.695197717    1.688791546
  84  O84     8.00   -4.492370327   -4.619038669   -2.899501279
  85  C85     6.00   -5.706217006   -6.954494495   -3.617502720
  86  H86     1.00   -5.336605473   -7.259175038   -5.621387200
  87  H87     1.00   -4.956902803   -8.527200164   -2.498803752
  88  H88     1.00   -7.735386021   -6.743922313   -3.283682600
  89  C89     6.00    0.765546950   -8.810092165   -1.554224148
  90  H90     1.00    0.524342308   -9.878222063    0.194736277
  91  H91     1.00   -0.138233466   -9.802198381   -3.127950270
  92  H92     1.00    2.770168423   -8.514463410   -1.949271395
  93  H93     1.00    3.965420197   -3.930951593   -1.883527823
  94  H94     1.00    1.680023217    8.003708233    4.745801497
  95  H95     1.00   -8.592490202   -1.936855894    6.710436366
  96  H96     1.00   -8.617170025    4.683157076    1.349415631

 Bond lengths in Bohr (Angstrom)

  1- 2  2.897160090   1-42  2.071814719   1-43  2.075364155   1-44  2.066088972   2- 3  2.922819244
       ( 1.533111096)       ( 1.096357134)       ( 1.098235415)       ( 1.093327200)       ( 1.546689336)

  2-45  2.077758395   2-46  2.076679893   3- 4  2.868778007   3-47  2.074808995   3-48  2.072809123
       ( 1.099502392)       ( 1.098931674)       ( 1.518091944)       ( 1.097941637)       ( 1.096883351)

  4- 5  2.374702200   4- 6  2.436088564   6-41  3.738228643   7- 8  2.880329713   7-49  2.073722134
       ( 1.256638287)       ( 1.289122552)       ( 1.978185407)       ( 1.524204844)       ( 1.097366495)

  7-50  2.067584975   7-51  2.067294402   8- 9  2.877501033   8-10  2.758452296   8-52  2.075818417
       ( 1.094118851)       ( 1.093965086)       ( 1.522707971)       ( 1.459710092)       ( 1.098475800)

  9-53  2.073143984   9-54  2.071511715   9-55  2.071571150  10-11  3.881248880  10-93  1.899994890
       ( 1.097060551)       ( 1.096196792)       ( 1.096228243)       ( 2.053868457)       ( 1.005433997)

 11-12  3.052809799  11-13  2.909250878  11-14  2.823248009  11-84  3.694330392  12-89  2.733019881
       ( 1.615477375)       ( 1.539509266)       ( 1.493998507)       ( 1.954955453)       ( 1.446251838)

 13-41  3.806278621  15-16  2.909206016  15-56  2.071486863  15-57  2.071594403  15-58  2.072968636
       ( 2.014195904)       ( 1.539485525)       ( 1.096183641)       ( 1.096240548)       ( 1.096967761)

 16-17  2.825530746  16-59  2.075204580  16-60  2.079568893  17-18  2.598577230  17-19  2.620745546
       ( 1.495206479)       ( 1.098150972)       ( 1.100460467)       ( 1.375107851)       ( 1.386838819)

 18-21  2.615186536  18-61  2.039615884  19-20  2.562134900  19-95  1.963971984  20-21  2.506047062
       ( 1.383897117)       ( 1.079318245)       ( 1.355823401)       ( 1.039289217)       ( 1.326142995)

 20-63  2.049088360  22-23  2.885267033  22-64  2.072521034  22-65  2.070578035  22-66  2.068210359
       ( 1.084330863)       ( 1.526817561)       ( 1.096730900)       ( 1.095702709)       ( 1.094449789)

 23-24  2.879327072  23-67  2.079636063  23-68  2.079203999  24-25  2.457523893  24-26  2.350511364
       ( 1.523674269)       ( 1.100496011)       ( 1.100267373)       ( 1.300465639)       ( 1.243837048)

 25-41  3.730640718  27-28  2.915517831  27-69  2.072173980  27-70  2.069678144  27-71  2.071064011
       ( 1.974170050)       ( 1.542825594)       ( 1.096547247)       ( 1.095226508)       ( 1.095959877)

 28-29  2.825331696  28-72  2.074652541  28-73  2.077076680  29-30  2.589851797  29-31  2.622797936
       ( 1.495101147)       ( 1.097858845)       ( 1.099141644)       ( 1.370490551)       ( 1.387924897)

 30-33  2.626847569  30-74  2.045210615  31-32  2.546515589  31-94  1.965880907  32-33  2.518178854
       ( 1.390067870)       ( 1.082278849)       ( 1.347558017)       ( 1.040299375)       ( 1.332562863)

 32-75  2.047917638  33-41  3.904703543  34-35  2.906594934  34-76  2.070170646  34-77  2.071400033
       ( 1.083711344)       ( 2.066280131)       ( 1.538103800)       ( 1.095487129)       ( 1.096137692)

 34-78  2.073167354  35-36  2.823495386  35-79  2.079850986  35-80  2.073595406  36-37  2.587364410
       ( 1.097072918)       ( 1.494129413)       ( 1.100609744)       ( 1.097299433)       ( 1.369174282)

 36-38  2.628977279  37-40  2.613161872  37-81  2.044316157  38-39  2.528472047  38-96  1.973123925
       ( 1.391194864)       ( 1.382825711)       ( 1.081805522)       ( 1.338009786)       ( 1.044132215)

 39-40  2.515566624  39-83  2.043975993  40-82  1.962696351  62-84  2.004535134  84-85  2.728241878
       ( 1.331180530)       ( 1.081625515)       ( 1.038614181)       ( 1.060754312)       ( 1.443723427)

 85-86  2.060338789  85-87  2.070353178  85-88  2.067196993  89-90  2.063478550  89-91  2.068261998
       ( 1.090284334)       ( 1.095583720)       ( 1.093913539)       ( 1.091945824)       ( 1.094477115)

 89-92  2.064452939
       ( 1.092461448)

 Bond angles

  1- 2- 3  114.27157342   1- 2-45  109.80834571   1- 2-46  109.61232861   2- 1-42  110.52980876

  2- 1-43  110.78473656   2- 1-44  111.30037057   2- 3- 4  111.98923419   2- 3-47  109.50926986

  2- 3-48  109.11238320   3- 2-45  108.84225659   3- 2-46  107.40821952   3- 4- 5  119.70898672

  3- 4- 6  116.41891790   4- 3-47  109.12756284   4- 3-48  108.33143902   4- 6-41  118.75044074

  5- 4- 6  123.85602772   6-41-13  108.90280449   6-41-25  121.22226726   6-41-33  104.29294837

  7- 8- 9  113.00846019   7- 8-10  110.24823066   7- 8-52  109.73851120   8- 7-49  109.35734299

  8- 7-50  110.30948143   8- 7-51  110.50199556   8- 9-53  110.71022698   8- 9-54  109.45036191

  8- 9-55  111.21824250   8-10-11  127.04789027   8-10-93  115.26545124   9- 8-10  108.42341342

  9- 8-52  110.09000003  10- 8-52  105.02091116  10-11-12   86.39449968  10-11-13   90.04012260

 10-11-14   91.24733353  10-11-84  174.51933857  11-10-93  117.65640796  11-12-89  120.89676213

 11-13-41  130.28216846  11-84-62  110.94404771  11-84-85  117.18156635  12-11-13  110.88627457

 12-11-14  120.74262829  12-11-84   89.21757598  12-89-90  105.42055194  12-89-91  110.42615934

 12-89-92  109.87272122  13-11-14  128.33435175  13-11-84   88.45652884  13-41-25  111.99769167

 13-41-33  109.89011122  14-11-84   93.81946118  15-16-17  112.85602410  15-16-59  109.73219654

 15-16-60  109.62672825  16-15-56  110.49478229  16-15-57  110.58388008  16-15-58  111.20734231

 16-17-18  131.42068779  16-17-19  123.60060792  17-16-59  107.63032919  17-16-60  109.88994373

 17-18-21  109.69928655  17-18-61  128.34465126  17-19-20  108.62308040  17-19-95  125.70022809

 18-17-19  104.90290803  18-21-20  106.65600241  19-20-21  110.11814034  19-20-63  123.73581055

 20-19-95  125.64431609  21-18-61  121.94850937  21-20-63  126.14555479  22-23-24  114.07572942

 22-23-67  110.94882662  22-23-68  111.01503145  23-22-64  110.43490115  23-22-65  111.01594205

 23-22-66  111.19843066  23-24-25  114.79955210  23-24-26  121.29373464  24-23-67  107.34718018

 24-23-68  107.44015639  24-25-41  115.22132802  25-24-26  123.90669769  25-41-33   99.42438219

 27-28-29  111.16523195  27-28-72  109.67215636  27-28-73  110.08888800  28-27-69  110.63760840

 28-27-70  110.45063789  28-27-71  110.90962930  28-29-30  131.44570571  28-29-31  123.13820605

 29-28-72  108.80325201  29-28-73  110.02881645  29-30-33  109.79010886  29-30-74  128.84695202

 29-31-32  108.92597756  29-31-94  125.49482312  30-29-31  104.87539192  30-33-32  106.20672676

 30-33-41  116.98308885  31-32-33  110.18317737  31-32-75  124.24677529  32-31-94  125.49316228

 32-33-41  118.37318272  33-30-74  121.28706823  33-32-75  125.52676315  34-35-36  113.10715943

 34-35-79  109.66841055  34-35-80  110.18908432  35-34-76  110.08795247  35-34-77  110.89650868

 35-34-78  111.41756871  35-36-37  131.81001320  35-36-38  122.82424945  36-35-79  109.22674975

 36-35-80  107.68074550  36-37-40  107.44817788  36-37-81  130.69214808  36-38-39  110.18753192

 36-38-96  125.30905778  37-36-38  105.36361400  37-40-39  109.50407142  37-40-82  126.51396225

 38-39-40  107.49647802  38-39-83  126.55728089  39-38-96  124.50204319  39-40-82  123.97809556

 40-37-81  121.85932603  40-39-83  125.94085347  42- 1-43  107.82415001  42- 1-44  107.95506455

 43- 1-44  108.32249625  45- 2-46  106.59608243  47- 3-48  108.70860792  49- 7-50  109.11669323

 49- 7-51  108.36918759  50- 7-51  109.14734434  53- 9-54  108.34273933  53- 9-55  108.65429994

 54- 9-55  108.38814940  56-15-57  108.38454606  56-15-58  108.04063518  57-15-58  108.02606989

 59-16-60  106.91574697  62-84-85  108.52957417  64-22-65  108.16357330  64-22-66  108.22881566

 65-22-66  107.67845259  67-23-68  105.57072022  69-27-70  108.52813870  69-27-71  108.35108424

 70-27-71  107.87190003  72-28-73  106.98111291  76-34-77  108.40643717  76-34-78  107.81530594

 77-34-78  108.10560822  79-35-80  106.75387751  84-85-86  107.62198717  84-85-87  110.30610918

 84-85-88  107.88079225  86-85-87  110.38189403  86-85-88  110.37827381  87-85-88  110.20559405

 90-89-91  110.21461726  90-89-92  110.47628702  91-89-92  110.32833816

 NUCLEAR CHARGE:                  373
 NUMBER OF PRIMITIVE AOS:        3073
 NUMBER OF SYMMETRY AOS:         2786
 NUMBER OF CONTRACTIONS:         2090   ( 2090A   )
 NUMBER OF CORE ORBITALS:          56   (   56A   )
 NUMBER OF VALENCE ORBITALS:      230   (  230A   )


 NUCLEAR REPULSION ENERGY 7776.54874196


 Eigenvalues of metric

         1 0.707E-04 0.740E-04 0.868E-04 0.104E-03 0.112E-03 0.116E-03 0.229E-03 0.266E-03


 OPERATOR DM      FOR CENTER  0  COORDINATES:    0.000000    0.000000    0.000000


 **********************************************************************************************************************************
 DATASETS  * FILE   NREC   LENGTH (MB)   RECORD NAMES
              1      18      189.78       500      610      700      900      950      970     1000      129      960     1100   
                                          VAR    BASINP    GEOM    SYMINP    ZMAT    AOBASIS   BASIS     P2S    ABASIS      S 
                                         1400     1410     1200     1210     1080     1600     1650     1700   
                                           T        V       H0       H01     AOSYM     SMH    MOLCAS    OPER   

 PROGRAMS   *        TOTAL       INT
 CPU TIMES  *        27.34     27.21
 REAL TIME  *        29.09 SEC
 DISK USED  *       192.37 MB
 **********************************************************************************************************************************


 PROGRAM * RHF-SCF (CLOSED SHELL)       Authors: W. Meyer, H.-J. Werner


 NUMBER OF ELECTRONS:     186+  186-    SPACE SYMMETRY=1    SPIN SYMMETRY: Singlet 
 CONVERGENCE THRESHOLDS:    1.00E-05 (Density)    1.00E-07 (Energy)
 INTEGRAL THRESHOLDS:       1.00E-11 (Initial)    1.00E-11 (Final)
 MAX. NUMBER OF ITERATIONS:       60
 INTERPOLATION TYPE:            DIIS
 INTERPOLATION STEPS:              2 (START)      1 (STEP)
 LEVEL SHIFTS:                  0.00 (CLOSED)  0.00 (OPEN) 



 Orbital guess generated from atomic densities. Full valence occupancy:  286

 Molecular orbital dump at record        2100.2

 Initial occupancy: 186

 Direct Fock-matrix evaluation.        Authors: Roland Lindh & Martin Schuetz (1993/96)

 Integral Threshold:                  0.1D-10
 Threshold for writing integrals:     0.1D-06
 Prescreening on density matrix:        ON 
 Calculation will be performed fully direct        

 ITERATION   DDIFF            GRAD            ENERGY        2-EL.EN.            DIPOLE MOMENTS         DIIS   CPU(IT)  CPU(TOT)
    1      0.000D+00      0.000D+00     -4171.82345873  18594.888512   -9.83265    4.05188    4.83086    0  16183.5  17022.0     start
    2      0.000D+00      0.138D-02     -4172.37998705  18580.389991   -7.52503    3.15383    1.41383    1  15060.5  32082.5     diag
    3      0.206D-02      0.810D-03     -4172.54660797  18586.617909   -7.95887    3.22215    2.59946    2  13388.2  45470.7     diag
    4      0.725D-03      0.180D-03     -4172.56087020  18587.642166   -7.78973    3.09638    2.37152    3  12259.4  57730.0     diag
    5      0.233D-03      0.575D-04     -4172.56211150  18586.480858   -7.75680    3.12426    2.40842    4  10458.9  68188.9     diag
    6      0.669D-04      0.208D-04     -4172.56231653  18586.855712   -7.73514    3.09658    2.39004    5   9378.5  77567.5     diag
    7      0.262D-04      0.901D-05     -4172.56236238  18586.741739   -7.73130    3.09349    2.39121    6   8394.0  85961.4     diag
    8      0.123D-04      0.384D-05     -4172.56237559  18586.776053   -7.72964    3.09341    2.39548    7   7579.5  93540.9     diag
    9      0.664D-05      0.163D-05     -4172.56237860  18586.762691   -7.72747    3.09065    2.39549    8   6742.2 100283.1     diag
   10      0.341D-05      0.628D-06     -4172.56237906  18586.771693   -7.72740    3.09071    2.39642    9   5928.5 106211.6     orth
   11      0.148D-05      0.189D-06     -4172.56237924  18586.768717   -7.72737    3.09048    2.39640    9   4927.2 111138.8     diag
   12      0.392D-06      0.744D-07     -4172.56237933  18586.769883   -7.72742    3.09056    2.39663    9   4685.3 115824.1     diag
   13      0.246D-06      0.409D-07     -4172.56237930  18586.769073   -7.72741    3.09051    2.39657    0   5130.0 120954.0     orth

 Final occupancy: 186

 !RHF STATE  1.1 Energy             -4172.562379301475
 Nuclear energy                      7776.54874196
 One-electron energy               -21242.49565767
 Two-electron energy                 9293.38453641
 Virial quotient                       -1.00101878
 !RHF STATE  1.1 Dipole moment         -7.72741053     3.09050531     2.39656650
 Dipole moment /Debye                 -19.63983207     7.85476647     6.09106548

 Orbital energies:

         1.1          2.1          3.1          4.1          5.1          6.1          7.1          8.1          9.1         10.1
   -353.355365   -80.184585   -44.408521   -38.974674   -38.974069   -38.973152   -20.674725   -20.656281   -20.634872   -20.622431

        11.1         12.1         13.1         14.1         15.1         16.1         17.1         18.1         19.1         20.1
    -20.593435   -20.572390   -20.569383   -20.563826   -20.550953   -15.789663   -15.768240   -15.746805   -15.731418   -15.682202

        21.1         22.1         23.1         24.1         25.1         26.1         27.1         28.1         29.1         30.1
    -15.674455   -11.485550   -11.429619   -11.421535   -11.421154   -11.415362   -11.408513   -11.393010   -11.380586   -11.370160

        31.1         32.1         33.1         34.1         35.1         36.1         37.1         38.1         39.1         40.1
    -11.367419   -11.361882   -11.354089   -11.350685   -11.349029   -11.342823   -11.339133   -11.339133   -11.330891   -11.315452

        41.1         42.1         43.1         44.1         45.1         46.1         47.1         48.1         49.1         50.1
    -11.298077   -11.282478   -11.277232   -11.274277   -11.264058   -11.257369   -11.256547   -11.251663    -7.696093    -5.692620

        51.1         52.1         53.1         54.1         55.1         56.1         57.1         58.1         59.1         60.1
     -5.595476    -5.593707    -5.592466    -3.901739    -3.900725    -3.899676    -1.524627    -1.498265    -1.465209    -1.461035

        61.1         62.1         63.1         64.1         65.1         66.1         67.1         68.1         69.1         70.1
     -1.454747    -1.452473    -1.436451    -1.429267    -1.403723    -1.360295    -1.354134    -1.344188    -1.331526    -1.291989

        71.1         72.1         73.1         74.1         75.1         76.1         77.1         78.1         79.1         80.1
     -1.281025    -1.214458    -1.175232    -1.164110    -1.135386    -1.114255    -1.095573    -1.092979    -1.082136    -1.079642

        81.1         82.1         83.1         84.1         85.1         86.1         87.1         88.1         89.1         90.1
     -1.029987    -1.024337    -1.014268    -1.003248    -1.003188    -0.982197    -0.970697    -0.957688    -0.956534    -0.945796

        91.1         92.1         93.1         94.1         95.1         96.1         97.1         98.1         99.1        100.1
     -0.936430    -0.922780    -0.910490    -0.900206    -0.892705    -0.883901    -0.875244    -0.870070    -0.857620    -0.853287

       101.1        102.1        103.1        104.1        105.1        106.1        107.1        108.1        109.1        110.1
     -0.849646    -0.849306    -0.846005    -0.839296    -0.827290    -0.824030    -0.812765    -0.790938    -0.784440    -0.780323

       111.1        112.1        113.1        114.1        115.1        116.1        117.1        118.1        119.1        120.1
     -0.775338    -0.769518    -0.751548    -0.746560    -0.744160    -0.741424    -0.733247    -0.730247    -0.728985    -0.722477

       121.1        122.1        123.1        124.1        125.1        126.1        127.1        128.1        129.1        130.1
     -0.717990    -0.716048    -0.712056    -0.708526    -0.705859    -0.700269    -0.696148    -0.693831    -0.692182    -0.688519

       131.1        132.1        133.1        134.1        135.1        136.1        137.1        138.1        139.1        140.1
     -0.688149    -0.685025    -0.683909    -0.680963    -0.674469    -0.671383    -0.666150    -0.662429    -0.652115    -0.648851

       141.1        142.1        143.1        144.1        145.1        146.1        147.1        148.1        149.1        150.1
     -0.644808    -0.636600    -0.630960    -0.624753    -0.619553    -0.618925    -0.617246    -0.614672    -0.608831    -0.605677

       151.1        152.1        153.1        154.1        155.1        156.1        157.1        158.1        159.1        160.1
     -0.602849    -0.600446    -0.597656    -0.594447    -0.593076    -0.591975    -0.589779    -0.585991    -0.582788    -0.579194

       161.1        162.1        163.1        164.1        165.1        166.1        167.1        168.1        169.1        170.1
     -0.575398    -0.570915    -0.567190    -0.561462    -0.559094    -0.551796    -0.547462    -0.542700    -0.533936    -0.532025

       171.1        172.1        173.1        174.1        175.1        176.1        177.1        178.1        179.1        180.1
     -0.531231    -0.529929    -0.525890    -0.523923    -0.515785    -0.509594    -0.504857    -0.501464    -0.489991    -0.486081

       181.1        182.1        183.1        184.1        185.1        186.1        187.1        188.1
     -0.475398    -0.472569    -0.468101    -0.460357    -0.430773    -0.417662    -0.009984     0.003564


 HOMO    186.1    -0.417662 =     -11.3652eV
 LUMO    187.1    -0.009984 =      -0.2717eV
 LUMO-HOMO         0.407678 =      11.0935eV


 **********************************************************************************************************************************
 DATASETS  * FILE   NREC   LENGTH (MB)   RECORD NAMES
              1      18      189.78       500      610      700      900      950      970     1000      129      960     1100   
                                          VAR    BASINP    GEOM    SYMINP    ZMAT    AOBASIS   BASIS     P2S    ABASIS      S 
                                         1400     1410     1200     1210     1080     1600     1650     1700   
                                           T        V       H0       H01     AOSYM     SMH    MOLCAS    OPER   

              2       4       92.16       700     1000      520     2100   
                                         GEOM     BASIS   MCVARS     RHF  

 PROGRAMS   *        TOTAL    HF-SCF       INT
 CPU TIMES  *    120993.54 120966.20     27.21
 REAL TIME  *    121147.47 SEC
 DISK USED  *       649.46 MB
 **********************************************************************************************************************************


 PROGRAM * MP2 (Closed-shell)     Authors: C. Hampel, H.-J. Werner, 1991, M. Deegan, P.J. Knowles, 1992

                    Integral-direct implementation by R. Lindh, M. Schuetz, and H.-J. Werner, 1997


 Convergence thresholds:  THRVAR = 1.00D-08  THRDEN = 1.00D-06

 Number of core orbitals:          56 (  56 )
 Number of closed-shell orbitals: 130 ( 130 )
 Number of external orbitals:    1904 (1904 )

 Molecular orbitals read from record     2100.2  Type=RHF/CANONICAL (state 1.1)

 Direct MP2 entered at time             14.63

 Integral Thresholds in transformation     1.0D-10 (AO)    1.0D-10 (SO)    1.0D-11 (Product)

 Disk space for sorting:                   1386.26 GB
 Total memory available for dtraf:         1952.80 MW

 Semi-direct algorithm used

 Paging enabled !
 Paging memory available to dtraf  :       1005.60 MW
 Minimum Paging memory needed      :        706.42 MW
 Minimum memory needed by dtraf    :       1653.62 MW

 Dtraf would need 40 passes for fully direct algorithm

 Number of operators formed in this pass:    16900
 DTRAF will do 87 out-of-core pages

 ERROR WRITING        32768 WORDS AT OFFSET   84916556277. TO FILE 6  IMPLEMENTATION=df   FILE HANDLE=  1022  IERR=     -245672

 Records on file 6

 IREC   NAME  TYPE            OFFSET         LENGTH    IMPLEMENTATION   EXT   PREV   PARENT  MPP_STATE
   1    4000  MOs               4096.      43701901.         df          0      0      0      0
   2    4001  KOP           43705997.   30884926800.         df          0      0      0      0
   3    4002  KOP(AO)    30928632797.   54147093000.         df          0      0      0      0

 File= 1  SIZE=     0.19 GB
 File= 2  SIZE=     0.09 GB
 File= 3  SIZE=     0.00 GB
 File= 6  SIZE=   678.91 GB

 Total disk space used:   679.19 GB
 ? Error
 ? I/O error. Perhaps full disk?
 ? The problem occurs in writew

 GLOBAL ERROR fehler on processor   0                                         
