/users/is16372/.bash_login: line 1: lastpwd: command not found
========= Job started  at Tue Aug 13 17:24:57 BST 2019 ==========
Running on host grendel.chm.bris.ac.uk
Time is Tue Aug 13 17:24:57 BST 2019
Directory is /users/is16372/projects/mcr-1/molpro/mp2/vtz_basis/zinc_ion/2000mw_more_wall/ts
PBS job ID is
g-0-9.local
Write error in iow_direct_write; fd=22, l=32768, p=84916556277; write returns -1
This may indicate a filled disk, or that a disk quota has been exceeded
System error message: No space left on device
    0: fehler on processor   0                                          1 (0x1).
    0: In mpi_utils.cpp [MPIGA_Error]: now exiting...
    0: fehler on processor   0                                          1 (0x1).
