/users/is16372/.bash_login: line 1: lastpwd: command not found
========= Job started  at Mon Aug  5 11:52:25 BST 2019 ==========
Running on host grendel.chm.bris.ac.uk
Time is Mon Aug 5 11:52:25 BST 2019
Directory is /users/is16372/projects/mcr-1/molpro/mp2/ca_ion_substitution/rs
PBS job ID is
g-2-20.local
