
 Primary working directories    : /tmp/is16372/1092913/molpro.lQqR0koqSE
 Secondary working directories  : /tmp/is16372/1092913/molpro.lQqR0koqSE
 Wavefunction directory         : /users/is16372/projects/mcr-1/molpro/mp2/ion_substitutions/na/rs/
 Main file repository           : /tmp/is16372/1092913/molpro.lQqR0koqSE/

 id        : uob

 Nodes      nprocs
 g-0-2.local    2

 Using customized tuning parameters: mindgm=1; mindgv=20; mindgc=4; mindgr=1; noblas=0; minvec=7
 default implementation of scratch files=sf  


 Variables initialized (930), CPU time= 0.01 sec
 memory,950,mw
 gdirect
 set,charge=0
 geomtyp=xyz
 noorient
 
 geometry={
   C1       3.138380   -0.218260    4.024610
   C2       3.002000   -1.746140    3.971550
   C3       1.753730   -2.248670    3.215110
   C4       1.827200   -2.042210    1.703380
   O5       2.688870   -2.664560    1.042620
   O6       0.964110   -1.226960    1.194720
   C7       2.420120   -1.050030   -3.818560
   C8       2.914290   -2.055580   -2.782540
   C9       4.378890   -1.852400   -2.409510
  O10       2.072240   -1.971400   -1.597770
  P11      -1.101350   -1.967450   -2.168980
  O12      -0.912290   -3.081790   -1.006030
  O13      -0.600550   -0.613350   -1.623620
  O14      -0.703620   -2.450300   -3.526790
  C15      -2.391040   -2.199110    5.153880
  C16      -2.105730   -1.009870    4.219920
  C17      -2.724470   -1.180930    2.871610
  C18      -2.166880   -1.401940    1.639410
  N19      -4.100360   -1.188220    2.671720
  C20      -4.374320   -1.399530    1.379100
  N21      -3.211570   -1.531950    0.741690
  C22       5.513160    2.646870   -0.063550
  C23       4.544980    2.142000   -1.125670
  C24       3.471010    1.214900   -0.576590
  O25       2.492580    0.963910   -1.381890
  O26       3.570320    0.725570    0.567730
  C27       2.731130    5.298780    0.133790
  C28       1.232890    5.155060    0.467040
  C29       0.844800    3.726110    0.675430
  C30       0.392930    2.764640   -0.192480
  N31       1.043590    3.054130    1.874690
  C32       0.736970    1.749110    1.693040
  N33       0.338230    1.533070    0.444050
  C34      -5.094570    4.774070   -1.523110
  C35      -5.441480    3.275460   -1.518640
  C36      -4.293000    2.447210   -1.048450
  C37      -3.465560    1.572320   -1.700820
  N38      -3.793210    2.533170    0.245980
  C39      -2.709330    1.757490    0.372060
  N40      -2.499970    1.166500   -0.801150
 Na41       1.146570   -0.279420   -0.581420
  H42       4.015800    0.073600    4.612950
  H43       2.254880    0.237460    4.492220
  H44       3.249920    0.205890    3.020670
  H45       3.896380   -2.183600    3.507410
  H46       2.954250   -2.141380    4.996010
  H47       0.855120   -1.754760    3.605770
  H48       1.648870   -3.329040    3.389000
  H49       2.974240   -1.197360   -4.753610
  H50       2.578990   -0.028110   -3.466100
  H51       1.355840   -1.204910   -4.016040
  H52       2.777470   -3.074780   -3.180530
  H53       4.539890   -0.843250   -2.015750
  H54       5.013380   -1.987640   -3.294220
  H55       4.696960   -2.577380   -1.649260
  H56      -1.915890   -2.036570    6.127630
  H57      -1.996700   -3.128510    4.727250
  H58      -3.467640   -2.328050    5.319410
  H59      -1.024250   -0.894550    4.077640
  H60      -2.473640   -0.078640    4.675780
  H61      -1.128080   -1.462240    1.340300
  H62      -3.111620   -1.672280   -0.276220
  H63      -5.360360   -1.453700    0.931500
  H64       6.263470    3.312130   -0.508470
  H65       6.036330    1.815060    0.419460
  H66       4.985540    3.205590    0.717380
  H67       4.050680    2.972930   -1.646110
  H68       5.083590    1.578260   -1.904220
  H69       2.999040    6.354100    0.002500
  H70       2.972180    4.762060   -0.789660
  H71       3.352830    4.884440    0.935790
  H72       0.632260    5.564690   -0.355760
  H73       0.990740    5.744860    1.363010
  H74       0.146210    2.867760   -1.241130
  H75       0.841540    0.988530    2.453930
  H76      -5.948120    5.360930   -1.880550
  H77      -4.239410    4.972120   -2.179350
  H78      -4.840620    5.127120   -0.516100
  H79      -6.317710    3.094450   -0.878640
  H80      -5.708610    2.944250   -2.529950
  H81      -3.477570    1.212160   -2.720710
  H82      -1.723190    0.506160   -1.020330
  H83      -2.109110    1.629300    1.262470
  O84      -2.739860   -1.746040   -2.060040
  C85      -3.587030   -2.733660   -2.691150
  H86      -3.368020   -2.783750   -3.761240
  H87      -3.433300   -3.716430   -2.230150
  H88      -4.615890   -2.401980   -2.531540
  C89      -0.075570   -4.248370   -1.159340
  H90      -0.664280   -5.110640   -0.833120
  H91       0.227260   -4.371760   -2.201710
  H92       0.805600   -4.127180   -0.525880
  H93       2.500060   -2.438830   -0.833900
  H94       1.420440    3.471250    2.748010
  H95      -4.820500   -1.070610    3.420340
  H96      -4.184300    3.135650    1.003690
 }
 
 
 basis={
 default,6-31G(d)
                                                                                 !i.e. C,N,H,Na=6-31G(d)
 O=6-31+G(d,p)
 P=6-31+G(d,p)
 }
 
 {hf}
 {mp2}
 show EMP2_SCS
 Commands  initialized (760), CPU time= 0.01 sec, 617 directives.
 Default parameters read. Elapsed time= 0.59 sec

 Checking input...
 Passed
1


                                         ***  PROGRAM SYSTEM MOLPRO  ***
                                       Copyright, TTI GmbH Stuttgart, 2015
                                    Version 2019.1 linked Jan 14 2019 13:09:19


 **********************************************************************************************************************************
 LABEL *                                                                                 
  64 bit mpp version                                                                     DATE: 12-Aug-19          TIME: 08:27:35  
 **********************************************************************************************************************************

 SHA1:             d688ac825633d238f2093ded1675ba87ccd55965
 **********************************************************************************************************************************
 SETTING CHARGE         =     0.00000000D+00                                  
 SETTING GEOMTYP        =    XYZ

 Variable memory set to  950000000 words,  buffer space 

 SETTING BASIS          =    6-31G(D),O=6-31+G(D,P),P=6-31+G(D,P)


 Recomputing integrals since basis changed


 Using spherical harmonics

 Library entry C      S 6-31G                selected for orbital group  1
 Library entry C      P 6-31G                selected for orbital group  1
 Library entry C      D 6-31G*               selected for orbital group  1
 Library entry O      S 6-31G                selected for orbital group  2
 Library entry O      S 6-31++G              selected for orbital group  2
 Library entry O      P 6-31G                selected for orbital group  2
 Library entry O      P 6-31++G              selected for orbital group  2
 Library entry O      D 6-31G*               selected for orbital group  2
 Library entry P      S 6-31G                selected for orbital group  5
 Library entry P      S 6-31++G              selected for orbital group  5
 Library entry P      P 6-31G                selected for orbital group  5
 Library entry P      P 6-31++G              selected for orbital group  5
 Library entry P      D 6-31G*               selected for orbital group  5
 Library entry N      S 6-31G                selected for orbital group  8
 Library entry N      P 6-31G                selected for orbital group  8
 Library entry N      D 6-31G*               selected for orbital group  8
 Library entry NA     S 6-31G                selected for orbital group 21
 Library entry NA     P 6-31G                selected for orbital group 21
 Library entry NA     D 6-31G*               selected for orbital group 21
 Library entry H      S 6-31G                selected for orbital group 22


 PROGRAM * SEWARD (Integral evaluation for generally contracted gaussian basis sets)     Author: Roland Lindh, 1990

 Geometry written to block  1 of record 700


 Point group  C1  



 ATOMIC COORDINATES

 NR  ATOM    CHARGE       X              Y              Z

   1  C1      6.00    5.930678675   -0.412451624    7.605410658
   2  C2      6.00    5.672957826   -3.299726375    7.505141790
   3  C3      6.00    3.314069396   -4.249370445    6.075677360
   4  C4      6.00    3.452907575   -3.859217589    3.218921686
   5  O5      8.00    5.081227885   -5.035288642    1.970266252
   6  O6      8.00    1.821903854   -2.318618366    2.257693596
   7  C7      6.00    4.573363989   -1.984269123   -7.216032590
   8  C8      6.00    5.507209948   -3.884483227   -5.258238531
   9  C9      6.00    8.274902830   -3.500528673   -4.553313994
  10  O10     8.00    3.915966064   -3.725406082   -3.019347710
  11  P11    15.00   -2.081249867   -3.717941664   -4.098778170
  12  O12     8.00   -1.723978246   -5.823739073   -1.901121173
  13  O13     8.00   -1.134875024   -1.159063519   -3.068197130
  14  O14     8.00   -1.329649096   -4.630395923   -6.664667199
  15  C15     6.00   -4.518410753   -4.155715618    9.739421679
  16  C16     6.00   -3.979252992   -1.908377721    7.974493068
  17  C17     6.00   -5.148502135   -2.231634272    5.426556437
  18  C18     6.00   -4.094809745   -2.649282643    3.098035906
  19  N19     7.00   -7.748557412   -2.245410376    5.048819082
  20  C20     6.00   -8.266266781   -2.644728403    2.606121298
  21  N21     7.00   -6.068987730   -2.894965937    1.401590969
  22  C22     6.00   10.418362481    5.001859387   -0.120092095
  23  C23     6.00    8.588767442    4.047793359   -2.127208007
  24  C24     6.00    6.559258276    2.295828269   -1.089597186
  25  O25     8.00    4.710293544    1.821525909   -2.611393634
  26  O26     8.00    6.746926977    1.371128584    1.072854213
  27  C27     6.00    5.161087711   10.013242994    0.252826458
  28  C28     6.00    2.329824442    9.741651556    0.882577689
  29  C29     6.00    1.596440630    7.041327410    1.276377716
  30  C30     6.00    0.742530086    5.224412433   -0.363734484
  31  N31     7.00    1.972099286    5.771469249    3.542650668
  32  C32     6.00    1.392671462    3.305338862    3.199381918
  33  N33     7.00    0.639162067    2.897082430    0.839132886
  34  C34     6.00   -9.627342022    9.021684800   -2.878260758
  35  C35     6.00  -10.282906912    6.189722332   -2.869813682
  36  C36     6.00   -8.112594253    4.624556669   -1.981283355
  37  C37     6.00   -6.548959268    2.971254180   -3.214083987
  38  N38     7.00   -7.168128033    4.786997527    0.464834832
  39  C39     6.00   -5.119891681    3.321174767    0.703091502
  40  N40     7.00   -4.724258620    2.204365524   -1.513954085
  41  NA41   11.00    2.166703283   -0.528027274   -1.098724563
  42  H42     1.00    7.588762171    0.139083843    8.717212126
  43  H43     1.00    4.261105644    0.448734366    8.489065491
  44  H44     1.00    6.141458727    0.389075712    5.708239013
  45  H45     1.00    7.363091077   -4.126405966    6.628044307
  46  H46     1.00    5.582723403   -4.046621729    9.441090616
  47  H47     1.00    1.615942604   -3.316015814    6.813917768
  48  H48     1.00    3.115912715   -6.290973858    6.404281836
  49  H49     1.00    5.620499029   -2.262682473   -8.983021003
  50  H50     1.00    4.873584778   -0.053120201   -6.549979720
  51  H51     1.00    2.562166269   -2.276949905   -7.589215705
  52  H52     1.00    5.248657619   -5.810492093   -6.010330631
  53  H53     1.00    8.579148736   -1.593511555   -3.809215436
  54  H54     1.00    9.473915158   -3.756095234   -6.225173594
  55  H55     1.00    8.875968018   -4.870542319   -3.116649708
  56  H56     1.00   -3.620507385   -3.848559534   11.579542493
  57  H57     1.00   -3.773216153   -5.912027078    8.933207822
  58  H58     1.00   -6.552889899   -4.399376904   10.052228044
  59  H59     1.00   -1.935551983   -1.690454505    7.705622835
  60  H60     1.00   -4.674502131   -0.148608062    8.835943619
  61  H61     1.00   -2.131762247   -2.763233128    2.532799925
  62  H62     1.00   -5.880109604   -3.160151204   -0.521980150
  63  H63     1.00  -10.129612329   -2.747094867    1.760279885
  64  H64     1.00   11.836242889    6.259018589   -0.960869043
  65  H65     1.00   11.407010497    3.429966300    0.792664520
  66  H66     1.00    9.421305183    6.057687168    1.355651727
  67  H67     1.00    7.654675818    5.618023488   -3.110697071
  68  H68     1.00    9.606592830    2.982479153   -3.598454281
  69  H69     1.00    5.667364237   12.007508768    0.004724315
  70  H70     1.00    5.616606193    8.998989189   -1.492241132
  71  H71     1.00    6.335930442    9.230253872    1.768386810
  72  H72     1.00    1.194798240   10.515740068   -0.672288966
  73  H73     1.00    1.872227261   10.856212024    2.575715605
  74  H74     1.00    0.276296857    5.419280991   -2.345395785
  75  H75     1.00    1.590280123    1.868050966    4.637255629
  76  H76     1.00  -11.240317756   10.130689473   -3.553724464
  77  H77     1.00   -8.011323830    9.395945058   -4.118374630
  78  H78     1.00   -9.147446073    9.688852608   -0.975287653
  79  H79     1.00  -11.938741634    5.847663006   -1.660388962
  80  H80     1.00  -10.787709452    5.563826142   -4.780912609
  81  H81     1.00   -6.571654879    2.290650419   -5.141396764
  82  H82     1.00   -3.256357161    0.956503775   -1.928144257
  83  H83     1.00   -3.985640267    3.078930775    2.385722540
  84  O84     8.00   -5.177585020   -3.299537403   -3.892911406
  85  C85     6.00   -6.778504301   -5.165868718   -5.085536460
  86  H86     1.00   -6.364635382   -5.260525099   -7.107713489
  87  H87     1.00   -6.487996703   -7.023034861   -4.214372717
  88  H88     1.00   -8.722767921   -4.539084357   -4.783917273
  89  C89     6.00   -0.142806603   -8.028255776   -2.190835085
  90  H90     1.00   -1.255307270   -9.657709921   -1.574368629
  91  H91     1.00    0.429459159   -8.261429082   -4.160628906
  92  H92     1.00    1.522363366   -7.799239867   -0.993769174
  93  H93     1.00    4.724428695   -4.608720764   -1.575842615
  94  H94     1.00    2.684242576    6.559711810    5.192986288
  95  H95     1.00   -9.109424783   -2.023159686    6.463505853
  96  H96     1.00   -7.907181023    5.925519722    1.896699214

 Bond lengths in Bohr (Angstrom)

  1- 2  2.900487782   1-42  2.071119204   1-43  2.076044623   1-44  2.070298180   2- 3  2.917112791
       ( 1.534872035)       ( 1.095989084)       ( 1.098595504)       ( 1.095554616)       ( 1.543669611)

  2-45  2.075873201   2-46  2.076991280   3- 4  2.886615366   3-47  2.073592142   3-48  2.077352033
       ( 1.098504791)       ( 1.099096452)       ( 1.527531069)       ( 1.097297706)       ( 1.099287355)

  4- 5  2.365102650   4- 6  2.440815140   4-41  5.602965245   6-41  3.819770407   7- 8  2.883719733
       ( 1.251558424)       ( 1.291623748)       ( 2.964961521)       ( 2.021335450)       ( 1.525998765)

  7-49  2.072740658   7-50  2.064726399   7-51  2.066360072   8- 9  2.881746622   8-10  2.751362343
       ( 1.096847121)       ( 1.092606157)       ( 1.093470660)       ( 1.524954640)       ( 1.455958251)

  8-41  6.302883292   8-52  2.083747102   9-53  2.069531958   9-54  2.073176151   9-55  2.074179602
       ( 3.335342201)       ( 1.102671480)       ( 1.095149150)       ( 1.097077573)       ( 1.097608577)

 10-41  4.119702027  10-93  1.875516892  11-12  3.064591656  11-13  2.916432750  11-14  2.825112919
       ( 2.180052429)       ( 0.992480798)       ( 1.621712065)       ( 1.543309748)       ( 1.494985375)

 11-41  6.100900050  11-84  3.131251288  12-89  2.728356979  13-41  3.895824463  15-16  2.907953183
       ( 3.228457273)       ( 1.656986823)       ( 1.443784337)       ( 2.061581524)       ( 1.538822555)

 15-56  2.070415400  15-57  2.071213586  15-58  2.072757593  16-17  2.821988560  16-59  2.072798964
       ( 1.095616647)       ( 1.096039029)       ( 1.096856082)       ( 1.493332035)       ( 1.096877975)

 16-60  2.079004009  17-18  2.589730811  17-19  2.627387055  18-21  2.614510360  18-61  2.045979449
       ( 1.100161543)       ( 1.370426528)       ( 1.390353354)       ( 1.383539300)       ( 1.082685699)

 19-20  2.528685496  19-95  1.975523736  20-21  2.518242912  20-63  2.048898050  21-62  1.950929016
       ( 1.338122738)       ( 1.045402141)       ( 1.332596761)       ( 1.084230156)       ( 1.032387175)

 22-23  2.878571569  22-64  2.073099126  22-65  2.069153793  22-66  2.070438453  23-24  2.874878319
       ( 1.523274474)       ( 1.097036813)       ( 1.094949033)       ( 1.095628846)       ( 1.521320090)

 23-67  2.074945917  23-68  2.082169176  24-25  2.441208254  24-26  2.359339971  24-41  5.221952011
       ( 1.098014093)       ( 1.101836477)       ( 1.291831775)       ( 1.248508946)       ( 2.763338000)

 25-41  3.778679570  26-41  5.413039483  27-28  2.913142671  27-69  2.072430112  27-70  2.069171033
       ( 1.999591116)       ( 2.864457136)       ( 1.541568714)       ( 1.096682787)       ( 1.094958156)

 27-71  2.071292010  28-29  2.825717744  28-72  2.074875375  28-73  2.078065499  29-30  2.592356318
       ( 1.096080529)       ( 1.495305435)       ( 1.097976764)       ( 1.099664905)       ( 1.371815886)

 29-31  2.624814711  30-33  2.621839011  30-41  5.971519261  30-74  2.045074250  31-32  2.556436802
       ( 1.388992128)       ( 1.387417455)       ( 3.159991908)       ( 1.082206688)       ( 1.352808097)

 31-94  1.962672172  32-33  2.511020752  32-41  5.810984470  32-75  2.042627349  33-41  4.221380123
       ( 1.038601386)       ( 1.328774958)       ( 3.075040555)       ( 1.080911843)       ( 2.233858159)

 34-35  2.906862242  34-76  2.070708406  34-77  2.071103077  34-78  2.072853020  35-36  2.819483416
       ( 1.538245254)       ( 1.095771699)       ( 1.095980550)       ( 1.096906580)       ( 1.492006370)

 35-79  2.078822109  35-80  2.073371832  36-37  2.588080540  36-38  2.627146296  37-40  2.609232139
       ( 1.100065286)       ( 1.097181123)       ( 1.369553242)       ( 1.390225949)       ( 1.380746186)

 37-81  2.044081973  38-39  2.529955485  38-96  1.972984470  39-40  2.513777941  39-83  2.043637843
       ( 1.081681597)       ( 1.338794788)       ( 1.044058419)       ( 1.330234000)       ( 1.081446574)

 40-82  1.970646375  41-93  4.839592988  84-85  2.732853754  85-86  2.066264080  85-87  2.071807669
       ( 1.042821153)       ( 2.561002319)       ( 1.446163928)       ( 1.093419863)       ( 1.096353404)

 85-88  2.064944017  89-90  2.067077511  89-91  2.064448011  89-92  2.063542126
       ( 1.092721316)       ( 1.093850312)       ( 1.092458840)       ( 1.091979467)

 Bond angles

  1- 2- 3  114.38402592   1- 2-45  109.79654001   1- 2-46  109.24476811   2- 1-42  110.77977730

  2- 1-43  110.86625982   2- 1-44  111.26975828   2- 3- 4  113.70732747   2- 3-47  109.95164529

  2- 3-48  108.63637302   3- 2-45  108.76508831   3- 2-46  107.73128486   3- 4- 5  119.23502091

  3- 4- 6  116.28977885   3- 4-41  146.29911732   4- 3-47  109.32270557   4- 3-48  107.09574355

  4- 6-41  125.56342253   4-41- 6   20.75497499   4-41- 8   94.02976977   4-41-10   78.48354595

  4-41-11  103.17408424   4-41-13  119.19640698   4-41-24   97.29991952   4-41-25  121.57671881

  4-41-26   72.85494485   4-41-30  122.18327147   4-41-32   81.53562129   4-41-33  102.22263691

  4-41-93   56.86176020   5- 4- 6  124.47194744   5- 4-41   92.68520247   6- 4-41   33.68160248

  6-41- 8  112.21568441   6-41-10   94.82769723   6-41-11   97.13096347   6-41-13  106.96471269

  6-41-24  109.14068442   6-41-25  134.74853694   6-41-26   83.58867495   6-41-30  108.77732139

  6-41-32   69.34638421   6-41-33   86.80754769   6-41-93   74.87488748   7- 8- 9  112.91064187

  7- 8-10  109.09106945   7- 8-41   85.72770017   7- 8-52  108.89534920   8- 7-49  109.06595730

  8- 7-50  110.50077089   8- 7-51  110.14923519   8- 9-53  110.60475989   8- 9-54  109.98451624

  8- 9-55  111.08444757   8-10-41  132.05268414   8-10-93  110.47302835   8-41-10   18.91300362

  8-41-11   76.47161810   8-41-13   91.67758493   8-41-24   80.98508168   8-41-25   73.15242680

  8-41-26   90.17948535   8-41-30  136.10553568   8-41-32  155.50760107   8-41-33  157.94304388

  8-41-93   37.42162047   9- 8-10  110.40781460   9- 8-41  106.05953402   9- 8-52  109.30584720

 10- 8-41   29.03431225  10- 8-52  105.98490293  10-41-11   70.15941435  10-41-13   89.91093616

 10-41-24   93.63183109  10-41-25   90.58057259  10-41-26   95.74195761  10-41-30  154.99808128

 10-41-32  155.97593067  10-41-33  175.85493703  10-41-93   22.36440260  10-93-41   56.69771115

 11-12-89  123.13566500  11-13-41  126.56686153  11-41-13   22.57783731  11-41-24  150.37710757

 11-41-25  126.65220935  11-41-26  165.90084866  11-41-30  113.46209768  11-41-32  128.01647715

 11-41-33  113.45413119  11-41-93   83.02923541  11-84-85  117.34371114  12-11-13  108.15920741

 12-11-14  113.47602865  12-11-41   85.72584875  12-11-84   99.20400315  12-89-90  107.05960049

 12-89-91  110.68473749  12-89-92  108.44413165  13-11-14  121.19808782  13-11-41   30.85530117

 13-11-84  100.39342869  13-41-24  143.25819846  13-41-25  117.95694435  13-41-26  167.61211968

 13-41-30   90.92489405  13-41-32  111.58544772  13-41-33   93.25793092  13-41-93  105.15725869

 14-11-41  115.48349031  14-11-84  111.46584703  15-16-17  112.49749834  15-16-59  110.04653579

 15-16-60  109.91748782  16-15-56  110.14281897  16-15-57  110.63250834  16-15-58  111.37230488

 16-17-18  131.43040241  16-17-19  122.71311668  17-16-59  107.66464323  17-16-60  109.42168637

 17-18-21  106.93830452  17-18-61  130.37325887  17-19-20  110.01786604  17-19-95  125.32081225

 18-17-19  105.81469901  18-21-20  109.82479258  18-21-62  125.41035792  19-20-21  107.40406173

 19-20-63  126.36111023  20-19-95  124.64482501  20-21-62  124.72207717  21-18-61  122.68276196

 21-20-63  126.23482311  22-23-24  113.51661054  22-23-67  111.45685637  22-23-68  110.58274040

 23-22-64  110.66550974  23-22-65  111.06833298  23-22-66  111.09546990  23-24-25  115.34648295

 23-24-26  120.89698478  23-24-41  157.32943824  24-23-67  108.32718152  24-23-68  106.75735445

 24-25-41  112.40156215  24-26-41   72.69287982  24-41-25   25.60794495  24-41-26   25.55361912

 24-41-30   71.30516471  24-41-32   75.76035999  24-41-33   82.23095337  24-41-93   90.66359759

 25-24-26  123.74200560  25-24-41   41.99049291  25-41-26   51.16096634  25-41-30   67.09729252

 25-41-32   88.60055595  25-41-33   85.57500664  25-41-93   97.41566846  26-24-41   81.75350106

 26-41-30   79.30660941  26-41-32   65.45117779  26-41-33   80.63947474  26-41-93   83.58054248

 27-28-29  111.80590716  27-28-72  109.56515692  27-28-73  109.88563276  28-27-69  110.67202240

 28-27-70  110.52244741  28-27-71  110.96774875  28-29-30  131.84302029  28-29-31  123.05901763

 29-28-72  108.60128145  29-28-73  109.98931622  29-30-33  110.17384491  29-30-41  132.41321556

 29-30-74  128.41594059  29-31-32  108.56176843  29-31-94  125.70653263  30-29-31  104.73318686

 30-33-32  105.96717370  30-33-41  119.69314110  30-41-32   40.68718728  30-41-33   22.42074061

 30-41-93  161.88483848  31-32-33  110.55283199  31-32-41  134.86992965  31-32-75  124.21789122

 32-31-94  125.63205304  32-33-41  117.05367388  32-41-33   22.63346269  32-41-93  134.39077689

 33-30-41   37.88611830  33-30-74  121.34276967  33-32-41   40.31286343  33-32-75  125.19030437

 33-41-93  157.01971695  34-35-36  111.60091386  34-35-79  109.97625104  34-35-80  110.26269146

 35-34-76  110.30667562  35-34-77  110.71736927  35-34-78  111.29135514  35-36-37  132.03391190

 35-36-38  122.40015166  36-35-79  109.78209753  36-35-80  108.07786855  36-37-40  107.45113352

 36-37-81  130.92876212  36-38-39  110.05437231  36-38-96  125.22176801  37-36-38  105.41532074

 37-40-39  109.51330775  37-40-82  124.75573974  38-39-40  107.56383003  38-39-83  126.55212664

 39-38-96  124.69834093  39-40-82  125.72742087  40-37-81  121.61862885  40-39-83  125.88402507

 41- 8-52  131.65518025  41-10-93  100.93788626  41-11-84  125.89654149  41-30-74   91.54124020

 41-32-75   92.49893796  42- 1-43  107.75045002  42- 1-44  107.89750457  43- 1-44  108.13922337

 45- 2-46  106.61824050  47- 3-48  107.93483941  49- 7-50  109.09742224  49- 7-51  108.58570678

 50- 7-51  109.40595610  53- 9-54  108.57333311  53- 9-55  108.48159228  54- 9-55  108.03181212

 56-15-57  108.40409507  56-15-58  107.99816514  57-15-58  108.19205072  59-16-60  107.12615759

 64-22-65  108.22784564  64-22-66  108.01074578  65-22-66  107.64241719  67-23-68  105.80302638

 69-27-70  108.47814294  69-27-71  108.22775937  70-27-71  107.87410094  72-28-73  106.85864517

 76-34-77  108.40255443  76-34-78  107.90419005  77-34-78  108.11299929  79-35-80  107.01661160

 84-85-86  109.94029870  84-85-87  110.27523997  84-85-88  106.29204180  86-85-87  110.02090987

 86-85-88  110.20910343  87-85-88  110.04115275  90-89-91  110.16418187  90-89-92  110.41272726

 91-89-92  110.02035470

 NUCLEAR CHARGE:                  354
 NUMBER OF PRIMITIVE AOS:        1528
 NUMBER OF SYMMETRY AOS:         1484
 NUMBER OF CONTRACTIONS:          768   (  768A   )
 NUMBER OF CORE ORBITALS:          52   (   52A   )
 NUMBER OF VALENCE ORBITALS:      228   (  228A   )


 NUCLEAR REPULSION ENERGY 6900.51175961


 Eigenvalues of metric

         1 0.305E-03 0.418E-03 0.508E-03 0.750E-03 0.771E-03 0.960E-03 0.116E-02 0.120E-02


 OPERATOR DM      FOR CENTER  0  COORDINATES:    0.000000    0.000000    0.000000


 **********************************************************************************************************************************
 DATASETS  * FILE   NREC   LENGTH (MB)   RECORD NAMES
              1      18       53.27       500      610      700      900      950      970     1000      129      960     1100   
                                          VAR    BASINP    GEOM    SYMINP    ZMAT    AOBASIS   BASIS     P2S    ABASIS      S 
                                         1400     1410     1200     1210     1080     1600     1650     1700   
                                           T        V       H0       H01     AOSYM     SMH    MOLCAS    OPER   

 PROGRAMS   *        TOTAL       INT
 CPU TIMES  *         3.60      3.44
 REAL TIME  *         5.36 SEC
 DISK USED  *        55.45 MB (local),      110.90 MB (total)
 GA USED    *         0.00 MB       (max)       0.00 MB       (current)
 **********************************************************************************************************************************


 PROGRAM * RHF-SCF (CLOSED SHELL)       Authors: W. Meyer, H.-J. Werner


 NUMBER OF ELECTRONS:     177+  177-    SPACE SYMMETRY=1    SPIN SYMMETRY: Singlet 
 CONVERGENCE THRESHOLDS:    1.00E-05 (Density)    1.00E-07 (Energy)
 INTEGRAL THRESHOLDS:       1.00E-11 (Initial)    1.00E-11 (Final)
 MAX. NUMBER OF ITERATIONS:       60
 INTERPOLATION TYPE:            DIIS
 INTERPOLATION STEPS:              2 (START)      1 (STEP)
 LEVEL SHIFTS:                  0.00 (CLOSED)  0.00 (OPEN) 



 Orbital guess generated from atomic densities. Full valence occupancy:  177

 Molecular orbital dump at record        2100.2

 Initial occupancy: 177

 Direct Fock-matrix evaluation.        Authors: Roland Lindh & Martin Schuetz (1993/96)

 Integral Threshold:                  0.1D-10
 Threshold for writing integrals:     0.1D-06
 Prescreening on density matrix:        ON 
 Calculation will be performed fully direct        

 ITERATION   DDIFF            GRAD            ENERGY        2-EL.EN.            DIPOLE MOMENTS         DIIS   CPU(IT)  CPU(TOT)
    1      0.000D+00      0.000D+00     -2554.94561728  15681.313190  -15.22070    5.02162    7.84755    0    606.2    671.6     start
    2      0.000D+00      0.281D-02     -2555.57407182  15610.902398  -12.43408    3.46693    3.51950    1    585.5   1257.1     diag
    3      0.596D-02      0.180D-02     -2555.84299529  15637.152705  -12.76809    3.68683    5.13316    2    543.3   1800.4     diag
    4      0.243D-02      0.349D-03     -2555.85755438  15635.401556  -12.69220    3.47150    4.75028    3    491.4   2291.8     diag
    5      0.572D-03      0.139D-03     -2555.85978965  15635.204492  -12.58769    3.51715    4.85533    4    441.0   2732.8     diag
    6      0.191D-03      0.347D-04     -2555.86000129  15634.804192  -12.57853    3.49246    4.81353    5    397.9   3130.7     diag
    7      0.610D-04      0.142D-04     -2555.86005009  15634.928374  -12.57252    3.48665    4.82081    6    365.9   3496.6     diag
    8      0.288D-04      0.543D-05     -2555.86006074  15634.909483  -12.57040    3.48494    4.81988    7    329.9   3826.5     diag
    9      0.130D-04      0.233D-05     -2555.86006281  15634.914772  -12.56942    3.48350    4.82069    8    298.6   4125.1     diag
   10      0.612D-05      0.910D-06     -2555.86006306  15634.914347  -12.56940    3.48307    4.82049    9    268.4   4393.5     orth
   11      0.239D-05      0.249D-06     -2555.86006310  15634.914891  -12.56953    3.48303    4.82057    9    221.5   4615.0     diag
   12      0.576D-06      0.101D-06     -2555.86006309  15634.913921  -12.56954    3.48302    4.82054    0    185.3   4800.3     orth

 Final occupancy: 177

 !RHF STATE  1.1 Energy             -2555.860063088172
 Nuclear energy                      6900.51175961
 One-electron energy               -17273.82878332
 Two-electron energy                 7817.45696062
 Virial quotient                       -1.00113696
 !RHF STATE  1.1 Dipole moment        -12.56953775     3.48301537     4.82054056
 Dipole moment /Debye                 -31.94648575     8.85236221    12.25178948

 Orbital energies:

         1.1          2.1          3.1          4.1          5.1          6.1          7.1          8.1          9.1         10.1
    -80.042859   -40.208127   -20.581309   -20.540018   -20.463609   -20.456764   -20.456410   -20.429704   -20.423747   -20.402017

        11.1         12.1         13.1         14.1         15.1         16.1         17.1         18.1         19.1         20.1
    -20.382151   -15.729733   -15.714691   -15.706236   -15.676998   -15.601692   -15.518836   -11.423258   -11.400670   -11.342975

        21.1         22.1         23.1         24.1         25.1         26.1         27.1         28.1         29.1         30.1
    -11.342436   -11.327975   -11.318629   -11.300139   -11.288364   -11.287595   -11.272218   -11.271951   -11.270163   -11.262810

        31.1         32.1         33.1         34.1         35.1         36.1         37.1         38.1         39.1         40.1
    -11.240659   -11.236509   -11.234979   -11.227909   -11.215798   -11.198865   -11.195153   -11.176474   -11.172820   -11.164230

        41.1         42.1         43.1         44.1         45.1         46.1         47.1         48.1         49.1         50.1
    -11.145682   -11.143703   -11.132904   -11.112893    -7.564792    -5.463660    -5.462897    -5.461905    -2.547125    -1.458438

        51.1         52.1         53.1         54.1         55.1         56.1         57.1         58.1         59.1         60.1
     -1.443231    -1.393713    -1.331041    -1.313394    -1.301280    -1.293639    -1.286969    -1.278246    -1.277094    -1.273291

        61.1         62.1         63.1         64.1         65.1         66.1         67.1         68.1         69.1         70.1
     -1.257843    -1.242748    -1.240529    -1.208617    -1.186329    -1.152202    -1.142156    -1.140746    -1.133859    -1.061781

        71.1         72.1         73.1         74.1         75.1         76.1         77.1         78.1         79.1         80.1
     -1.060953    -1.049661    -1.010356    -0.960711    -0.959225    -0.957675    -0.952460    -0.946504    -0.940020    -0.930934

        81.1         82.1         83.1         84.1         85.1         86.1         87.1         88.1         89.1         90.1
     -0.929806    -0.900740    -0.896890    -0.881665    -0.878068    -0.849019    -0.846405    -0.822890    -0.812303    -0.795822

        91.1         92.1         93.1         94.1         95.1         96.1         97.1         98.1         99.1        100.1
     -0.793275    -0.770822    -0.766130    -0.764560    -0.742073    -0.730420    -0.716156    -0.709820    -0.707900    -0.700171

       101.1        102.1        103.1        104.1        105.1        106.1        107.1        108.1        109.1        110.1
     -0.697704    -0.693542    -0.668845    -0.665444    -0.662255    -0.661307    -0.658317    -0.650070    -0.647427    -0.640718

       111.1        112.1        113.1        114.1        115.1        116.1        117.1        118.1        119.1        120.1
     -0.636034    -0.630136    -0.615429    -0.610419    -0.596023    -0.594446    -0.588285    -0.584943    -0.583113    -0.578084

       121.1        122.1        123.1        124.1        125.1        126.1        127.1        128.1        129.1        130.1
     -0.576599    -0.571290    -0.567451    -0.566329    -0.564794    -0.561377    -0.556797    -0.553454    -0.548773    -0.544619

       131.1        132.1        133.1        134.1        135.1        136.1        137.1        138.1        139.1        140.1
     -0.543639    -0.541704    -0.539636    -0.535978    -0.527418    -0.523594    -0.520937    -0.516362    -0.507714    -0.503837

       141.1        142.1        143.1        144.1        145.1        146.1        147.1        148.1        149.1        150.1
     -0.502671    -0.494482    -0.492464    -0.490890    -0.483036    -0.481061    -0.476505    -0.466060    -0.460906    -0.459437

       151.1        152.1        153.1        154.1        155.1        156.1        157.1        158.1        159.1        160.1
     -0.448074    -0.447051    -0.442978    -0.438784    -0.435394    -0.430126    -0.428356    -0.426316    -0.420703    -0.418411

       161.1        162.1        163.1        164.1        165.1        166.1        167.1        168.1        169.1        170.1
     -0.410611    -0.407074    -0.402324    -0.397844    -0.397081    -0.392661    -0.380884    -0.376513    -0.367697    -0.344213

       171.1        172.1        173.1        174.1        175.1        176.1        177.1        178.1        179.1
     -0.337620    -0.327127    -0.322212    -0.303135    -0.300000    -0.292958    -0.275311     0.069818     0.088905


 HOMO    177.1    -0.275311 =      -7.4916eV
 LUMO    178.1     0.069818 =       1.8998eV
 LUMO-HOMO         0.345129 =       9.3914eV


 **********************************************************************************************************************************
 DATASETS  * FILE   NREC   LENGTH (MB)   RECORD NAMES
              1      18       53.27       500      610      700      900      950      970     1000      129      960     1100   
                                          VAR    BASINP    GEOM    SYMINP    ZMAT    AOBASIS   BASIS     P2S    ABASIS      S 
                                         1400     1410     1200     1210     1080     1600     1650     1700   
                                           T        V       H0       H01     AOSYM     SMH    MOLCAS    OPER   

              2       4       16.34       700     1000      520     2100   
                                         GEOM     BASIS   MCVARS     RHF  

 PROGRAMS   *        TOTAL    HF-SCF       INT
 CPU TIMES  *      4804.31   4800.70      3.44
 REAL TIME  *      4824.68 SEC
 DISK USED  *       112.32 MB (local),      224.64 MB (total)
 SF USED    *         7.09 MB
 GA USED    *         0.00 MB       (max)       0.00 MB       (current)
 **********************************************************************************************************************************


 PROGRAM * MP2 (Closed-shell)     Authors: C. Hampel, H.-J. Werner, 1991, M. Deegan, P.J. Knowles, 1992

                    Integral-direct implementation by R. Lindh, M. Schuetz, and H.-J. Werner, 1997


 Convergence thresholds:  THRVAR = 1.00D-08  THRDEN = 1.00D-06

 Number of core orbitals:          52 (  52 )
 Number of closed-shell orbitals: 125 ( 125 )
 Number of external orbitals:     591 ( 591 )

 Molecular orbitals read from record     2100.2  Type=RHF/CANONICAL (state 1.1)

 Direct MP2 entered at time              0.25

 Integral Thresholds in transformation     1.0D-09 (AO)    1.0D-09 (SO)    1.0D-10 (Product)

 Disk space for sorting:                    173.26 GB
 Total memory available for dtraf:          941.16 MW

 Semi-direct algorithm used

 Paging enabled !
 Paging memory available to dtraf  :        758.82 MW
 Minimum Paging memory needed      :        144.00 MW
 Minimum memory needed by dtraf    :        326.34 MW

 Dtraf would need  7 passes for fully direct algorithm

 Number of operators formed in this pass:    15625
 DTRAF will do 13 out-of-core pages

 Integral pass  1 finished at time   4710.48

 SCS-MP2 correlation energy:           -5.932941861606   (PS=  1.200000  PT=  0.333333)
 SCS-MP2 total energy:              -2561.793004950307

 Norm of first-order wave function:     2.017475489336
 Coefficient of reference function:     0.575676000570

  Reference energy                  -2555.860063088701
  MP2 singlet pair energy              -3.676512604857
  MP2 triplet pair energy              -2.444667968214
  MP2 correlation energy               -6.121180573071

 !MP2 total energy                  -2561.981243661773


 **********************************************************************************************************************************
 DATASETS  * FILE   NREC   LENGTH (MB)   RECORD NAMES
              1      18       53.27       500      610      700      900      950      970     1000      129      960     1100   
                                          VAR    BASINP    GEOM    SYMINP    ZMAT    AOBASIS   BASIS     P2S    ABASIS      S 
                                         1400     1410     1200     1210     1080     1600     1650     1700   
                                           T        V       H0       H01     AOSYM     SMH    MOLCAS    OPER   

              2       4       16.34       700     1000      520     2100   
                                         GEOM     BASIS   MCVARS     RHF  

 PROGRAMS   *        TOTAL       MP2    HF-SCF       INT
 CPU TIMES  *     10603.52   5799.18   4800.70      3.44
 REAL TIME  *     28641.41 SEC
 DISK USED  *       145.47 GB (local),      290.93 GB (total)
 SF USED    *        95.78 GB
 GA USED    *         0.00 MB       (max)       0.00 MB       (current)
 **********************************************************************************************************************************
 EMP2_SCS         =     -2561.79300495 AU

 MP2/6-31G(D),O=6-31+G(D,P),P=6-31+G(D,P) energy=  -2561.981243661773

             MP2          HF-SCF
  -2561.98124366  -2555.86006309
 **********************************************************************************************************************************
 Molpro calculation terminated
