
 Primary working directories    : /mnt/storage/scratch/is16372/2176602/molpro.Hw4TGLeR0J
 Secondary working directories  : /mnt/storage/scratch/is16372/2176602/molpro.Hw4TGLeR0J
 Wavefunction directory         : /mnt/storage/home/is16372/projects/mcr-1/molpro/dft/inc_grid_tests/default_grid/ps/
 Main file repository           : /mnt/storage/scratch/is16372/2176602/molpro.Hw4TGLeR0J/

 id        : uob

 Nodes                   nprocs
 compute068.bc4.acrc.priv    1

 Using customized tuning parameters: mindgm=1; mindgv=20; mindgc=4; mindgr=1; noblas=0; minvec=7
 default implementation of scratch files=df  


 Variables initialized (924), CPU time= 0.01 sec
 memory,350,mw
 gdirect
 set,charge=1
 geomtyp=xyz
 noorient
 geometry={
   C1       3.847930    2.066710    2.525340
   C2       4.849450    0.928010    2.313200
   C3       4.217500   -0.488290    2.376840
   C4       3.261140   -0.698160    1.244120
   O5       3.823050   -1.078220    0.112530
   O6       2.039180   -0.494920    1.360230
   C7       1.637060   -2.066870   -3.858380
   C8       1.971500   -3.225320   -2.926750
   C9       3.458570   -3.534110   -2.870220
  O10       1.583400   -2.906120   -1.546810
  P11       0.041110   -2.916140   -1.046360
  O12       0.205370   -3.508580    0.454780
  O13      -0.381500   -1.443860   -0.786410
  O14      -0.870160   -3.717550   -1.927580
  C15       0.043960   -0.755440    6.177550
  C16       0.429580   -0.334500    4.746340
  C17      -0.751990   -0.104950    3.856120
  C18      -1.184490   -0.730570    2.707050
  N19      -1.710460    0.863990    4.109650
  C20      -2.657880    0.791420    3.137340
  N21      -2.369770   -0.164100    2.266260
  C22       3.791250    3.552160   -2.799400
  C23       2.918920    2.311660   -2.968480
  C24       2.601970    1.596320   -1.663360
  O25       1.854660    0.535630   -1.784940
  O26       3.018570    2.023850   -0.574470
  C27       0.316570    5.145230   -2.352540
  C28      -0.422090    5.220880   -1.007270
  C29      -0.365860    3.902860   -0.302830
  C30      -0.263250    2.635510   -0.811570
  N31      -0.310940    3.741250    1.072720
  C32      -0.161410    2.429100    1.357520
  N33      -0.131460    1.727370    0.228220
  C34      -6.779040    1.796150   -0.711140
  C35      -5.591760    1.981500   -1.672170
  C36      -4.623580    0.841840   -1.662040
  C37      -3.324570    0.766140   -1.235470
  N38      -4.929970   -0.426720   -2.140580
  C39      -3.870560   -1.233670   -2.009060
  N40      -2.883540   -0.521360   -1.472260
 Zn41       0.795670   -0.004110   -0.189320
  H42       4.367620    3.031640    2.528370
  H43       3.333340    1.958880    3.489300
  H44       3.101890    2.092150    1.729310
  H45       5.358090    1.049420    1.347340
  H46       5.625470    0.959850    3.089510
  H47       3.665630   -0.611330    3.316470
  H48       5.008340   -1.246180    2.317740
  H49       1.951270   -2.316370   -4.879250
  H50       2.145180   -1.153630   -3.536420
  H51       0.557340   -1.874970   -3.870440
  H52       1.407980   -4.122560   -3.219790
  H53       4.023620   -2.650660   -2.546650
  H54       3.815610   -3.826240   -3.864740
  H55       3.659720   -4.354550   -2.172140
  H56       0.942290   -0.923010    6.782890
  H57      -0.542900   -1.681350    6.165100
  H58      -0.555740    0.018660    6.672090
  H59       1.050580   -1.111240    4.281510
  H60       1.049310    0.575370    4.787660
  H61      -0.717150   -1.551340    2.173690
  H62      -3.710860   -1.093780    1.376940
  H63      -3.529250    1.436780    3.109810
  H64       3.927210    4.060530   -3.761400
  H65       4.781230    3.287510   -2.410750
  H66       3.342990    4.260860   -2.096070
  H67       1.955160    2.570040   -3.432600
  H68       3.388230    1.584740   -3.648160
  H69       0.263290    6.108500   -2.872340
  H70      -0.127670    4.387250   -3.007810
  H71       1.368520    4.892600   -2.199940
  H72      -1.466980    5.529020   -1.166260
  H73       0.035870    5.989850   -0.369140
  H74      -0.227410    2.313550   -1.842280
  H75      -0.064660    2.023190    2.356340
  H76      -7.445280    2.664510   -0.763310
  H77      -6.430140    1.686570    0.322320
  H78      -7.363740    0.904240   -0.967410
  H79      -5.964190    2.127030   -2.697200
  H80      -5.034100    2.889020   -1.407080
  H81      -2.686710    1.513830   -0.789350
  H82      -1.948640   -0.903190   -1.228070
  H83      -3.820300   -2.281670   -2.282360
  O84      -4.368950   -1.750440    1.035240
  C85      -3.703540   -3.009540    0.964160
  H86      -4.429720   -3.748500    0.610720
  H87      -2.858000   -2.984030    0.261410
  H88      -3.329540   -3.327150    1.948360
  C89       0.598150   -4.887830    0.613330
  H90       0.621700   -5.077040    1.688750
  H91      -0.130750   -5.549310    0.132800
  H92       1.593550   -5.049690    0.183990
  H93       3.137910   -1.112560   -0.630890
  H94      -0.346660    4.509550    1.773630
  H95      -1.717640    1.513730    4.918910
  H96      -5.854710   -0.721970   -2.526270
 }
 
 
 basis={
 default,6-31G(d)
                                                                                 !i.e. C,N,H=6-31G(d)
 O=6-31+G(d,p)
 P=6-31+G(d,p)
 
                                                                                 ! ZINC       (8s,7p,6d) -&gt; [6s,5p,3d]
                                                                                 ! ZINC       (8s,7p,6d) -&gt; [6s,5p,3d]
 s, ZN , 30.3241270, 16.3166820, 11.4081480, 2.5694920, 1.0625950, 0.1515530, 0.0527470, 0.0100000
 c, 1.3, 0.2191430, -0.2325560, -0.9546850
 c, 4.4, 1
 c, 5.5, 1
 c, 6.6, 1
 c, 7.7, 1
 c, 8.8, 1
 p, ZN , 111.8249800, 19.1319100, 5.4688380, 2.5056750, 0.9418680, 0.1711310, 0.0499860
 c, 1.2, 0.0232770, -1.0095390
 c, 3.4, 0.3201510, 0.7180850
 c, 5.5, 1
 c, 6.6, 1
 c, 7.7, 1
 d, ZN , 44.6456290, 13.4383770, 4.6820000, 1.6032110, 0.4827660, 0.1100000
 c, 1.4, 0.0472490, 0.2189260, 0.4525120, 0.5185760
 c, 5.5, 1
 c, 6.6, 1
 
                                                                                 ! Effective core Potentials
                                                                                 ! Zn
 ECP, zn, 10, 3 ;
 1;                                                                              !  f-ul potential
 2,1.000000000,0.000000000;
 2;                                                                              !  s-ul potential
 2,34.150000000,399.987282000;
 2,14.590000000,85.485655000;
 2;                                                                              !  p-ul potential
 2,39.780000000,277.148960000;
 2,14.950000000,69.052205000;
 2;                                                                              !  d-ul potential
 2,43.800000000,-34.149349000;
 2,14.980000000,-3.291831000;
 
                                                       !  Stuttgart RSC 1997 ECP  EMSL  Basis Set Exchange Library   5/3/19 3:40 AM
                                                                                 ! Elements                             References
                                                    ! K      : A. Bergner, M. Dolg, W. Kuechle, H. Stoll, H. Preuss, Mol. Phys. 80,
                                                                                 ! 1431 (1993).
                                                    ! Ca     : M. Kaupp, P. v. R. Schleyer, H. Stoll, H. Preuss, J. Chem. Phys. 94,
                                                                                 ! 1360 (1991).
                                                     ! Rf - Ha:  M. Dolg, H. Stoll, H. Preuss, R.M. Pitzer, J. Phys. Chem. 97, 5852
                                                                                 ! (1993).
                                                                                 !
 
 }
 
 
 $method=[pbe,b3lyp,bh-lyp,pbe0]
 
 do i=1,#method
                                                                                 ! {df-ks,$method(i)}
   {ks,$method(i)}
   e(i)=energy
 enddo
 
                                                                                 !{df-hf}
 {hf}
 
 table,method,e
 title,Functional,energy
 Commands  initialized (758), CPU time= 0.01 sec, 615 directives.
 Default parameters read. Elapsed time= 0.70 sec

 Checking input...
 Passed
1


                                         ***  PROGRAM SYSTEM MOLPRO  ***
                                       Copyright, TTI GmbH Stuttgart, 2015
                                    Version 2018.0 linked Aug 23 2018 14:58:53


 **********************************************************************************************************************************
 LABEL *                                                                                 
  64 bit serial version                                                                  DATE: 28-Jun-19          TIME: 18:52:07  
 **********************************************************************************************************************************

 SHA1:             68666188e09828386411996e6d5f04fecf6ca13a
 **********************************************************************************************************************************
 SETTING CHARGE         =         1.00000000                                  
 SETTING GEOMTYP        =    XYZ

 Variable memory set to  350000000 words,  buffer space 

 SETTING BASIS          =    USERDEF
 SETTING METHOD(1)      =    PBE
 SETTING METHOD(2)      =    B3LYP
 SETTING METHOD(3)      =    BH-LYP
 SETTING METHOD(4)      =    PBE0

 DO I                   =         1.00000000   


 Recomputing integrals since basis changed


 Using spherical harmonics

 Library entry C      S 6-31G                selected for orbital group  1
 Library entry C      P 6-31G                selected for orbital group  1
 Library entry C      D 6-31G*               selected for orbital group  1
 Library entry O      S 6-31G                selected for orbital group  2
 Library entry O      S 6-31++G              selected for orbital group  2
 Library entry O      P 6-31G                selected for orbital group  2
 Library entry O      P 6-31++G              selected for orbital group  2
 Library entry O      D 6-31G*               selected for orbital group  2
 Library entry P      S 6-31G                selected for orbital group  5
 Library entry P      S 6-31++G              selected for orbital group  5
 Library entry P      P 6-31G                selected for orbital group  5
 Library entry P      P 6-31++G              selected for orbital group  5
 Library entry P      D 6-31G*               selected for orbital group  5
 Library entry N      S 6-31G                selected for orbital group  8
 Library entry N      P 6-31G                selected for orbital group  8
 Library entry N      D 6-31G*               selected for orbital group  8
 Library entry H      S 6-31G                selected for orbital group 22


 PROGRAM * SEWARD (Integral evaluation for generally contracted gaussian basis sets)     Author: Roland Lindh, 1990

 Geometry written to block  1 of record 700


 Point group  C1  



 ATOMIC COORDINATES

 NR  ATOM    CHARGE       X              Y              Z

   1  C1      6.00    7.271533846    3.905515879    4.772200971
   2  C2      6.00    9.164132355    1.753684741    4.371314471
   3  C3      6.00    7.969919930   -0.922734369    4.491576642
   4  C4      6.00    6.162661454   -1.319331191    2.351046066
   5  O5      8.00    7.224517461   -2.037540502    0.212650881
   6  O6      8.00    3.853491719   -0.935263254    2.570462166
   7  C7      6.00    3.093595049   -3.905818235   -7.291281484
   8  C8      6.00    3.725595055   -6.094971464   -5.530755935
   9  C9      6.00    6.535750083   -6.678499994   -5.423929717
  10  O10     8.00    2.992192346   -5.491770885   -2.923047267
  11  P11    15.00    0.077686641   -5.510705941   -1.977333828
  12  O12     8.00    0.388093054   -6.630255286    0.859409647
  13  O13     8.00   -0.720930517   -2.728499962   -1.486099522
  14  O14     8.00   -1.644364085   -7.025151354   -3.642598283
  15  C15     6.00    0.083072360   -1.427574704   11.673877621
  16  C16     6.00    0.811788549   -0.632113389    8.969282694
  17  C17     6.00   -1.421055148   -0.198326757    7.287010703
  18  C18     6.00   -2.238361697   -1.380577215    5.115583106
  19  N19     7.00   -3.232300947    1.632704474    7.766112968
  20  C20     6.00   -5.022665272    1.495567050    5.928713360
  21  N21     7.00   -4.478216278   -0.310104057    4.282610727
  22  C22     6.00    7.164424170    6.712609551   -5.290099313
  23  C23     6.00    5.515959380    4.368404293   -5.609614206
  24  C24     6.00    4.917010684    3.016607607   -3.143294847
  25  O25     8.00    3.504799454    1.012194004   -3.373047749
  26  O26     8.00    5.704270588    3.824522217   -1.085590967
  27  C27     6.00    0.598230599    9.723075548   -4.445656297
  28  C28     6.00   -0.797634500    9.866033329   -1.903464433
  29  C29     6.00   -0.691375200    7.375336503   -0.572265762
  30  C30     6.00   -0.497470402    4.980392099   -1.533645031
  31  N31     7.00   -0.587591441    7.069937864    2.027147008
  32  C32     6.00   -0.305020694    4.590333729    2.565341009
  33  N33     7.00   -0.248423396    3.264256216    0.431273296
  34  C34     6.00  -12.810528987    3.394231579   -1.343859836
  35  C35     6.00  -10.566894954    3.744492316   -3.159943334
  36  C36     6.00   -8.737299915    1.590847041   -3.140800408
  37  C37     6.00   -6.282526782    1.447794773   -2.334699935
  38  N38     7.00   -9.316293102   -0.806383932   -4.045109948
  39  C39     6.00   -7.314298349   -2.331298428   -3.796573168
  40  N40     7.00   -5.449100869   -0.985227612   -2.782168184
  41  ZN41   20.00    1.503598386   -0.007766774   -0.357762950
  42  H42     1.00    8.253605616    5.728969308    4.777926842
  43  H43     1.00    6.299099680    3.701746711    6.593821366
  44  H44     1.00    5.861722569    3.953590512    3.267922284
  45  H45     1.00   10.125322651    1.983116390    2.546103597
  46  H46     1.00   10.630597622    1.813853621    5.838327759
  47  H47     1.00    6.927036774   -1.155246272    6.267220000
  48  H48     1.00    9.464390939   -2.354938902    4.379893828
  49  H49     1.00    3.687365895   -4.377304903   -9.220446193
  50  H50     1.00    4.053802688   -2.180044749   -6.682865261
  51  H51     1.00    1.053219958   -3.543179792   -7.314071582
  52  H52     1.00    2.660696589   -7.790509332   -6.084521279
  53  H53     1.00    7.603539829   -5.009021449   -4.812471035
  54  H54     1.00    7.210457898   -7.230545687   -7.303300143
  55  H55     1.00    6.915868493   -8.228906896   -4.104749704
  56  H56     1.00    1.780670030   -1.744236110   12.817804433
  57  H57     1.00   -1.025932313   -3.177291020   11.650350531
  58  H58     1.00   -1.050196396    0.035262289   12.608422778
  59  H59     1.00    1.985308472   -2.099939259    8.090881300
  60  H60     1.00    1.982908520    1.087291720    9.047366178
  61  H61     1.00   -1.355217090   -2.931607726    4.107678780
  62  H62     1.00   -7.012509087   -2.066944641    2.602039490
  63  H63     1.00   -6.669315925    2.715120701    5.876689199
  64  H64     1.00    7.421351334    7.673289621   -7.108015845
  65  H65     1.00    9.035215239    6.212493532   -4.555657255
  66  H66     1.00    6.317335537    8.051858455   -3.960998238
  67  H67     1.00    3.694716930    4.856671729   -6.486673895
  68  H68     1.00    6.402826747    2.994724579   -6.894023259
  69  H69     1.00    0.497545991   11.543392032   -5.427935937
  70  H70     1.00   -0.241261334    8.290700940   -5.683937135
  71  H71     1.00    2.586127996    9.245674037   -4.157284090
  72  H72     1.00   -2.772190430   10.448333537   -2.203911990
  73  H73     1.00    0.067784476   11.319176027   -0.697573502
  74  H74     1.00   -0.429742618    4.371975875   -3.481404645
  75  H75     1.00   -0.122189691    3.823274998    4.452837256
  76  H76     1.00  -14.069540121    5.035194156   -1.442446848
  77  H77     1.00  -12.151203543    3.187155390    0.609096524
  78  H78     1.00  -13.915451853    1.708765951   -1.828139950
  79  H79     1.00  -11.270685655    4.019504159   -5.096969303
  80  H80     1.00   -9.513070284    5.459456568   -2.658995835
  81  H81     1.00   -5.077146076    2.860724099   -1.491655316
  82  H82     1.00   -3.682395915   -1.706781738   -2.320715962
  83  H83     1.00   -7.219320714   -4.311731407   -4.313035318
  84  O84     8.00   -8.256118952   -3.307852197    1.956320073
  85  C85     6.00   -6.998676291   -5.687206361    1.821998340
  86  H86     1.00   -8.370957609   -7.083638378    1.154093539
  87  H87     1.00   -5.400837264   -5.638999447    0.493993306
  88  H88     1.00   -6.291918721   -6.287402275    3.681866792
  89  C89     6.00    1.130339681   -9.236660043    1.159025724
  90  H90     1.00    1.174842732   -9.594215123    3.191274993
  91  H91     1.00   -0.247081691  -10.486676080    0.250955629
  92  H92     1.00    3.011373066   -9.542531114    0.347690710
  93  H93     1.00    5.929790504   -2.102433697   -1.192209315
  94  H94     1.00   -0.655092458    8.521814445    3.351674946
  95  H95     1.00   -3.245869181    2.860535127    9.295392731
  96  H96     1.00  -11.063798439   -1.364325570   -4.773958417

 Bond lengths in Bohr (Angstrom)

  1- 2  2.893616482   1-42  2.071106022   1-43  2.074958059   1-44  2.062215648   2- 3  2.933227839
       ( 1.531235900)       ( 1.095982108)       ( 1.098020518)       ( 1.091277525)       ( 1.552197327)

  2-45  2.075553036   2-46  2.075155093   3- 4  2.829371553   3-47  2.072335976   3-48  2.072951150
       ( 1.098335366)       ( 1.098124784)       ( 1.497238947)       ( 1.096632972)       ( 1.096958508)

  4- 5  2.493210132   4- 6  2.351152158   5-93  1.911586040   6-41  3.867395859   7- 8  2.879455865
       ( 1.319349984)       ( 1.244176142)       ( 1.011567769)       ( 2.046537754)       ( 1.523742423)

  7-49  2.072809680   7-50  2.066509892   7-51  2.072475945   8- 9  2.872087859   8-10  2.775225211
       ( 1.096883645)       ( 1.093549941)       ( 1.096707040)       ( 1.519843443)       ( 1.468585937)

  8-52  2.077381395   9-53  2.073937143   9-54  2.071718678   9-55  2.070866358  10-11  3.064159909
       ( 1.099302893)       ( 1.097480273)       ( 1.096306312)       ( 1.095855284)       ( 1.621483594)

 11-12  3.065429239  11-13  2.935944587  11-14  2.834097620  11-41  5.910886025  12-89  2.726544628
       ( 1.622155295)       ( 1.553634968)       ( 1.499739874)       ( 3.127906181)       ( 1.442825282)

 13-41  3.691078614  15-16  2.911806948  15-56  2.071395869  15-57  2.071702700  15-58  2.073056872
       ( 1.953234686)       ( 1.540861880)       ( 1.096135489)       ( 1.096297857)       ( 1.097014454)

 16-17  2.829098950  16-59  2.074427826  16-60  2.081819624  17-18  2.603997687  17-19  2.619699542
       ( 1.497094692)       ( 1.097739931)       ( 1.101651502)       ( 1.377976233)       ( 1.386285297)

 18-21  2.618530945  18-61  2.049758809  19-20  2.569094862  19-95  1.961236549  20-21  2.503303164
       ( 1.385666902)       ( 1.084685649)       ( 1.359506454)       ( 1.037841687)       ( 1.324690986)

 20-63  2.049750228  22-23  2.883543692  22-64  2.072133751  22-65  2.071081938  22-66  2.068249610
       ( 1.084681109)       ( 1.525905608)       ( 1.096525959)       ( 1.095969363)       ( 1.094470560)

 23-24  2.875556469  23-67  2.079558330  23-68  2.079239356  24-25  2.462681637  24-26  2.346625115
       ( 1.521678952)       ( 1.100454877)       ( 1.100286083)       ( 1.303195000)       ( 1.241780533)

 25-41  3.759929271  27-28  2.903724466  27-69  2.070884541  27-70  2.071179171  27-71  2.064656580
       ( 1.989668885)       ( 1.536584814)       ( 1.095864906)       ( 1.096020817)       ( 1.092569210)

 28-29  2.826119535  28-72  2.080435865  28-73  2.077196824  29-30  2.587973699  29-31  2.619348421
       ( 1.495518053)       ( 1.100919249)       ( 1.099205222)       ( 1.369496704)       ( 1.386099492)

 30-33  2.620696627  30-74  2.041696566  31-32  2.553024808  31-94  1.966437452  32-33  2.513151374
       ( 1.386812932)       ( 1.080419294)       ( 1.351002548)       ( 1.040593886)       ( 1.329902435)

 32-75  2.045592422  33-41  3.794508265  34-35  2.907702792  34-76  2.070648839  34-77  2.071624758
       ( 1.082480893)       ( 2.007967300)       ( 1.538690054)       ( 1.095740177)       ( 1.096256611)

 34-78  2.072721918  35-36  2.825946289  35-79  2.079187935  35-80  2.074270286  36-37  2.587696477
       ( 1.096837204)       ( 1.495426376)       ( 1.100258873)       ( 1.097656565)       ( 1.369350005)

 36-38  2.626732798  37-40  2.610445271  37-81  2.039616669  38-39  2.528857004  38-96  1.973903205
       ( 1.390007136)       ( 1.381388148)       ( 1.079318660)       ( 1.338213496)       ( 1.044544593)

 39-40  2.513938295  39-83  2.048870100  40-82  1.963370802  62-84  1.871729315  84-85  2.694537179
       ( 1.330318855)       ( 1.084215365)       ( 1.038971085)       ( 0.990476498)       ( 1.425887669)

 85-86  2.068640910  85-87  2.078222999  85-88  2.078184799  89-90  2.063943615  89-91  2.069884303
       ( 1.094677627)       ( 1.099748250)       ( 1.099728036)       ( 1.092191926)       ( 1.095335602)

 89-92  2.071257640
       ( 1.096062341)

 Bond angles

  1- 2- 3  113.98960436   1- 2-45  110.03074751   1- 2-46  110.04185618   2- 1-42  110.17987448

  2- 1-43  110.80106432   2- 1-44  111.31025681   2- 3- 4  110.91217958   2- 3-47  110.02257988

  2- 3-48  109.55339528   3- 2-45  108.99345841   3- 2-46  106.56979564   3- 4- 5  114.65857981

  3- 4- 6  122.26552991   4- 3-47  108.12285693   4- 3-48  108.83809146   4- 5-93  110.58802206

  4- 6-41  124.42193655   5- 4- 6  123.05149007   6-41-11   97.51379724   6-41-13  114.88995757

  6-41-25  110.41765957   6-41-33  109.26328591   7- 8- 9  113.07645687   7- 8-10  110.56410622

  7- 8-52  110.18345055   8- 7-49  109.46513899   8- 7-50  110.66576670   8- 7-51  110.84492330

  8- 9-53  110.55921941   8- 9-54  109.81901418   8- 9-55  110.81801457   8-10-11  122.68534884

  9- 8-10  105.53218313   9- 8-52  110.22145867  10- 8-52  107.00235888  10-11-12  101.04351141

 10-11-13  107.72886017  10-11-14  113.57161680  10-11-41   81.33598328  11-12-89  118.57978014

 11-13-41  125.85412540  11-41-13   23.73967729  11-41-25   99.27723250  11-41-33  138.45051452

 12-11-13  102.63870643  12-11-14  114.21206394  12-11-41   93.55616960  12-89-90  106.24088654

 12-89-91  110.36075815  12-89-92  110.20320629  13-11-14  116.06664558  13-11-41   30.40619732

 13-41-25  105.99641728  13-41-33  114.89197947  14-11-41  143.61616255  15-16-17  113.37116313

 15-16-59  109.97343954  15-16-60  109.36429883  16-15-56  110.46355639  16-15-57  110.74111699

 16-15-58  111.27003793  16-17-18  132.37306121  16-17-19  122.96307569  17-16-59  107.64878996

 17-16-60  109.85558137  17-18-21  110.37337039  17-18-61  128.19592364  17-19-20  108.28327649

 17-19-95  125.80038494  18-17-19  104.64505834  18-21-20  105.76784783  19-20-21  110.93003933

 19-20-63  123.10873963  20-19-95  125.89284272  21-18-61  121.43065739  21-20-63  125.95834049

 22-23-24  113.96697307  22-23-67  110.88680817  22-23-68  111.20468695  23-22-64  110.52247540

 23-22-65  111.06198646  23-22-66  111.31398747  23-24-25  114.96387352  23-24-26  121.35617925

 24-23-67  106.83942993  24-23-68  107.94370289  24-25-41  116.81987632  25-24-26  123.67015316

 25-41-33  100.28773776  27-28-29  110.54381422  27-28-72  110.09606327  27-28-73  110.02431231

 28-27-69  110.40317288  28-27-70  111.26173803  28-27-71  110.60641700  28-29-30  130.04704398

 28-29-31  124.86844721  29-28-72  110.51080089  29-28-73  109.11235978  29-30-33  109.54780488

 29-30-74  129.24533722  29-31-32  109.07634287  29-31-94  125.52066490  30-29-31  104.93876350

 30-33-32  106.79837184  30-33-41  116.91327078  31-32-33  109.63122834  31-32-75  124.65292119

 32-31-94  125.37337273  32-33-41  129.93915048  33-30-74  121.12999641  33-32-75  125.70824030

 34-35-36  113.79925814  34-35-79  109.67095587  34-35-80  109.92391477  35-34-76  110.11860748

 35-34-77  110.80946944  35-34-78  111.30650804  35-36-37  131.17879210  35-36-38  123.39934575

 36-35-79  109.04206393  36-35-80  107.42922009  36-37-40  107.51722609  36-37-81  130.62381093

 36-38-39  109.99782398  36-38-96  125.46630479  37-36-38  105.42008683  37-40-39  109.35024241

 37-40-82  126.12349929  38-39-40  107.70693203  38-39-83  126.49753539  39-38-96  124.52072879

 39-40-82  124.44967568  40-37-81  121.85894772  40-39-83  125.79440397  42- 1-43  107.83389834

 42- 1-44  107.79777535  43- 1-44  108.80132622  45- 2-46  106.93017169  47- 3-48  109.35685055

 49- 7-50  109.32152428  49- 7-51  108.15487029  50- 7-51  108.33457390  53- 9-54  108.31735028

 53- 9-55  108.68418169  54- 9-55  108.57812689  56-15-57  108.41322007  56-15-58  107.87448981

 57-15-58  107.96610565  59-16-60  106.38240726  62-84-85  107.01145494  64-22-65  108.12335487

 64-22-66  108.32212154  65-22-66  107.36373250  67-23-68  105.55375002  69-27-70  107.73453626

 69-27-71  108.43990039  70-27-71  108.29116769  72-28-73  106.46674299  76-34-77  108.51867853

 76-34-78  108.00938362  77-34-78  107.97717695  79-35-80  106.71466168  84-85-86  107.61441425

 84-85-87  111.72580925  84-85-88  111.66120917  86-85-87  108.62509297  86-85-88  108.63854369

 87-85-88  108.48805893  90-89-91  109.98033438  90-89-92  109.90924949  91-89-92  110.07898309

 NUCLEAR CHARGE:                  363
 NUMBER OF PRIMITIVE AOS:        1541
 NUMBER OF SYMMETRY AOS:         1492
 NUMBER OF CONTRACTIONS:          786   (  786A   )
 NUMBER OF CORE ORBITALS:          51   (   51A   )
 NUMBER OF VALENCE ORBITALS:      230   (  230A   )


 NUCLEAR REPULSION ENERGY 7223.74872065


 Eigenvalues of metric

         1 0.102E-03 0.284E-03 0.515E-03 0.644E-03 0.728E-03 0.108E-02 0.112E-02 0.114E-02


 OPERATOR DM      FOR CENTER  0  COORDINATES:    0.000000    0.000000    0.000000


 **********************************************************************************************************************************
 DATASETS  * FILE   NREC   LENGTH (MB)   RECORD NAMES
              1      19       56.75       500      610      700      900      950      970     1000      129      960     1100   
                                          VAR    BASINP    GEOM    SYMINP    ZMAT    AOBASIS   BASIS     P2S    ABASIS      S 
                                         1400     1410     1420     1200     1210     1080     1600     1650     1700   
                                           T        V       ECP      H0       H01     AOSYM     SMH    MOLCAS    OPER   

 PROGRAMS   *        TOTAL       INT
 CPU TIMES  *         8.93      8.74
 REAL TIME  *        28.94 SEC
 DISK USED  *        58.94 MB
 **********************************************************************************************************************************

 Density functional group PBE=PBEX+PBEC
 Functional: PBEX(Automatically generated (new) PBEX)                          Gradient terms: 1
 Functional: PBEC(Automatically generated (new) PBEC)                          Gradient terms: 1
 Use libxcgrid:  F
 Use grid at  1800.2

 Functional: PBEX                      Factor:  1.0000
 Functional: PBEC                      Factor:  1.0000

 Generated new metagrid on record  1800.2 with target accuracy 1.0D-06 and 392530 points in CPU time   12.8
 Computed new grid on record 1800.1 in CPU time   24.5
  635055 words reserved for DFT integration

 PROGRAM * RKS-SCF (Restricted closed shell Kohn-Sham)     Authors: W. Meyer, H.-J. Werner, P.J. Knowles, 1993

 NUMBER OF ELECTRONS:     181+  181-    SPACE SYMMETRY=1    SPIN SYMMETRY: Singlet 
 CONVERGENCE THRESHOLDS:    1.00E-05 (Density)    1.00E-06 (Energy)
 INTEGRAL THRESHOLDS:       1.00E-11 (Initial)    1.00E-11 (Final)
 MAX. NUMBER OF ITERATIONS:       60
 INTERPOLATION TYPE:            DIIS
 INTERPOLATION STEPS:              2 (START)      1 (STEP)
 LEVEL SHIFTS:                  0.00 (CLOSED)  0.00 (OPEN) 



 Use fine grid record 1800.2 for energy threshold  1.0D-06
 Orbital guess generated from atomic densities. Full valence occupancy:  182

 Molecular orbital dump at record        2100.2

 Initial occupancy: 181

 Direct Fock-matrix evaluation.        Authors: Roland Lindh & Martin Schuetz (1993/96)

 Integral Threshold:                  0.1D-10
 Threshold for writing integrals:     0.1D-06
 Prescreening on density matrix:        ON 
 Calculation will be performed fully direct        

 ITERATION   DDIFF            GRAD            ENERGY        2-EL.EN.            DIPOLE MOMENTS         DIIS   CPU(IT)  CPU(TOT)
    1      0.000D+00      0.000D+00     -2629.67360112  17174.879213   -3.34518    4.06930    2.23352    0   1066.5   1164.6     start
    2      0.000D+00      0.427D-02     -2624.13647038  16865.441622    9.09394   -0.26296  -10.47808    1   1041.2   2205.7     diag
    3      0.308D-01      0.803D-02     -2630.85412192  17065.811804   -4.86580    4.35034    3.53548    2    955.7   3161.4     diag
    4      0.288D-01      0.262D-02     -2631.53814828  17067.118406   -3.42870    3.50439    1.81488    3    839.8   4001.2     diag
    5      0.275D-02      0.517D-03     -2631.52065800  17068.986436   -2.88932    4.02124    1.40311    4    794.1   4795.3     diag
    6      0.127D-02      0.713D-03     -2631.56678270  17064.199908   -2.75615    3.53883    1.26743    5    750.2   5545.5     diag
    7      0.677D-03      0.128D-03     -2631.56775742  17065.002836   -2.83203    3.48951    1.12277    6    674.7   6220.2     diag
    8      0.186D-03      0.777D-04     -2631.56822655  17064.634163   -2.80448    3.58521    1.27522    7    631.1   6851.3     diag
    9      0.102D-03      0.297D-04     -2631.56829654  17064.727075   -2.80518    3.54993    1.22078    8    578.4   7429.7     diag
   10      0.390D-04      0.105D-04     -2631.56830589  17064.719678   -2.80559    3.55501    1.22819    9    528.9   7958.7     orth
   11      0.113D-04      0.330D-05     -2631.56830677  17064.692319   -2.80494    3.55100    1.22509    9    476.7   8435.4     diag
   12      0.441D-05      0.134D-05     -2631.56830531  17064.732423   -2.80577    3.55652    1.23124    0    485.8   8921.2     orth

 Final occupancy: 181

 !RKS STATE  1.1 Energy             -2631.568305305534
 Nuclear energy                      7223.74872065
 One-electron energy               -18061.47318086
 Two-electron energy                 8532.36621174
 Density functional                  -326.21005683     PBEX=-313.72139004 PBEC= -12.48866679
 Virial quotient                       -1.03449312
 !RKS STATE  1.1 Dipole moment         -2.80577487     3.55651782     1.23124206
 Dipole moment /Debye                  -7.13110130     9.03917455     3.12930019

 Orbital energies:

         1.1          2.1          3.1          4.1          5.1          6.1          7.1          8.1          9.1         10.1
    -76.510417   -18.920259   -18.889369   -18.860495   -18.858814   -18.847763   -18.829617   -18.810767   -18.804089   -18.791648

        11.1         12.1         13.1         14.1         15.1         16.1         17.1         18.1         19.1         20.1
    -14.195780   -14.182933   -14.173994   -14.157560   -14.136144   -14.086014   -10.131633   -10.092951   -10.071427   -10.059256

        21.1         22.1         23.1         24.1         25.1         26.1         27.1         28.1         29.1         30.1
    -10.059103   -10.045012   -10.043726   -10.041338   -10.022154   -10.021112   -10.016613   -10.014530   -10.007297   -10.002635

        31.1         32.1         33.1         34.1         35.1         36.1         37.1         38.1         39.1         40.1
     -9.993239    -9.992541    -9.990438    -9.981891    -9.977171    -9.973886    -9.973813    -9.967591    -9.958386    -9.944698

        41.1         42.1         43.1         44.1         45.1         46.1         47.1         48.1         49.1         50.1
     -9.944627    -9.938029    -9.936775    -6.483192    -4.905630    -4.702306    -4.701889    -4.700266    -3.140689    -3.139176

        51.1         52.1         53.1         54.1         55.1         56.1         57.1         58.1         59.1         60.1
     -3.137798    -1.124206    -1.085863    -1.060489    -1.055266    -1.038221    -1.031958    -1.029348    -1.001231    -0.977045

        61.1         62.1         63.1         64.1         65.1         66.1         67.1         68.1         69.1         70.1
     -0.971540    -0.955943    -0.944377    -0.924791    -0.923387    -0.890531    -0.845008    -0.833118    -0.810895    -0.809590

        71.1         72.1         73.1         74.1         75.1         76.1         77.1         78.1         79.1         80.1
     -0.785770    -0.774885    -0.767135    -0.759836    -0.747097    -0.730318    -0.721835    -0.703794    -0.693316    -0.685665

        81.1         82.1         83.1         84.1         85.1         86.1         87.1         88.1         89.1         90.1
     -0.685323    -0.682206    -0.669621    -0.663348    -0.662926    -0.657449    -0.647420    -0.646255    -0.641843    -0.627244

        91.1         92.1         93.1         94.1         95.1         96.1         97.1         98.1         99.1        100.1
     -0.621709    -0.614131    -0.612703    -0.600830    -0.579273    -0.575673    -0.572145    -0.563125    -0.540691    -0.537310

       101.1        102.1        103.1        104.1        105.1        106.1        107.1        108.1        109.1        110.1
     -0.534409    -0.532881    -0.531333    -0.529876    -0.525807    -0.522122    -0.513965    -0.512957    -0.508146    -0.506362

       111.1        112.1        113.1        114.1        115.1        116.1        117.1        118.1        119.1        120.1
     -0.503638    -0.501645    -0.495970    -0.494279    -0.490642    -0.489494    -0.489200    -0.486425    -0.481073    -0.480495

       121.1        122.1        123.1        124.1        125.1        126.1        127.1        128.1        129.1        130.1
     -0.479187    -0.475078    -0.474801    -0.472185    -0.471760    -0.469173    -0.468115    -0.467480    -0.459427    -0.454892

       131.1        132.1        133.1        134.1        135.1        136.1        137.1        138.1        139.1        140.1
     -0.453992    -0.451655    -0.446416    -0.441076    -0.436633    -0.436324    -0.432013    -0.427737    -0.425759    -0.423624

       141.1        142.1        143.1        144.1        145.1        146.1        147.1        148.1        149.1        150.1
     -0.423404    -0.421186    -0.419598    -0.413716    -0.411514    -0.410966    -0.409688    -0.405838    -0.403589    -0.397980

       151.1        152.1        153.1        154.1        155.1        156.1        157.1        158.1        159.1        160.1
     -0.397581    -0.394278    -0.393674    -0.392101    -0.386713    -0.384453    -0.379637    -0.378810    -0.377643    -0.376432

       161.1        162.1        163.1        164.1        165.1        166.1        167.1        168.1        169.1        170.1
     -0.374519    -0.371732    -0.367066    -0.360767    -0.358429    -0.354807    -0.349331    -0.344859    -0.342563    -0.332785

       171.1        172.1        173.1        174.1        175.1        176.1        177.1        178.1        179.1        180.1
     -0.330729    -0.317398    -0.315785    -0.315175    -0.310265    -0.304512    -0.301217    -0.297341    -0.291607    -0.270398

       181.1        182.1        183.1
     -0.270261    -0.146281    -0.142869


 HOMO    181.1    -0.270261 =      -7.3542eV
 LUMO    182.1    -0.146281 =      -3.9805eV
 LUMO-HOMO         0.123980 =       3.3737eV


 **********************************************************************************************************************************
 DATASETS  * FILE   NREC   LENGTH (MB)   RECORD NAMES
              1      20       69.32       500      610      700      900      950      970     1000      129      960     1100   
                                          VAR    BASINP    GEOM    SYMINP    ZMAT    AOBASIS   BASIS     P2S    ABASIS      S 
                                         1400     1410     1420     1200     1210     1080     1600     1650     1700     1800   
                                           T        V       ECP      H0       H01     AOSYM     SMH    MOLCAS    OPER     GRID   

              2       5       16.97       700     1000      520     1800     2100   
                                         GEOM     BASIS   MCVARS    GRID      RKS  

 PROGRAMS   *        TOTAL    KS-SCF       INT
 CPU TIMES  *      8954.99   8946.06      8.74
 REAL TIME  *     53763.10 SEC
 DISK USED  *       138.47 MB
 **********************************************************************************************************************************
 SETTING E(1)           =     -2631.56830531  AU                              

 DO I                   =         2.00000000   

 Density functional group B3LYP=B88+DIRAC+LYP+VWN5
 Functional: B88(Automatically generated (new) B88)                            Gradient terms: 1
 Functional: DIRAC(Automatically generated (new) DIRAC)                        Gradient terms: 0
 Functional: LYP(Automatically generated (new) LYP)                            Gradient terms: 1
 Functional: VWN5(Automatically generated (new) VWN5)                          Gradient terms: 0
 Use libxcgrid:  F
 Use grid at  1800.2


 Exact exchange will be calculated, factor:  0.2000

 Functional: B88                       Factor:  0.7200
 Functional: DIRAC                     Factor:  0.0800
 Functional: LYP                       Factor:  0.8100
 Functional: VWN5                      Factor:  0.1900

  635055 words reserved for DFT integration

 PROGRAM * RKS-SCF (Restricted closed shell Kohn-Sham)     Authors: W. Meyer, H.-J. Werner, P.J. Knowles, 1993

 NUMBER OF ELECTRONS:     181+  181-    SPACE SYMMETRY=1    SPIN SYMMETRY: Singlet 
 CONVERGENCE THRESHOLDS:    1.00E-05 (Density)    1.00E-06 (Energy)
 INTEGRAL THRESHOLDS:       1.00E-11 (Initial)    1.00E-11 (Final)
 MAX. NUMBER OF ITERATIONS:       60
 INTERPOLATION TYPE:            DIIS
 INTERPOLATION STEPS:              2 (START)      1 (STEP)
 LEVEL SHIFTS:                  0.00 (CLOSED)  0.00 (OPEN) 



 Use fine grid record 1800.2 for energy threshold  1.0D-06
 Molecular orbitals read from record     2100.2  Type=RKS/CANONICAL (state 1.1)

 Molecular orbital dump at record        2100.2

 Direct Fock-matrix evaluation.        Authors: Roland Lindh & Martin Schuetz (1993/96)

 Integral Threshold:                  0.1D-10
 Threshold for writing integrals:     0.1D-06
 Prescreening on density matrix:        ON 
 Calculation will be performed fully direct        

 ITERATION   DDIFF            GRAD            ENERGY        2-EL.EN.            DIPOLE MOMENTS         DIIS   CPU(IT)  CPU(TOT)
    1      0.000D+00      0.000D+00     -2632.92021624  16939.052955   -2.80577    3.55652    1.23124    0   1041.0   1041.2     start
    2      0.000D+00      0.409D-03     -2632.93305921  16941.939630   -2.70956    3.46912    1.24706    1    869.0   1910.2     diag
    3      0.130D-02      0.305D-03     -2632.93700612  16937.597764   -2.85895    3.49981    1.25909    2    766.2   2676.4     diag
    4      0.424D-03      0.194D-03     -2632.93975754  16940.322621   -2.76519    3.51712    1.25260    3    717.6   3394.0     diag
    5      0.183D-03      0.406D-04     -2632.93989307  16939.848852   -2.78654    3.49512    1.25186    4    642.1   4036.1     diag
    6      0.470D-04      0.116D-04     -2632.93990366  16939.705196   -2.78783    3.49852    1.25043    5    562.3   4598.5     diag
    7      0.147D-04      0.404D-05     -2632.93990494  16939.738342   -2.78642    3.49921    1.25416    6    492.3   5090.8     diag
    8      0.478D-05      0.158D-05     -2632.93990519  16939.760748   -2.78690    3.49829    1.25214    7    446.7   5537.5     orth
    9      0.185D-05      0.428D-06     -2632.93990525  16939.755095   -2.78602    3.49961    1.25350    0    414.3   5951.8     orth

 Final occupancy: 181

 !RKS STATE  1.1 Energy             -2632.939905251769
 Nuclear energy                      7223.74872065
 One-electron energy               -18061.63822019
 Two-electron energy                 8469.87754755
 Density functional                  -264.92795326     B88=-315.64832459 DIRAC=-286.23293414 LYP= -12.61074727 VWN5= -23.93589228
 Virial quotient                       -1.03439928
 !RKS STATE  1.1 Dipole moment         -2.78601507     3.49960932     1.25349828
 Dipole moment /Debye                  -7.08088018     8.89453704     3.18586616

 Orbital energies:

         1.1          2.1          3.1          4.1          5.1          6.1          7.1          8.1          9.1         10.1
    -77.285457   -19.299047   -19.265542   -19.233473   -19.232064   -19.218951   -19.201814   -19.185004   -19.177849   -19.162836

        11.1         12.1         13.1         14.1         15.1         16.1         17.1         18.1         19.1         20.1
    -14.525915   -14.512740   -14.505074   -14.486685   -14.464268   -14.415772   -10.433255   -10.388452   -10.365998   -10.356578

        21.1         22.1         23.1         24.1         25.1         26.1         27.1         28.1         29.1         30.1
    -10.347276   -10.334678   -10.333309   -10.333024   -10.310858   -10.308807   -10.305671   -10.301048   -10.294501   -10.293874

        31.1         32.1         33.1         34.1         35.1         36.1         37.1         38.1         39.1         40.1
    -10.282066   -10.279479   -10.279069   -10.269146   -10.268650   -10.261405   -10.260745   -10.255326   -10.245796   -10.232898

        41.1         42.1         43.1         44.1         45.1         46.1         47.1         48.1         49.1         50.1
    -10.232359   -10.225570   -10.224993    -6.738741    -5.133063    -4.902536    -4.902168    -4.900533    -3.323196    -3.321671

        51.1         52.1         53.1         54.1         55.1         56.1         57.1         58.1         59.1         60.1
     -3.320556    -1.216653    -1.168366    -1.144312    -1.142106    -1.127232    -1.120294    -1.110546    -1.088107    -1.062613

        61.1         62.1         63.1         64.1         65.1         66.1         67.1         68.1         69.1         70.1
     -1.056828    -1.033049    -1.029220    -1.007707    -1.000379    -0.965883    -0.915807    -0.904042    -0.883502    -0.880261

        71.1         72.1         73.1         74.1         75.1         76.1         77.1         78.1         79.1         80.1
     -0.853010    -0.845811    -0.834240    -0.830415    -0.814158    -0.797788    -0.780288    -0.768810    -0.753438    -0.751839

        81.1         82.1         83.1         84.1         85.1         86.1         87.1         88.1         89.1         90.1
     -0.744255    -0.740682    -0.728176    -0.725837    -0.723701    -0.717734    -0.705657    -0.703724    -0.702012    -0.682622

        91.1         92.1         93.1         94.1         95.1         96.1         97.1         98.1         99.1        100.1
     -0.679639    -0.671670    -0.668663    -0.653869    -0.636787    -0.631157    -0.624708    -0.618551    -0.602487    -0.592993

       101.1        102.1        103.1        104.1        105.1        106.1        107.1        108.1        109.1        110.1
     -0.587422    -0.585103    -0.584140    -0.578978    -0.577380    -0.577082    -0.573069    -0.569007    -0.563068    -0.561246

       111.1        112.1        113.1        114.1        115.1        116.1        117.1        118.1        119.1        120.1
     -0.559473    -0.556210    -0.550769    -0.549584    -0.549357    -0.547162    -0.541892    -0.536607    -0.535365    -0.532363

       121.1        122.1        123.1        124.1        125.1        126.1        127.1        128.1        129.1        130.1
     -0.530133    -0.528541    -0.526021    -0.523666    -0.523208    -0.517982    -0.516903    -0.514981    -0.513429    -0.506436

       131.1        132.1        133.1        134.1        135.1        136.1        137.1        138.1        139.1        140.1
     -0.504535    -0.499514    -0.494393    -0.489589    -0.484324    -0.483813    -0.478085    -0.473243    -0.472677    -0.470615

       141.1        142.1        143.1        144.1        145.1        146.1        147.1        148.1        149.1        150.1
     -0.467342    -0.464819    -0.463023    -0.459845    -0.456438    -0.454197    -0.453571    -0.450567    -0.447115    -0.443314

       151.1        152.1        153.1        154.1        155.1        156.1        157.1        158.1        159.1        160.1
     -0.440092    -0.438649    -0.437238    -0.434832    -0.433135    -0.429164    -0.425644    -0.422830    -0.421490    -0.419770

       161.1        162.1        163.1        164.1        165.1        166.1        167.1        168.1        169.1        170.1
     -0.417167    -0.412404    -0.410886    -0.405408    -0.402964    -0.400561    -0.395457    -0.388082    -0.379621    -0.378977

       171.1        172.1        173.1        174.1        175.1        176.1        177.1        178.1        179.1        180.1
     -0.363093    -0.360380    -0.357940    -0.352450    -0.348024    -0.345645    -0.342753    -0.342330    -0.321184    -0.317983

       181.1        182.1        183.1
     -0.316955    -0.113689    -0.110160


 HOMO    181.1    -0.316955 =      -8.6248eV
 LUMO    182.1    -0.113689 =      -3.0936eV
 LUMO-HOMO         0.203265 =       5.5311eV


 **********************************************************************************************************************************
 DATASETS  * FILE   NREC   LENGTH (MB)   RECORD NAMES
              1      20       69.32       500      610      700      900      950      970     1000      129      960     1100   
                                          VAR    BASINP    GEOM    SYMINP    ZMAT    AOBASIS   BASIS     P2S    ABASIS      S 
                                         1400     1410     1420     1200     1210     1080     1600     1650     1700     1800   
                                           T        V       ECP      H0       H01     AOSYM     SMH    MOLCAS    OPER     GRID   

              2       5       16.97       700     1000      520     1800     2100   
                                         GEOM     BASIS   MCVARS    GRID      RKS  

 PROGRAMS   *        TOTAL    KS-SCF    KS-SCF       INT
 CPU TIMES  *     14907.14   5952.14   8946.06      8.74
 REAL TIME  *     89616.33 SEC
 DISK USED  *       138.47 MB
 **********************************************************************************************************************************
 SETTING E(2)           =     -2632.93990525  AU                              

 DO I                   =         3.00000000   

 Density functional group BH-LYP=B88+LYP
 Functional: B88(Automatically generated (new) B88)                            Gradient terms: 1
 Functional: LYP(Automatically generated (new) LYP)                            Gradient terms: 1
 Use libxcgrid:  F
 Use grid at  1800.2


 Exact exchange will be calculated, factor:  0.5000

 Functional: B88                       Factor:  0.5000
 Functional: LYP                       Factor:  1.0000

  635055 words reserved for DFT integration

 PROGRAM * RKS-SCF (Restricted closed shell Kohn-Sham)     Authors: W. Meyer, H.-J. Werner, P.J. Knowles, 1993

 NUMBER OF ELECTRONS:     181+  181-    SPACE SYMMETRY=1    SPIN SYMMETRY: Singlet 
 CONVERGENCE THRESHOLDS:    1.00E-05 (Density)    1.00E-06 (Energy)
 INTEGRAL THRESHOLDS:       1.00E-11 (Initial)    1.00E-11 (Final)
 MAX. NUMBER OF ITERATIONS:       60
 INTERPOLATION TYPE:            DIIS
 INTERPOLATION STEPS:              2 (START)      1 (STEP)
 LEVEL SHIFTS:                  0.00 (CLOSED)  0.00 (OPEN) 



 Use fine grid record 1800.2 for energy threshold  1.0D-06
 Molecular orbitals read from record     2100.2  Type=RKS/CANONICAL (state 1.1)

 Molecular orbital dump at record        2100.2

 Direct Fock-matrix evaluation.        Authors: Roland Lindh & Martin Schuetz (1993/96)

 Integral Threshold:                  0.1D-10
 Threshold for writing integrals:     0.1D-06
 Prescreening on density matrix:        ON 
 Calculation will be performed fully direct        

 ITERATION   DDIFF            GRAD            ENERGY        2-EL.EN.            DIPOLE MOMENTS         DIIS   CPU(IT)  CPU(TOT)
    1      0.000D+00      0.000D+00     -2632.82590246  16750.997013   -2.78602    3.49961    1.25350    0   1014.8   1014.9     start
    2      0.000D+00      0.676D-03     -2632.85942248  16749.590747   -2.72995    3.42684    1.28462    1   1211.8   2226.8     diag
    3      0.169D-02      0.219D-03     -2632.85988757  16749.181771   -2.79602    3.44169    1.28596    2   1167.4   3394.2     diag
    4      0.325D-03      0.223D-03     -2632.86230482  16750.652024   -2.76345    3.44786    1.29514    3    979.3   4373.5     diag
    5      0.142D-03      0.246D-04     -2632.86234334  16749.996398   -2.76401    3.43393    1.29292    4    817.9   5191.5     diag
    6      0.258D-04      0.876D-05     -2632.86235076  16750.047899   -2.76646    3.43844    1.29391    5    626.9   5818.3     diag
    7      0.112D-04      0.326D-05     -2632.86235192  16750.092502   -2.76548    3.43672    1.29413    6    537.8   6356.1     diag
    8      0.398D-05      0.112D-05     -2632.86235214  16750.096434   -2.76567    3.43725    1.29423    7    470.6   6826.7     orth
    9      0.162D-05      0.472D-06     -2632.86235218  16750.084504   -2.76559    3.43691    1.29428    0    442.8   7269.5     orth

 Final occupancy: 181

 !RKS STATE  1.1 Energy             -2632.862352180409
 Nuclear energy                      7223.74872065
 One-electron energy               -18061.19237843
 Two-electron energy                 8375.04225210
 Density functional                  -170.46094650     B88=-315.71148612 LYP= -12.60520344
 Virial quotient                       -1.03415003
 !RKS STATE  1.1 Dipole moment         -2.76558702     3.43691040     1.29428109
 Dipole moment /Debye                  -7.02896065     8.73518273     3.28951895

 Orbital energies:

         1.1          2.1          3.1          4.1          5.1          6.1          7.1          8.1          9.1         10.1
    -78.399637   -19.852923   -19.818212   -19.785957   -19.785109   -19.768977   -19.750181   -19.735630   -19.727314   -19.711762

        11.1         12.1         13.1         14.1         15.1         16.1         17.1         18.1         19.1         20.1
    -15.010042   -14.996189   -14.989836   -14.970389   -14.947207   -14.899857   -10.857519   -10.808671   -10.784874   -10.776696

        21.1         22.1         23.1         24.1         25.1         26.1         27.1         28.1         29.1         30.1
    -10.759927   -10.752218   -10.745582   -10.745543   -10.722750   -10.722201   -10.718829   -10.710684   -10.707156   -10.703501

        31.1         32.1         33.1         34.1         35.1         36.1         37.1         38.1         39.1         40.1
    -10.694681   -10.690647   -10.690227   -10.680250   -10.678277   -10.671284   -10.670889   -10.665237   -10.656280   -10.642801

        41.1         42.1         43.1         44.1         45.1         46.1         47.1         48.1         49.1         50.1
    -10.642061   -10.635063   -10.634879    -7.110617    -5.470818    -5.174383    -5.174106    -5.172727    -3.594409    -3.592957

        51.1         52.1         53.1         54.1         55.1         56.1         57.1         58.1         59.1         60.1
     -3.592063    -1.361792    -1.303566    -1.285608    -1.275794    -1.266837    -1.261178    -1.244327    -1.226953    -1.199253

        61.1         62.1         63.1         64.1         65.1         66.1         67.1         68.1         69.1         70.1
     -1.193230    -1.164123    -1.157168    -1.141925    -1.122434    -1.088140    -1.030263    -1.018543    -0.999516    -0.994903

        71.1         72.1         73.1         74.1         75.1         76.1         77.1         78.1         79.1         80.1
     -0.961378    -0.959220    -0.944087    -0.941418    -0.922467    -0.904880    -0.875051    -0.869858    -0.856385    -0.849808

        81.1         82.1         83.1         84.1         85.1         86.1         87.1         88.1         89.1         90.1
     -0.840704    -0.831891    -0.829536    -0.820936    -0.814865    -0.811978    -0.805427    -0.793856    -0.790768    -0.772305

        91.1         92.1         93.1         94.1         95.1         96.1         97.1         98.1         99.1        100.1
     -0.770188    -0.763087    -0.754092    -0.737574    -0.734953    -0.719832    -0.709566    -0.707613    -0.704752    -0.696849

       101.1        102.1        103.1        104.1        105.1        106.1        107.1        108.1        109.1        110.1
     -0.692439    -0.689467    -0.678113    -0.670924    -0.665110    -0.659846    -0.658200    -0.653235    -0.648820    -0.646599

       111.1        112.1        113.1        114.1        115.1        116.1        117.1        118.1        119.1        120.1
     -0.637404    -0.635224    -0.633655    -0.631713    -0.624605    -0.621292    -0.617819    -0.610711    -0.610326    -0.608176

       121.1        122.1        123.1        124.1        125.1        126.1        127.1        128.1        129.1        130.1
     -0.606304    -0.604404    -0.603479    -0.601470    -0.596937    -0.594600    -0.593232    -0.588577    -0.586450    -0.585300

       131.1        132.1        133.1        134.1        135.1        136.1        137.1        138.1        139.1        140.1
     -0.581316    -0.574378    -0.569913    -0.564153    -0.556857    -0.553575    -0.550399    -0.544706    -0.544475    -0.541136

       141.1        142.1        143.1        144.1        145.1        146.1        147.1        148.1        149.1        150.1
     -0.534182    -0.531636    -0.531120    -0.527827    -0.525697    -0.522183    -0.518006    -0.517718    -0.513492    -0.512665

       151.1        152.1        153.1        154.1        155.1        156.1        157.1        158.1        159.1        160.1
     -0.511137    -0.507985    -0.504802    -0.502690    -0.499463    -0.496515    -0.494622    -0.492363    -0.488183    -0.485959

       161.1        162.1        163.1        164.1        165.1        166.1        167.1        168.1        169.1        170.1
     -0.484378    -0.476935    -0.475782    -0.471746    -0.470812    -0.467473    -0.462350    -0.456747    -0.449721    -0.435530

       171.1        172.1        173.1        174.1        175.1        176.1        177.1        178.1        179.1        180.1
     -0.432960    -0.429193    -0.420871    -0.416306    -0.413591    -0.412562    -0.402403    -0.394114    -0.390959    -0.385832

       181.1        182.1        183.1
     -0.361692    -0.068077    -0.066115


 HOMO    181.1    -0.361692 =      -9.8421eV
 LUMO    182.1    -0.068077 =      -1.8525eV
 LUMO-HOMO         0.293615 =       7.9897eV


 **********************************************************************************************************************************
 DATASETS  * FILE   NREC   LENGTH (MB)   RECORD NAMES
              1      20       69.32       500      610      700      900      950      970     1000      129      960     1100   
                                          VAR    BASINP    GEOM    SYMINP    ZMAT    AOBASIS   BASIS     P2S    ABASIS      S 
                                         1400     1410     1420     1200     1210     1080     1600     1650     1700     1800   
                                           T        V       ECP      H0       H01     AOSYM     SMH    MOLCAS    OPER     GRID   

              2       5       16.97       700     1000      520     1800     2100   
                                         GEOM     BASIS   MCVARS    GRID      RKS  

 PROGRAMS   *        TOTAL    KS-SCF    KS-SCF    KS-SCF       INT
 CPU TIMES  *     22177.03   7269.88   5952.14   8946.06      8.74
 REAL TIME  *    133426.15 SEC
 DISK USED  *       138.47 MB
 **********************************************************************************************************************************
 SETTING E(3)           =     -2632.86235218  AU                              

 DO I                   =         4.00000000   

 Density functional group PBE0=PBEX+PBEC
 Functional: PBEX(Automatically generated (new) PBEX)                          Gradient terms: 1
 Functional: PBEC(Automatically generated (new) PBEC)                          Gradient terms: 1
 Use libxcgrid:  F
 Use grid at  1800.2


 Exact exchange will be calculated, factor:  0.2500

 Functional: PBEX                      Factor:  0.7500
 Functional: PBEC                      Factor:  1.0000

  635055 words reserved for DFT integration

 PROGRAM * RKS-SCF (Restricted closed shell Kohn-Sham)     Authors: W. Meyer, H.-J. Werner, P.J. Knowles, 1993

 NUMBER OF ELECTRONS:     181+  181-    SPACE SYMMETRY=1    SPIN SYMMETRY: Singlet 
 CONVERGENCE THRESHOLDS:    1.00E-05 (Density)    1.00E-06 (Energy)
 INTEGRAL THRESHOLDS:       1.00E-11 (Initial)    1.00E-11 (Final)
 MAX. NUMBER OF ITERATIONS:       60
 INTERPOLATION TYPE:            DIIS
 INTERPOLATION STEPS:              2 (START)      1 (STEP)
 LEVEL SHIFTS:                  0.00 (CLOSED)  0.00 (OPEN) 



 Use fine grid record 1800.2 for energy threshold  1.0D-06
 Molecular orbitals read from record     2100.2  Type=RKS/CANONICAL (state 1.1)

 Molecular orbital dump at record        2100.2

 Direct Fock-matrix evaluation.        Authors: Roland Lindh & Martin Schuetz (1993/96)

 Integral Threshold:                  0.1D-10
 Threshold for writing integrals:     0.1D-06
 Prescreening on density matrix:        ON 
 Calculation will be performed fully direct        

 ITERATION   DDIFF            GRAD            ENERGY        2-EL.EN.            DIPOLE MOMENTS         DIIS   CPU(IT)  CPU(TOT)
    1      0.000D+00      0.000D+00     -2631.69009411  16907.532778   -2.76559    3.43691    1.29428    0   1080.3   1080.5     start
    2      0.000D+00      0.510D-03     -2631.70869703  16906.217653   -2.86863    3.52995    1.27393    1    930.4   2010.9     diag
    3      0.124D-02      0.312D-03     -2631.71163088  16909.907863   -2.71647    3.50513    1.27350    2    826.9   2837.8     diag
    4      0.454D-03      0.234D-03     -2631.71561147  16906.851939   -2.81088    3.48124    1.26497    3    739.5   3577.3     diag
    5      0.215D-03      0.386D-04     -2631.71573235  16907.573187   -2.79366    3.51029    1.27367    4    635.2   4212.5     diag
    6      0.454D-04      0.115D-04     -2631.71574271  16907.696792   -2.79256    3.50304    1.27152    5    566.2   4778.7     diag
    7      0.134D-04      0.410D-05     -2631.71574415  16907.659049   -2.79313    3.50430    1.26992    6    509.1   5287.8     diag
    8      0.474D-05      0.145D-05     -2631.71574426  16907.633657   -2.79293    3.50438    1.27104    7    442.0   5729.8     orth
    9      0.171D-05      0.356D-06     -2631.71574413  16907.645661   -2.79350    3.50375    1.27021    0    404.9   6134.7     orth

 Final occupancy: 181

 !RKS STATE  1.1 Energy             -2631.715744125437
 Nuclear energy                      7223.74872065
 One-electron energy               -18061.45174419
 Two-electron energy                 8453.82283068
 Density functional                  -247.83555127     PBEX=-313.78362444 PBEC= -12.49783294
 Virial quotient                       -1.03440701
 !RKS STATE  1.1 Dipole moment         -2.79349920     3.50375278     1.27020515
 Dipole moment /Debye                  -7.09990169     8.90506799     3.22832799

 Orbital energies:

         1.1          2.1          3.1          4.1          5.1          6.1          7.1          8.1          9.1         10.1
    -77.426385   -19.376779   -19.344436   -19.315110   -19.314009   -19.300721   -19.281453   -19.263041   -19.254867   -19.242233

        11.1         12.1         13.1         14.1         15.1         16.1         17.1         18.1         19.1         20.1
    -14.595157   -14.581916   -14.574651   -14.556357   -14.535275   -14.485462   -10.483044   -10.439352   -10.417036   -10.405783

        21.1         22.1         23.1         24.1         25.1         26.1         27.1         28.1         29.1         30.1
    -10.400156   -10.385864   -10.385554   -10.384538   -10.362720   -10.362234   -10.357473   -10.352214   -10.345032   -10.342652

        31.1         32.1         33.1         34.1         35.1         36.1         37.1         38.1         39.1         40.1
    -10.333890   -10.331065   -10.329783   -10.318961   -10.315997   -10.312120   -10.311315   -10.305329   -10.296237   -10.282277

        41.1         42.1         43.1         44.1         45.1         46.1         47.1         48.1         49.1         50.1
    -10.282039   -10.275159   -10.274333    -6.794872    -5.188154    -4.932802    -4.932446    -4.930879    -3.367750    -3.366263

        51.1         52.1         53.1         54.1         55.1         56.1         57.1         58.1         59.1         60.1
     -3.365051    -1.247428    -1.201018    -1.174771    -1.174337    -1.156325    -1.150602    -1.142959    -1.118219    -1.092192

        61.1         62.1         63.1         64.1         65.1         66.1         67.1         68.1         69.1         70.1
     -1.086062    -1.061748    -1.057503    -1.036063    -1.028692    -0.994310    -0.942713    -0.930875    -0.909670    -0.907217

        71.1         72.1         73.1         74.1         75.1         76.1         77.1         78.1         79.1         80.1
     -0.878261    -0.871374    -0.859169    -0.855732    -0.839356    -0.821528    -0.802196    -0.791182    -0.775599    -0.774662

        81.1         82.1         83.1         84.1         85.1         86.1         87.1         88.1         89.1         90.1
     -0.766104    -0.762003    -0.749636    -0.746470    -0.745707    -0.738031    -0.727246    -0.724739    -0.722242    -0.703259

        91.1         92.1         93.1         94.1         95.1         96.1         97.1         98.1         99.1        100.1
     -0.700079    -0.691117    -0.687586    -0.672650    -0.656269    -0.648847    -0.643471    -0.636821    -0.622710    -0.612626

       101.1        102.1        103.1        104.1        105.1        106.1        107.1        108.1        109.1        110.1
     -0.605766    -0.602579    -0.602098    -0.597412    -0.596158    -0.595256    -0.590971    -0.587795    -0.582646    -0.580199

       111.1        112.1        113.1        114.1        115.1        116.1        117.1        118.1        119.1        120.1
     -0.575681    -0.572531    -0.568390    -0.567084    -0.565719    -0.564365    -0.557852    -0.552943    -0.551762    -0.548619

       121.1        122.1        123.1        124.1        125.1        126.1        127.1        128.1        129.1        130.1
     -0.546238    -0.545176    -0.542429    -0.540761    -0.538992    -0.534274    -0.533605    -0.531022    -0.529257    -0.522984

       131.1        132.1        133.1        134.1        135.1        136.1        137.1        138.1        139.1        140.1
     -0.520431    -0.514431    -0.510728    -0.504540    -0.499264    -0.498863    -0.493786    -0.488683    -0.487191    -0.484866

       141.1        142.1        143.1        144.1        145.1        146.1        147.1        148.1        149.1        150.1
     -0.481872    -0.480431    -0.476212    -0.474078    -0.470530    -0.467470    -0.465929    -0.463955    -0.460309    -0.457118

       151.1        152.1        153.1        154.1        155.1        156.1        157.1        158.1        159.1        160.1
     -0.454680    -0.452833    -0.450129    -0.448901    -0.447313    -0.443165    -0.439648    -0.437517    -0.434882    -0.432838

       161.1        162.1        163.1        164.1        165.1        166.1        167.1        168.1        169.1        170.1
     -0.431121    -0.426386    -0.423268    -0.419187    -0.415310    -0.414496    -0.408799    -0.400956    -0.393792    -0.392936

       171.1        172.1        173.1        174.1        175.1        176.1        177.1        178.1        179.1        180.1
     -0.376747    -0.374497    -0.370442    -0.366269    -0.361374    -0.359739    -0.356935    -0.354738    -0.334159    -0.331267

       181.1        182.1        183.1
     -0.329686    -0.109200    -0.104257


 HOMO    181.1    -0.329686 =      -8.9712eV
 LUMO    182.1    -0.109200 =      -2.9715eV
 LUMO-HOMO         0.220486 =       5.9997eV


 **********************************************************************************************************************************
 DATASETS  * FILE   NREC   LENGTH (MB)   RECORD NAMES
              1      20       69.32       500      610      700      900      950      970     1000      129      960     1100   
                                          VAR    BASINP    GEOM    SYMINP    ZMAT    AOBASIS   BASIS     P2S    ABASIS      S 
                                         1400     1410     1420     1200     1210     1080     1600     1650     1700     1800   
                                           T        V       ECP      H0       H01     AOSYM     SMH    MOLCAS    OPER     GRID   

              2       5       16.97       700     1000      520     1800     2100   
                                         GEOM     BASIS   MCVARS    GRID      RKS  

 PROGRAMS   *        TOTAL    KS-SCF    KS-SCF    KS-SCF    KS-SCF       INT
 CPU TIMES  *     28312.13   6135.08   7269.88   5952.14   8946.06      8.74
 REAL TIME  *    170375.28 SEC
 DISK USED  *       138.47 MB
 **********************************************************************************************************************************
 SETTING E(4)           =     -2631.71574413  AU                              


 PROGRAM * RHF-SCF (CLOSED SHELL)       Authors: W. Meyer, H.-J. Werner


 NUMBER OF ELECTRONS:     181+  181-    SPACE SYMMETRY=1    SPIN SYMMETRY: Singlet 
 CONVERGENCE THRESHOLDS:    1.00E-05 (Density)    1.00E-07 (Energy)
 INTEGRAL THRESHOLDS:       1.00E-11 (Initial)    1.00E-11 (Final)
 MAX. NUMBER OF ITERATIONS:       60
 INTERPOLATION TYPE:            DIIS
 INTERPOLATION STEPS:              2 (START)      1 (STEP)
 LEVEL SHIFTS:                  0.00 (CLOSED)  0.00 (OPEN) 



 Molecular orbitals read from record     2100.2  Type=RKS/CANONICAL (state 1.1)

 Molecular orbital dump at record        2101.2

 Direct Fock-matrix evaluation.        Authors: Roland Lindh & Martin Schuetz (1993/96)

 Integral Threshold:                  0.1D-10
 Threshold for writing integrals:     0.1D-06
 Prescreening on density matrix:        ON 
 Calculation will be performed fully direct        

 GLOBAL ERROR fehler on processor   0                                         

 RECURSIVE CALL OF FEHLER. EMERGENCY STOP.
 FILE INFORMATION MAY BE LOST

 GLOBAL ERROR fehler on processor   0                                         
