/users/is16372/.bash_login: line 1: lastpwd: command not found
========= Job started  at Fri Jun 28 17:48:31 BST 2019 ==========
Running on host grendel.chm.bris.ac.uk
Time is Fri Jun 28 17:48:31 BST 2019
Directory is /users/is16372/projects/mcr-1/molpro/mp2/mg_ion_substitution/rs
PBS job ID is
g-3-5.local
