/users/is16372/.bash_login: line 1: lastpwd: command not found
========= Job started  at Fri Jun 28 14:07:45 BST 2019 ==========
Running on host grendel.chm.bris.ac.uk
Time is Fri Jun 28 14:07:45 BST 2019
Directory is /users/is16372/projects/mcr-1/molpro/embedding/mp2-in-b3lyp/no_trunc/region_4_D465/ps
PBS job ID is
g-2-20.local
