/users/is16372/.bash_login: line 1: lastpwd: command not found
========= Job started  at Thu Aug  8 16:26:05 BST 2019 ==========
Running on host grendel.chm.bris.ac.uk
Time is Thu Aug 8 16:26:05 BST 2019
Directory is /users/is16372/projects/mcr-1/molpro/mp2/ion_substitutions/lattice_point_charges/+1_charge/ps
PBS job ID is
g-2-20.local
