/users/is16372/.bash_login: line 1: lastpwd: command not found
========= Job started  at Fri Jun 28 17:40:50 BST 2019 ==========
Running on host grendel.chm.bris.ac.uk
Time is Fri Jun 28 17:40:50 BST 2019
Directory is /users/is16372/projects/mcr-1/molpro/embedding/mg_ion_substitution/mp2-in-bhlyp/no_trunc/region_4/rs
PBS job ID is
g-0-4.local
