  C1       3.138380   -0.218260    4.024610
  C2       3.002000   -1.746140    3.971550
  C3       1.753730   -2.248670    3.215110
  C4       1.827200   -2.042210    1.703380
  O5       2.688870   -2.664560    1.042620
  O6       0.964110   -1.226960    1.194720
  C7       2.420120   -1.050030   -3.818560
  C8       2.914290   -2.055580   -2.782540
  C9       4.378890   -1.852400   -2.409510
 O10       2.072240   -1.971400   -1.597770
 P11      -1.101350   -1.967450   -2.168980
 O12      -0.912290   -3.081790   -1.006030
 O13      -0.600550   -0.613350   -1.623620
 O14      -0.703620   -2.450300   -3.526790
 C15      -2.391040   -2.199110    5.153880
 C16      -2.105730   -1.009870    4.219920
 C17      -2.724470   -1.180930    2.871610
 C18      -2.166880   -1.401940    1.639410
 N19      -4.100360   -1.188220    2.671720
 C20      -4.374320   -1.399530    1.379100
 N21      -3.211570   -1.531950    0.741690
 C22       5.513160    2.646870   -0.063550
 C23       4.544980    2.142000   -1.125670
 C24       3.471010    1.214900   -0.576590
 O25       2.492580    0.963910   -1.381890
 O26       3.570320    0.725570    0.567730
 C27       2.731130    5.298780    0.133790
 C28       1.232890    5.155060    0.467040
 C29       0.844800    3.726110    0.675430
 C30       0.392930    2.764640   -0.192480
 N31       1.043590    3.054130    1.874690
 C32       0.736970    1.749110    1.693040
 N33       0.338230    1.533070    0.444050
 C34      -5.094570    4.774070   -1.523110
 C35      -5.441480    3.275460   -1.518640
 C36      -4.293000    2.447210   -1.048450
 C37      -3.465560    1.572320   -1.700820
 N38      -3.793210    2.533170    0.245980
 C39      -2.709330    1.757490    0.372060
 N40      -2.499970    1.166500   -0.801150
Zn41       1.146570   -0.279420   -0.581420
 H42       4.015800    0.073600    4.612950
 H43       2.254880    0.237460    4.492220
 H44       3.249920    0.205890    3.020670
 H45       3.896380   -2.183600    3.507410
 H46       2.954250   -2.141380    4.996010
 H47       0.855120   -1.754760    3.605770
 H48       1.648870   -3.329040    3.389000
 H49       2.974240   -1.197360   -4.753610
 H50       2.578990   -0.028110   -3.466100
 H51       1.355840   -1.204910   -4.016040
 H52       2.777470   -3.074780   -3.180530
 H53       4.539890   -0.843250   -2.015750
 H54       5.013380   -1.987640   -3.294220
 H55       4.696960   -2.577380   -1.649260
 H56      -1.915890   -2.036570    6.127630
 H57      -1.996700   -3.128510    4.727250
 H58      -3.467640   -2.328050    5.319410
 H59      -1.024250   -0.894550    4.077640
 H60      -2.473640   -0.078640    4.675780
 H61      -1.128080   -1.462240    1.340300
 H62      -3.111620   -1.672280   -0.276220
 H63      -5.360360   -1.453700    0.931500
 H64       6.263470    3.312130   -0.508470
 H65       6.036330    1.815060    0.419460
 H66       4.985540    3.205590    0.717380
 H67       4.050680    2.972930   -1.646110
 H68       5.083590    1.578260   -1.904220
 H69       2.999040    6.354100    0.002500
 H70       2.972180    4.762060   -0.789660
 H71       3.352830    4.884440    0.935790
 H72       0.632260    5.564690   -0.355760
 H73       0.990740    5.744860    1.363010
 H74       0.146210    2.867760   -1.241130
 H75       0.841540    0.988530    2.453930
 H76      -5.948120    5.360930   -1.880550
 H77      -4.239410    4.972120   -2.179350
 H78      -4.840620    5.127120   -0.516100
 H79      -6.317710    3.094450   -0.878640
 H80      -5.708610    2.944250   -2.529950
 H81      -3.477570    1.212160   -2.720710
 H82      -1.723190    0.506160   -1.020330
 H83      -2.109110    1.629300    1.262470
 O84      -2.739860   -1.746040   -2.060040
 C85      -3.587030   -2.733660   -2.691150
 H86      -3.368020   -2.783750   -3.761240
 H87      -3.433300   -3.716430   -2.230150
 H88      -4.615890   -2.401980   -2.531540
 C89      -0.075570   -4.248370   -1.159340
 H90      -0.664280   -5.110640   -0.833120
 H91       0.227260   -4.371760   -2.201710
 H92       0.805600   -4.127180   -0.525880
 H93       2.500060   -2.438830   -0.833900
 H94       1.420440    3.471250    2.748010
 H95      -4.820500   -1.070610    3.420340
 H96      -4.184300    3.135650    1.003690
