/users/is16372/.bash_login: line 1: lastpwd: command not found
========= Job started  at Fri Jul 12 16:57:07 BST 2019 ==========
Running on host grendel.chm.bris.ac.uk
Time is Fri Jul 12 16:57:07 BST 2019
Directory is /users/is16372/projects/mcr-1/molpro/embedding/mp2-in-bhlyp/inc_grid/no_trunc/region_1_Zn_H466_D465/rs
PBS job ID is
g-0-3.local
