
 Primary working directories    : /mnt/storage/scratch/is16372/2176604/molpro.1g4JauiIVB
 Secondary working directories  : /mnt/storage/scratch/is16372/2176604/molpro.1g4JauiIVB
 Wavefunction directory         : /mnt/storage/home/is16372/projects/mcr-1/molpro/dft/inc_grid_tests/default_grid/ts/
 Main file repository           : /mnt/storage/scratch/is16372/2176604/molpro.1g4JauiIVB/

 id        : uob

 Nodes                   nprocs
 compute068.bc4.acrc.priv    1

 Using customized tuning parameters: mindgm=1; mindgv=20; mindgc=4; mindgr=1; noblas=0; minvec=7
 default implementation of scratch files=df  


 Variables initialized (924), CPU time= 0.00 sec
 memory,350,mw
 gdirect
 set,charge=1
 geomtyp=xyz
 noorient
 geometry={
   C1       3.373290    0.211660    3.771240
   C2       3.789110   -1.233860    3.474600
   C3       2.643430   -2.129710    2.948180
   C4       2.169740   -1.696850    1.572370
   O5       2.765540   -2.115660    0.548280
   O6       1.172640   -0.880420    1.539650
   C7       2.186860   -1.083900   -3.951520
   C8       2.449450   -2.286820   -3.053060
   C9       3.902300   -2.392570   -2.609570
  O10       1.607290   -2.221600   -1.862570
  P11      -0.442510   -2.328180   -1.789520
  O12      -0.242700   -3.390330   -0.588820
  O13      -0.499030   -0.889090   -1.245540
  O14      -0.502020   -2.784560   -3.210860
  C15      -1.963320   -1.961450    5.374960
  C16      -1.804330   -0.864830    4.306240
  C17      -2.460010   -1.218010    3.009710
  C18      -1.935160   -1.630380    1.807460
  N19      -3.834570   -1.248890    2.828180
  C20      -4.095100   -1.662370    1.563500
  N21      -2.960970   -1.899460    0.918370
  C22       5.327870    2.955380   -0.612080
  C23       4.279670    2.180110   -1.406690
  C24       3.189340    1.550580   -0.548520
  O25       2.308190    0.857700   -1.207840
  O26       3.168450    1.705220    0.685490
  C27       2.434270    5.480600   -0.363760
  C28       0.923670    5.460490   -0.050720
  C29       0.481690    4.101810    0.389700
  C30       0.088710    2.999980   -0.324290
  N31       0.583480    3.658890    1.701110
  C32       0.291050    2.344090    1.742320
  N33      -0.018220    1.903450    0.523340
  C34      -5.446300    4.498540   -1.455550
  C35      -5.629170    3.023860   -1.852590
  C36      -4.488050    2.156940   -1.429840
  C37      -3.616420    1.381580   -2.146580
  N38      -4.104230    2.010610   -0.100670
  C39      -3.054090    1.186290   -0.011380
  N40      -2.745290    0.796320   -1.246130
 Zn41       0.826190    0.132180   -0.124030
  H42       4.211520    0.772290    4.201430
  H43       2.545360    0.238860    4.492290
  H44       3.054080    0.727700    2.861750
  H45       4.611000   -1.242740    2.744310
  H46       4.177690   -1.701180    4.390170
  H47       1.798080   -2.092790    3.647820
  H48       2.999230   -3.165080    2.880590
  H49       2.781380   -1.178520   -4.869020
  H50       2.464980   -0.158580   -3.438170
  H51       1.129750   -1.036470   -4.229060
  H52       2.144040   -3.207960   -3.567720
  H53       4.210630   -1.487460   -2.071750
  H54       4.545330   -2.506600   -3.490000
  H55       4.055310   -3.258580   -1.955100
  H56      -1.462520   -1.666940    6.304520
  H57      -1.523140   -2.903820    5.028660
  H58      -3.020910   -2.143980    5.601950
  H59      -0.738230   -0.695480    4.104530
  H60      -2.212920    0.083670    4.686260
  H61      -0.897200   -1.733280    1.530010
  H62      -2.641500   -2.221470   -0.531490
  H63      -5.095490   -1.771450    1.159650
  H64       6.078710    3.385180   -1.286120
  H65       5.843000    2.302020    0.100890
  H66       4.870290    3.771530   -0.044330
  H67       3.783370    2.830580   -2.142670
  H68       4.745460    1.373370   -1.992180
  H69       2.751520    6.483600   -0.673210
  H70       2.667280    4.777500   -1.170530
  H71       3.019880    5.189470    0.515690
  H72       0.356670    5.743750   -0.947140
  H73       0.689030    6.202630    0.725350
  H74      -0.079140    2.905600   -1.389300
  H75       0.342920    1.735550    2.637540
  H76      -6.303930    5.089000   -1.796020
  H77      -4.538290    4.915170   -1.906610
  H78      -5.370180    4.613920   -0.367220
  H79      -6.561180    2.635200   -1.414820
  H80      -5.729920    2.934570   -2.941600
  H81      -3.546840    1.197640   -3.210360
  H82      -1.970600    0.142310   -1.471620
  H83      -2.537230    0.897060    0.893670
  O84      -2.377260   -2.444290   -1.534350
  C85      -3.019600   -3.680160   -1.914300
  H86      -2.824010   -3.841390   -2.974710
  H87      -2.623080   -4.512400   -1.322310
  H88      -4.093390   -3.568730   -1.737650
  C89       0.405110   -4.662100   -0.822460
  H90       0.277470   -5.227330    0.103050
  H91      -0.073150   -5.187100   -1.655240
  H92       1.465910   -4.505660   -1.031510
  H93       2.098410   -2.080170   -0.996720
  H94       0.889030    4.235380    2.511370
  H95      -4.546950   -1.024940    3.551010
  H96      -4.560010    2.478220    0.714080
 }
 
 
 basis={
 default,6-31G(d)
                                                                                 !i.e. C,N,H=6-31G(d)
 O=6-31+G(d,p)
 P=6-31+G(d,p)
 
                                                                                 ! ZINC       (8s,7p,6d) -&gt; [6s,5p,3d]
                                                                                 ! ZINC       (8s,7p,6d) -&gt; [6s,5p,3d]
 s, ZN , 30.3241270, 16.3166820, 11.4081480, 2.5694920, 1.0625950, 0.1515530, 0.0527470, 0.0100000
 c, 1.3, 0.2191430, -0.2325560, -0.9546850
 c, 4.4, 1
 c, 5.5, 1
 c, 6.6, 1
 c, 7.7, 1
 c, 8.8, 1
 p, ZN , 111.8249800, 19.1319100, 5.4688380, 2.5056750, 0.9418680, 0.1711310, 0.0499860
 c, 1.2, 0.0232770, -1.0095390
 c, 3.4, 0.3201510, 0.7180850
 c, 5.5, 1
 c, 6.6, 1
 c, 7.7, 1
 d, ZN , 44.6456290, 13.4383770, 4.6820000, 1.6032110, 0.4827660, 0.1100000
 c, 1.4, 0.0472490, 0.2189260, 0.4525120, 0.5185760
 c, 5.5, 1
 c, 6.6, 1
 
                                                                                 ! Effective core Potentials
                                                                                 ! Zn
 ECP, zn, 10, 3 ;
 1;                                                                              !  f-ul potential
 2,1.000000000,0.000000000;
 2;                                                                              !  s-ul potential
 2,34.150000000,399.987282000;
 2,14.590000000,85.485655000;
 2;                                                                              !  p-ul potential
 2,39.780000000,277.148960000;
 2,14.950000000,69.052205000;
 2;                                                                              !  d-ul potential
 2,43.800000000,-34.149349000;
 2,14.980000000,-3.291831000;
 
                                                       !  Stuttgart RSC 1997 ECP  EMSL  Basis Set Exchange Library   5/3/19 3:40 AM
                                                                                 ! Elements                             References
                                                    ! K      : A. Bergner, M. Dolg, W. Kuechle, H. Stoll, H. Preuss, Mol. Phys. 80,
                                                                                 ! 1431 (1993).
                                                    ! Ca     : M. Kaupp, P. v. R. Schleyer, H. Stoll, H. Preuss, J. Chem. Phys. 94,
                                                                                 ! 1360 (1991).
                                                     ! Rf - Ha:  M. Dolg, H. Stoll, H. Preuss, R.M. Pitzer, J. Phys. Chem. 97, 5852
                                                                                 ! (1993).
                                                                                 !
 
 }
 
 
 $method=[pbe,b3lyp,bh-lyp,pbe0]
 
 do i=1,#method
                                                                                 ! {df-ks,$method(i)}
   {ks,$method(i)}
   e(i)=energy
 enddo
 
                                                                                 !{df-hf}
 {hf}
 
 table,method,e
 title,Functional,energy
 Commands  initialized (758), CPU time= 0.02 sec, 615 directives.
 Default parameters read. Elapsed time= 0.72 sec

 Checking input...
 Passed
1


                                         ***  PROGRAM SYSTEM MOLPRO  ***
                                       Copyright, TTI GmbH Stuttgart, 2015
                                    Version 2018.0 linked Aug 23 2018 14:58:53


 **********************************************************************************************************************************
 LABEL *                                                                                 
  64 bit serial version                                                                  DATE: 28-Jun-19          TIME: 18:52:07  
 **********************************************************************************************************************************

 SHA1:             68666188e09828386411996e6d5f04fecf6ca13a
 **********************************************************************************************************************************
 SETTING CHARGE         =         1.00000000                                  
 SETTING GEOMTYP        =    XYZ

 Variable memory set to  350000000 words,  buffer space 

 SETTING BASIS          =    USERDEF
 SETTING METHOD(1)      =    PBE
 SETTING METHOD(2)      =    B3LYP
 SETTING METHOD(3)      =    BH-LYP
 SETTING METHOD(4)      =    PBE0

 DO I                   =         1.00000000   


 Recomputing integrals since basis changed


 Using spherical harmonics

 Library entry C      S 6-31G                selected for orbital group  1
 Library entry C      P 6-31G                selected for orbital group  1
 Library entry C      D 6-31G*               selected for orbital group  1
 Library entry O      S 6-31G                selected for orbital group  2
 Library entry O      S 6-31++G              selected for orbital group  2
 Library entry O      P 6-31G                selected for orbital group  2
 Library entry O      P 6-31++G              selected for orbital group  2
 Library entry O      D 6-31G*               selected for orbital group  2
 Library entry P      S 6-31G                selected for orbital group  5
 Library entry P      S 6-31++G              selected for orbital group  5
 Library entry P      P 6-31G                selected for orbital group  5
 Library entry P      P 6-31++G              selected for orbital group  5
 Library entry P      D 6-31G*               selected for orbital group  5
 Library entry N      S 6-31G                selected for orbital group  8
 Library entry N      P 6-31G                selected for orbital group  8
 Library entry N      D 6-31G*               selected for orbital group  8
 Library entry H      S 6-31G                selected for orbital group 22


 PROGRAM * SEWARD (Integral evaluation for generally contracted gaussian basis sets)     Author: Roland Lindh, 1990

 Geometry written to block  1 of record 700


 Point group  C1  



 ATOMIC COORDINATES

 NR  ATOM    CHARGE       X              Y              Z

   1  C1      6.00    6.374594239    0.399979432    7.126610750
   2  C2      6.00    7.160380156   -2.331657476    6.566042392
   3  C3      6.00    4.995358729   -4.024568625    5.571252766
   4  C4      6.00    4.100214362   -3.206581774    2.971348666
   5  O5      8.00    5.226113187   -3.998017973    1.036099040
   6  O6      8.00    2.215968443   -1.663752675    2.909516828
   7  C7      6.00    4.132566473   -2.048274146   -7.467290576
   8  C8      6.00    4.628789656   -4.321463496   -5.769447242
   9  C9      6.00    7.374278256   -4.521302034   -4.931372603
  10  O10     8.00    3.037337903   -4.198215558   -3.519747188
  11  P11    15.00   -0.836222707   -4.399622569   -3.381702694
  12  O12     8.00   -0.458636530   -6.406795172   -1.112708537
  13  O13     8.00   -0.943030028   -1.680136600   -2.353729477
  14  O14     8.00   -0.948680309   -5.262055777   -6.067646024
  15  C15     6.00   -3.710137095   -3.706603307   10.157202330
  16  C16     6.00   -3.409689538   -1.634291844    8.137614227
  17  C17     6.00   -4.648745164   -2.301705317    5.687527614
  18  C18     6.00   -3.656922407   -3.080971679    3.415604381
  19  N19     7.00   -7.246287105   -2.360060060    5.344485631
  20  C20     6.00   -7.738617453   -3.141424018    2.954586796
  21  N21     7.00   -5.595422363   -3.589459185    1.735467781
  22  C22     6.00   10.068215127    5.584858794   -1.156663566
  23  C23     6.00    8.087404204    4.119810821   -2.658258842
  24  C24     6.00    6.026979118    2.930171534   -1.036552574
  25  O25     8.00    4.361846943    1.620818097   -2.282486802
  26  O26     8.00    5.987502739    3.222398782    1.295388361
  27  C27     6.00    4.600103613   10.356832998   -0.687406775
  28  C28     6.00    1.745483329   10.318830606   -0.095846909
  29  C29     6.00    0.910262177    7.751297515    0.736426271
  30  C30     6.00    0.167637605    5.669140579   -0.612819285
  31  N31     7.00    1.102617399    6.914300020    3.214632008
  32  C32     6.00    0.550004789    4.429688111    3.292507621
  33  N33     7.00   -0.034430810    3.596999192    0.988969270
  34  C34     6.00  -10.292015392    8.501008560   -2.750590861
  35  C35     6.00  -10.637589609    5.714267239   -3.500887721
  36  C36     6.00   -8.481185333    4.076025867   -2.702006002
  37  C37     6.00   -6.834043351    2.610807819   -4.056448304
  38  N38     7.00   -7.755870652    3.799502243   -0.190238729
  39  C39     6.00   -5.771393660    2.241763204   -0.021505083
  40  N40     7.00   -5.187846233    1.504826708   -2.354844416
  41  ZN41   20.00    1.561272827    0.249783999   -0.234382731
  42  H42     1.00    7.958619368    1.459416589    7.939552032
  43  H43     1.00    4.810033288    0.451379982    8.489197772
  44  H44     1.00    5.771374763    1.375153701    5.407923737
  45  H45     1.00    8.713527160   -2.348438244    5.185994301
  46  H46     1.00    7.894689933   -3.214764289    8.296218940
  47  H47     1.00    3.397878750   -3.954799936    6.893380752
  48  H48     1.00    5.667723285   -5.981134362    5.443526177
  49  H49     1.00    5.256046448   -2.227080032   -9.201114295
  50  H50     1.00    4.658137103   -0.299672769   -6.497199670
  51  H51     1.00    2.134918089   -1.958644436   -7.991765164
  52  H52     1.00    4.051648400   -6.062165819   -6.742013689
  53  H53     1.00    7.956937512   -2.810892021   -3.915040099
  54  H54     1.00    8.589428846   -4.736787504   -6.595144175
  55  H55     1.00    7.663425250   -6.157823755   -3.694603546
  56  H56     1.00   -2.763762252   -3.150060066   11.913816147
  57  H57     1.00   -2.878317449   -5.487424515    9.502790174
  58  H58     1.00   -5.708692547   -4.051535017   10.586151264
  59  H59     1.00   -1.395052517   -1.314266725    7.756437570
  60  H60     1.00   -4.181812736    0.158113385    8.855747949
  61  H61     1.00   -1.695462279   -3.275424497    2.891299868
  62  H62     1.00   -4.991711558   -4.197969894   -1.004370538
  63  H63     1.00   -9.629080570   -3.347555343    2.191420900
  64  H64     1.00   11.487097091    6.397063082   -2.430414563
  65  H65     1.00   11.041669746    4.350187333    0.190654469
  66  H66     1.00    9.203514247    7.127158771   -0.083771559
  67  H67     1.00    7.149533128    5.349020974   -4.049059475
  68  H68     1.00    8.967619735    2.595293168   -3.764674591
  69  H69     1.00    5.199619226   12.252228301   -1.272182524
  70  H70     1.00    5.040428698    9.028166560   -2.211981121
  71  H71     1.00    5.706746129    9.806677032    0.974512865
  72  H72     1.00    0.674008617   10.854114428   -1.789835202
  73  H73     1.00    1.302077992   11.721271952    1.370712844
  74  H74     1.00   -0.149552925    5.490788228   -2.625396505
  75  H75     1.00    0.648024883    3.279714175    4.984228243
  76  H76     1.00  -11.912701208    9.616816248   -3.393985914
  77  H77     1.00   -8.576125174    9.288325156   -3.602970726
  78  H78     1.00  -10.148169440    8.719045161   -0.693945227
  79  H79     1.00  -12.398833254    4.979806283   -2.673622316
  80  H80     1.00  -10.827979516    5.545533593   -5.558818368
  81  H81     1.00   -6.702556208    2.263211596   -6.066701161
  82  H82     1.00   -3.723894301    0.268926925   -2.780958759
  83  H83     1.00   -4.794669815    1.695197717    1.688791546
  84  O84     8.00   -4.492370327   -4.619038669   -2.899501279
  85  C85     6.00   -5.706217006   -6.954494495   -3.617502720
  86  H86     1.00   -5.336605473   -7.259175038   -5.621387200
  87  H87     1.00   -4.956902803   -8.527200164   -2.498803752
  88  H88     1.00   -7.735386021   -6.743922313   -3.283682600
  89  C89     6.00    0.765546950   -8.810092165   -1.554224148
  90  H90     1.00    0.524342308   -9.878222063    0.194736277
  91  H91     1.00   -0.138233466   -9.802198381   -3.127950270
  92  H92     1.00    2.770168423   -8.514463410   -1.949271395
  93  H93     1.00    3.965420197   -3.930951593   -1.883527823
  94  H94     1.00    1.680023217    8.003708233    4.745801497
  95  H95     1.00   -8.592490202   -1.936855894    6.710436366
  96  H96     1.00   -8.617170025    4.683157076    1.349415631

 Bond lengths in Bohr (Angstrom)

  1- 2  2.897160090   1-42  2.071814719   1-43  2.075364155   1-44  2.066088972   2- 3  2.922819244
       ( 1.533111096)       ( 1.096357134)       ( 1.098235415)       ( 1.093327200)       ( 1.546689336)

  2-45  2.077758395   2-46  2.076679893   3- 4  2.868778007   3-47  2.074808995   3-48  2.072809123
       ( 1.099502392)       ( 1.098931674)       ( 1.518091944)       ( 1.097941637)       ( 1.096883351)

  4- 5  2.374702200   4- 6  2.436088564   6-41  3.738228643   7- 8  2.880329713   7-49  2.073722134
       ( 1.256638287)       ( 1.289122552)       ( 1.978185407)       ( 1.524204844)       ( 1.097366495)

  7-50  2.067584975   7-51  2.067294402   8- 9  2.877501033   8-10  2.758452296   8-52  2.075818417
       ( 1.094118851)       ( 1.093965086)       ( 1.522707971)       ( 1.459710092)       ( 1.098475800)

  9-53  2.073143984   9-54  2.071511715   9-55  2.071571150  10-11  3.881248880  10-93  1.899994890
       ( 1.097060551)       ( 1.096196792)       ( 1.096228243)       ( 2.053868457)       ( 1.005433997)

 11-12  3.052809799  11-13  2.909250878  11-14  2.823248009  11-84  3.694330392  12-89  2.733019881
       ( 1.615477375)       ( 1.539509266)       ( 1.493998507)       ( 1.954955453)       ( 1.446251838)

 13-41  3.806278621  15-16  2.909206016  15-56  2.071486863  15-57  2.071594403  15-58  2.072968636
       ( 2.014195904)       ( 1.539485525)       ( 1.096183641)       ( 1.096240548)       ( 1.096967761)

 16-17  2.825530746  16-59  2.075204580  16-60  2.079568893  17-18  2.598577230  17-19  2.620745546
       ( 1.495206479)       ( 1.098150972)       ( 1.100460467)       ( 1.375107851)       ( 1.386838819)

 18-21  2.615186536  18-61  2.039615884  19-20  2.562134900  19-95  1.963971984  20-21  2.506047062
       ( 1.383897117)       ( 1.079318245)       ( 1.355823401)       ( 1.039289217)       ( 1.326142995)

 20-63  2.049088360  22-23  2.885267033  22-64  2.072521034  22-65  2.070578035  22-66  2.068210359
       ( 1.084330863)       ( 1.526817561)       ( 1.096730900)       ( 1.095702709)       ( 1.094449789)

 23-24  2.879327072  23-67  2.079636063  23-68  2.079203999  24-25  2.457523893  24-26  2.350511364
       ( 1.523674269)       ( 1.100496011)       ( 1.100267373)       ( 1.300465639)       ( 1.243837048)

 25-41  3.730640718  27-28  2.915517831  27-69  2.072173980  27-70  2.069678144  27-71  2.071064011
       ( 1.974170050)       ( 1.542825594)       ( 1.096547247)       ( 1.095226508)       ( 1.095959877)

 28-29  2.825331696  28-72  2.074652541  28-73  2.077076680  29-30  2.589851797  29-31  2.622797936
       ( 1.495101147)       ( 1.097858845)       ( 1.099141644)       ( 1.370490551)       ( 1.387924897)

 30-33  2.626847569  30-74  2.045210615  31-32  2.546515589  31-94  1.965880907  32-33  2.518178854
       ( 1.390067870)       ( 1.082278849)       ( 1.347558017)       ( 1.040299375)       ( 1.332562863)

 32-75  2.047917638  33-41  3.904703543  34-35  2.906594934  34-76  2.070170646  34-77  2.071400033
       ( 1.083711344)       ( 2.066280131)       ( 1.538103800)       ( 1.095487129)       ( 1.096137692)

 34-78  2.073167354  35-36  2.823495386  35-79  2.079850986  35-80  2.073595406  36-37  2.587364410
       ( 1.097072918)       ( 1.494129413)       ( 1.100609744)       ( 1.097299433)       ( 1.369174282)

 36-38  2.628977279  37-40  2.613161872  37-81  2.044316157  38-39  2.528472047  38-96  1.973123925
       ( 1.391194864)       ( 1.382825711)       ( 1.081805522)       ( 1.338009786)       ( 1.044132215)

 39-40  2.515566624  39-83  2.043975993  40-82  1.962696351  62-84  2.004535134  84-85  2.728241878
       ( 1.331180530)       ( 1.081625515)       ( 1.038614181)       ( 1.060754312)       ( 1.443723427)

 85-86  2.060338789  85-87  2.070353178  85-88  2.067196993  89-90  2.063478550  89-91  2.068261998
       ( 1.090284334)       ( 1.095583720)       ( 1.093913539)       ( 1.091945824)       ( 1.094477115)

 89-92  2.064452939
       ( 1.092461448)

 Bond angles

  1- 2- 3  114.27157342   1- 2-45  109.80834571   1- 2-46  109.61232861   2- 1-42  110.52980876

  2- 1-43  110.78473656   2- 1-44  111.30037057   2- 3- 4  111.98923419   2- 3-47  109.50926986

  2- 3-48  109.11238320   3- 2-45  108.84225659   3- 2-46  107.40821952   3- 4- 5  119.70898672

  3- 4- 6  116.41891790   4- 3-47  109.12756284   4- 3-48  108.33143902   4- 6-41  118.75044074

  5- 4- 6  123.85602772   6-41-13  108.90280449   6-41-25  121.22226726   6-41-33  104.29294837

  7- 8- 9  113.00846019   7- 8-10  110.24823066   7- 8-52  109.73851120   8- 7-49  109.35734299

  8- 7-50  110.30948143   8- 7-51  110.50199556   8- 9-53  110.71022698   8- 9-54  109.45036191

  8- 9-55  111.21824250   8-10-11  127.04789027   8-10-93  115.26545124   9- 8-10  108.42341342

  9- 8-52  110.09000003  10- 8-52  105.02091116  10-11-12   86.39449968  10-11-13   90.04012260

 10-11-14   91.24733353  10-11-84  174.51933857  11-10-93  117.65640796  11-12-89  120.89676213

 11-13-41  130.28216846  11-84-62  110.94404771  11-84-85  117.18156635  12-11-13  110.88627457

 12-11-14  120.74262829  12-11-84   89.21757598  12-89-90  105.42055194  12-89-91  110.42615934

 12-89-92  109.87272122  13-11-14  128.33435175  13-11-84   88.45652884  13-41-25  111.99769167

 13-41-33  109.89011122  14-11-84   93.81946118  15-16-17  112.85602410  15-16-59  109.73219654

 15-16-60  109.62672825  16-15-56  110.49478229  16-15-57  110.58388008  16-15-58  111.20734231

 16-17-18  131.42068779  16-17-19  123.60060792  17-16-59  107.63032919  17-16-60  109.88994373

 17-18-21  109.69928655  17-18-61  128.34465126  17-19-20  108.62308040  17-19-95  125.70022809

 18-17-19  104.90290803  18-21-20  106.65600241  19-20-21  110.11814034  19-20-63  123.73581055

 20-19-95  125.64431609  21-18-61  121.94850937  21-20-63  126.14555479  22-23-24  114.07572942

 22-23-67  110.94882662  22-23-68  111.01503145  23-22-64  110.43490115  23-22-65  111.01594205

 23-22-66  111.19843066  23-24-25  114.79955210  23-24-26  121.29373464  24-23-67  107.34718018

 24-23-68  107.44015639  24-25-41  115.22132802  25-24-26  123.90669769  25-41-33   99.42438219

 27-28-29  111.16523195  27-28-72  109.67215636  27-28-73  110.08888800  28-27-69  110.63760840

 28-27-70  110.45063789  28-27-71  110.90962930  28-29-30  131.44570571  28-29-31  123.13820605

 29-28-72  108.80325201  29-28-73  110.02881645  29-30-33  109.79010886  29-30-74  128.84695202

 29-31-32  108.92597756  29-31-94  125.49482312  30-29-31  104.87539192  30-33-32  106.20672676

 30-33-41  116.98308885  31-32-33  110.18317737  31-32-75  124.24677529  32-31-94  125.49316228

 32-33-41  118.37318272  33-30-74  121.28706823  33-32-75  125.52676315  34-35-36  113.10715943

 34-35-79  109.66841055  34-35-80  110.18908432  35-34-76  110.08795247  35-34-77  110.89650868

 35-34-78  111.41756871  35-36-37  131.81001320  35-36-38  122.82424945  36-35-79  109.22674975

 36-35-80  107.68074550  36-37-40  107.44817788  36-37-81  130.69214808  36-38-39  110.18753192

 36-38-96  125.30905778  37-36-38  105.36361400  37-40-39  109.50407142  37-40-82  126.51396225

 38-39-40  107.49647802  38-39-83  126.55728089  39-38-96  124.50204319  39-40-82  123.97809556

 40-37-81  121.85932603  40-39-83  125.94085347  42- 1-43  107.82415001  42- 1-44  107.95506455

 43- 1-44  108.32249625  45- 2-46  106.59608243  47- 3-48  108.70860792  49- 7-50  109.11669323

 49- 7-51  108.36918759  50- 7-51  109.14734434  53- 9-54  108.34273933  53- 9-55  108.65429994

 54- 9-55  108.38814940  56-15-57  108.38454606  56-15-58  108.04063518  57-15-58  108.02606989

 59-16-60  106.91574697  62-84-85  108.52957417  64-22-65  108.16357330  64-22-66  108.22881566

 65-22-66  107.67845259  67-23-68  105.57072022  69-27-70  108.52813870  69-27-71  108.35108424

 70-27-71  107.87190003  72-28-73  106.98111291  76-34-77  108.40643717  76-34-78  107.81530594

 77-34-78  108.10560822  79-35-80  106.75387751  84-85-86  107.62198717  84-85-87  110.30610918

 84-85-88  107.88079225  86-85-87  110.38189403  86-85-88  110.37827381  87-85-88  110.20559405

 90-89-91  110.21461726  90-89-92  110.47628702  91-89-92  110.32833816

 NUCLEAR CHARGE:                  363
 NUMBER OF PRIMITIVE AOS:        1541
 NUMBER OF SYMMETRY AOS:         1492
 NUMBER OF CONTRACTIONS:          786   (  786A   )
 NUMBER OF CORE ORBITALS:          51   (   51A   )
 NUMBER OF VALENCE ORBITALS:      230   (  230A   )


 NUCLEAR REPULSION ENERGY 7309.68614862


 Eigenvalues of metric

         1 0.979E-04 0.228E-03 0.346E-03 0.475E-03 0.589E-03 0.796E-03 0.909E-03 0.113E-02


 OPERATOR DM      FOR CENTER  0  COORDINATES:    0.000000    0.000000    0.000000


 **********************************************************************************************************************************
 DATASETS  * FILE   NREC   LENGTH (MB)   RECORD NAMES
              1      19       56.75       500      610      700      900      950      970     1000      129      960     1100   
                                          VAR    BASINP    GEOM    SYMINP    ZMAT    AOBASIS   BASIS     P2S    ABASIS      S 
                                         1400     1410     1420     1200     1210     1080     1600     1650     1700   
                                           T        V       ECP      H0       H01     AOSYM     SMH    MOLCAS    OPER   

 PROGRAMS   *        TOTAL       INT
 CPU TIMES  *         8.90      8.70
 REAL TIME  *        29.23 SEC
 DISK USED  *        58.94 MB
 **********************************************************************************************************************************

 Density functional group PBE=PBEX+PBEC
 Functional: PBEX(Automatically generated (new) PBEX)                          Gradient terms: 1
 Functional: PBEC(Automatically generated (new) PBEC)                          Gradient terms: 1
 Use libxcgrid:  F
 Use grid at  1800.2

 Functional: PBEX                      Factor:  1.0000
 Functional: PBEC                      Factor:  1.0000

 Generated new metagrid on record  1800.2 with target accuracy 1.0D-06 and 388102 points in CPU time   12.9
 Computed new grid on record 1800.1 in CPU time   24.5
  635055 words reserved for DFT integration

 PROGRAM * RKS-SCF (Restricted closed shell Kohn-Sham)     Authors: W. Meyer, H.-J. Werner, P.J. Knowles, 1993

 NUMBER OF ELECTRONS:     181+  181-    SPACE SYMMETRY=1    SPIN SYMMETRY: Singlet 
 CONVERGENCE THRESHOLDS:    1.00E-05 (Density)    1.00E-06 (Energy)
 INTEGRAL THRESHOLDS:       1.00E-11 (Initial)    1.00E-11 (Final)
 MAX. NUMBER OF ITERATIONS:       60
 INTERPOLATION TYPE:            DIIS
 INTERPOLATION STEPS:              2 (START)      1 (STEP)
 LEVEL SHIFTS:                  0.00 (CLOSED)  0.00 (OPEN) 



 Use fine grid record 1800.2 for energy threshold  1.0D-06
 Orbital guess generated from atomic densities. Full valence occupancy:  182

 Molecular orbital dump at record        2100.2

 Initial occupancy: 181

 Direct Fock-matrix evaluation.        Authors: Roland Lindh & Martin Schuetz (1993/96)

 Integral Threshold:                  0.1D-10
 Threshold for writing integrals:     0.1D-06
 Prescreening on density matrix:        ON 
 Calculation will be performed fully direct        

 ITERATION   DDIFF            GRAD            ENERGY        2-EL.EN.            DIPOLE MOMENTS         DIIS   CPU(IT)  CPU(TOT)
    1      0.000D+00      0.000D+00     -2629.65854861  17350.938133  -10.18583    3.91873    4.49337    0   1098.0   1197.1     start
    2      0.000D+00      0.424D-02     -2620.46816539  17045.239298   48.11224   -1.03802   -4.39779    1   1063.3   2260.3     diag
    3      0.353D-01      0.873D-02     -2623.23139206  17271.753088  -63.29697    6.72935   -0.79954    2    996.2   3256.5     diag
    4      0.320D-01      0.614D-02     -2631.29769565  17232.050277   -8.77856    3.29829    3.47544    3    937.7   4194.2     diag
    5      0.188D-01      0.154D-02     -2631.45563225  17246.960500   -9.23826    3.52901    2.39413    4    845.3   5039.5     diag
    6      0.223D-02      0.850D-03     -2631.50557444  17240.763801   -8.46609    3.23619    1.79743    5    807.3   5846.8     diag
    7      0.111D-02      0.538D-03     -2631.52861487  17242.189147   -8.20670    3.42925    2.49072    6    755.4   6602.1     diag
    8      0.560D-03      0.225D-03     -2631.53211047  17241.310099   -8.00089    3.30507    2.05687    7    755.6   7357.7     diag
    9      0.475D-03      0.161D-03     -2631.53438810  17241.069872   -7.67387    3.43408    2.46876    8    750.3   8108.1     diag
   10      0.304D-03      0.772D-04     -2631.53485012  17241.140845   -7.61252    3.35401    2.21819    9    698.8   8806.9     orth
   11      0.130D-03      0.364D-04     -2631.53495830  17240.811621   -7.62774    3.37876    2.26332    9    642.7   9449.6     diag
   12      0.447D-04      0.131D-04     -2631.53497022  17240.916167   -7.62326    3.37552    2.27188    9    584.0  10033.5     diag
   13      0.183D-04      0.617D-05     -2631.53497287  17240.895030   -7.62870    3.37434    2.26611    9    532.3  10565.8     diag
   14      0.870D-05      0.326D-05     -2631.53497376  17240.911268   -7.62776    3.37620    2.26910    9    482.8  11048.6     diag
   15      0.393D-05      0.578D-06     -2631.53497362  17240.908374   -7.62701    3.37539    2.26913    0    452.3  11500.9     orth

 Final occupancy: 181

 !RKS STATE  1.1 Energy             -2631.534973621421
 Nuclear energy                      7309.68614862
 One-electron energy               -18235.43793492
 Two-electron energy                 8620.45418691
 Density functional                  -326.23737423     PBEX=-313.72748594 PBEC= -12.50988830
 Virial quotient                       -1.03448132
 !RKS STATE  1.1 Dipole moment         -7.62700614     3.37538924     2.26913449
 Dipole moment /Debye                 -19.38464627     8.57882178     5.76718685

 Orbital energies:

         1.1          2.1          3.1          4.1          5.1          6.1          7.1          8.1          9.1         10.1
    -76.528956   -18.887519   -18.868442   -18.850307   -18.848012   -18.824517   -18.803948   -18.801026   -18.792606   -18.777532

        11.1         12.1         13.1         14.1         15.1         16.1         17.1         18.1         19.1         20.1
    -14.223412   -14.201421   -14.179722   -14.165809   -14.118598   -14.117720   -10.118087   -10.083045   -10.068923   -10.067787

        21.1         22.1         23.1         24.1         25.1         26.1         27.1         28.1         29.1         30.1
    -10.056988   -10.053871   -10.039749   -10.033738   -10.032138   -10.030143   -10.014589   -10.010213   -10.009527   -10.004750

        31.1         32.1         33.1         34.1         35.1         36.1         37.1         38.1         39.1         40.1
    -10.003956   -10.002349    -9.998689    -9.994581    -9.975249    -9.959901    -9.943719    -9.939222    -9.936435    -9.927298

        41.1         42.1         43.1         44.1         45.1         46.1         47.1         48.1         49.1         50.1
     -9.918174    -9.917822    -9.914769    -6.498146    -4.878154    -4.719371    -4.716371    -4.714411    -3.113626    -3.111939

        51.1         52.1         53.1         54.1         55.1         56.1         57.1         58.1         59.1         60.1
     -3.109677    -1.113132    -1.062293    -1.054222    -1.043802    -1.028182    -1.024658    -1.005341    -1.000007    -0.985849

        61.1         62.1         63.1         64.1         65.1         66.1         67.1         68.1         69.1         70.1
     -0.979081    -0.938498    -0.932220    -0.917966    -0.917093    -0.908131    -0.868380    -0.826454    -0.816923    -0.808112

        71.1         72.1         73.1         74.1         75.1         76.1         77.1         78.1         79.1         80.1
     -0.764483    -0.763186    -0.753241    -0.752658    -0.747680    -0.737591    -0.718533    -0.715393    -0.704619    -0.693639

        81.1         82.1         83.1         84.1         85.1         86.1         87.1         88.1         89.1         90.1
     -0.680353    -0.679982    -0.669118    -0.668742    -0.667377    -0.660150    -0.647239    -0.638585    -0.637543    -0.620130

        91.1         92.1         93.1         94.1         95.1         96.1         97.1         98.1         99.1        100.1
     -0.605247    -0.600288    -0.594084    -0.589499    -0.586882    -0.583386    -0.566147    -0.562220    -0.558029    -0.540573

       101.1        102.1        103.1        104.1        105.1        106.1        107.1        108.1        109.1        110.1
     -0.537002    -0.535389    -0.525558    -0.522099    -0.520711    -0.516722    -0.513557    -0.513367    -0.509241    -0.507813

       111.1        112.1        113.1        114.1        115.1        116.1        117.1        118.1        119.1        120.1
     -0.504201    -0.490296    -0.485867    -0.484366    -0.482579    -0.481523    -0.480264    -0.478471    -0.478063    -0.475033

       121.1        122.1        123.1        124.1        125.1        126.1        127.1        128.1        129.1        130.1
     -0.471790    -0.466459    -0.464299    -0.464009    -0.461183    -0.460747    -0.458154    -0.454783    -0.453610    -0.449282

       131.1        132.1        133.1        134.1        135.1        136.1        137.1        138.1        139.1        140.1
     -0.448151    -0.439944    -0.439452    -0.438577    -0.435315    -0.433195    -0.430319    -0.424567    -0.423721    -0.422403

       141.1        142.1        143.1        144.1        145.1        146.1        147.1        148.1        149.1        150.1
     -0.418850    -0.415775    -0.411077    -0.405276    -0.403002    -0.400500    -0.399116    -0.394533    -0.392833    -0.390694

       151.1        152.1        153.1        154.1        155.1        156.1        157.1        158.1        159.1        160.1
     -0.389502    -0.385746    -0.381152    -0.375768    -0.374419    -0.372800    -0.367700    -0.363545    -0.362994    -0.359159

       161.1        162.1        163.1        164.1        165.1        166.1        167.1        168.1        169.1        170.1
     -0.357705    -0.353832    -0.352459    -0.349657    -0.348353    -0.344462    -0.339339    -0.338831    -0.338357    -0.319665

       171.1        172.1        173.1        174.1        175.1        176.1        177.1        178.1        179.1        180.1
     -0.313303    -0.310911    -0.307646    -0.300570    -0.299216    -0.296413    -0.292995    -0.280132    -0.278356    -0.269225

       181.1        182.1        183.1
     -0.245200    -0.173674    -0.136885


 HOMO    181.1    -0.245200 =      -6.6722eV
 LUMO    182.1    -0.173674 =      -4.7259eV
 LUMO-HOMO         0.071526 =       1.9463eV


 **********************************************************************************************************************************
 DATASETS  * FILE   NREC   LENGTH (MB)   RECORD NAMES
              1      20       69.17       500      610      700      900      950      970     1000      129      960     1100   
                                          VAR    BASINP    GEOM    SYMINP    ZMAT    AOBASIS   BASIS     P2S    ABASIS      S 
                                         1400     1410     1420     1200     1210     1080     1600     1650     1700     1800   
                                           T        V       ECP      H0       H01     AOSYM     SMH    MOLCAS    OPER     GRID   

              2       5       16.97       700     1000      520     1800     2100   
                                         GEOM     BASIS   MCVARS    GRID      RKS  

 PROGRAMS   *        TOTAL    KS-SCF       INT
 CPU TIMES  *     11534.63  11525.73      8.70
 REAL TIME  *     69308.08 SEC
 DISK USED  *       138.33 MB
 **********************************************************************************************************************************
 SETTING E(1)           =     -2631.53497362  AU                              

 DO I                   =         2.00000000   

 Density functional group B3LYP=B88+DIRAC+LYP+VWN5
 Functional: B88(Automatically generated (new) B88)                            Gradient terms: 1
 Functional: DIRAC(Automatically generated (new) DIRAC)                        Gradient terms: 0
 Functional: LYP(Automatically generated (new) LYP)                            Gradient terms: 1
 Functional: VWN5(Automatically generated (new) VWN5)                          Gradient terms: 0
 Use libxcgrid:  F
 Use grid at  1800.2


 Exact exchange will be calculated, factor:  0.2000

 Functional: B88                       Factor:  0.7200
 Functional: DIRAC                     Factor:  0.0800
 Functional: LYP                       Factor:  0.8100
 Functional: VWN5                      Factor:  0.1900

  635055 words reserved for DFT integration

 PROGRAM * RKS-SCF (Restricted closed shell Kohn-Sham)     Authors: W. Meyer, H.-J. Werner, P.J. Knowles, 1993

 NUMBER OF ELECTRONS:     181+  181-    SPACE SYMMETRY=1    SPIN SYMMETRY: Singlet 
 CONVERGENCE THRESHOLDS:    1.00E-05 (Density)    1.00E-06 (Energy)
 INTEGRAL THRESHOLDS:       1.00E-11 (Initial)    1.00E-11 (Final)
 MAX. NUMBER OF ITERATIONS:       60
 INTERPOLATION TYPE:            DIIS
 INTERPOLATION STEPS:              2 (START)      1 (STEP)
 LEVEL SHIFTS:                  0.00 (CLOSED)  0.00 (OPEN) 



 Use fine grid record 1800.2 for energy threshold  1.0D-06
 Molecular orbitals read from record     2100.2  Type=RKS/CANONICAL (state 1.1)

 Molecular orbital dump at record        2100.2

 Direct Fock-matrix evaluation.        Authors: Roland Lindh & Martin Schuetz (1993/96)

 Integral Threshold:                  0.1D-10
 Threshold for writing integrals:     0.1D-06
 Prescreening on density matrix:        ON 
 Calculation will be performed fully direct        

 ITERATION   DDIFF            GRAD            ENERGY        2-EL.EN.            DIPOLE MOMENTS         DIIS   CPU(IT)  CPU(TOT)
    1      0.000D+00      0.000D+00     -2632.87863329  17115.232513   -7.62701    3.37539    2.26913    0   1049.3   1049.4     start
    2      0.000D+00      0.412D-03     -2632.89165506  17118.280747   -7.71164    3.31440    2.39382    1    893.3   1942.8     diag
    3      0.129D-02      0.309D-03     -2632.89587043  17113.937562   -7.73603    3.31761    2.21795    2    789.8   2732.5     diag
    4      0.444D-03      0.193D-03     -2632.89862413  17116.470927   -7.72263    3.34442    2.33813    3    756.3   3488.8     diag
    5      0.193D-03      0.384D-04     -2632.89874606  17116.134993   -7.70814    3.31511    2.28668    4    658.1   4146.9     diag
    6      0.473D-04      0.104D-04     -2632.89875433  17115.957371   -7.71928    3.32771    2.30196    5    606.5   4753.4     diag
    7      0.151D-04      0.412D-05     -2632.89875582  17116.006245   -7.71718    3.32331    2.29882    6    825.6   5579.0     diag
    8      0.536D-05      0.141D-05     -2632.89875604  17116.023431   -7.71723    3.32377    2.29931    7    712.2   6291.2     orth
    9      0.165D-05      0.412D-06     -2632.89875612  17116.018437   -7.71661    3.32398    2.29897    0    641.6   6932.8     orth

 Final occupancy: 181

 !RKS STATE  1.1 Energy             -2632.898756121576
 Nuclear energy                      7309.68614862
 One-electron energy               -18235.64211535
 Two-electron energy                 8558.00921837
 Density functional                  -264.95200775     B88=-315.65653356 DIRAC=-286.27777682 LYP= -12.62739468 VWN5= -23.94153555
 Virial quotient                       -1.03438032
 !RKS STATE  1.1 Dipole moment         -7.71661240     3.32397603     2.29897376
 Dipole moment /Debye                 -19.61238776     8.44815099     5.84302573

 Orbital energies:

         1.1          2.1          3.1          4.1          5.1          6.1          7.1          8.1          9.1         10.1
    -77.306532   -19.261118   -19.242387   -19.223185   -19.219765   -19.195985   -19.174845   -19.174652   -19.164825   -19.151578

        11.1         12.1         13.1         14.1         15.1         16.1         17.1         18.1         19.1         20.1
    -14.554711   -14.532867   -14.509927   -14.496178   -14.447688   -14.445372   -10.414181   -10.372100   -10.361973   -10.359093

        21.1         22.1         23.1         24.1         25.1         26.1         27.1         28.1         29.1         30.1
    -10.351766   -10.351731   -10.331097   -10.327937   -10.319118   -10.318570   -10.306305   -10.299069   -10.298321   -10.296928

        31.1         32.1         33.1         34.1         35.1         36.1         37.1         38.1         39.1         40.1
    -10.290976   -10.289975   -10.286702   -10.281479   -10.263008   -10.247359   -10.230991   -10.225668   -10.223713   -10.214453

        41.1         42.1         43.1         44.1         45.1         46.1         47.1         48.1         49.1         50.1
    -10.205428   -10.205346   -10.201904    -6.755869    -5.105093    -4.921711    -4.918740    -4.916816    -3.295576    -3.294023

        51.1         52.1         53.1         54.1         55.1         56.1         57.1         58.1         59.1         60.1
     -3.291923    -1.196434    -1.151521    -1.136348    -1.125653    -1.116253    -1.112363    -1.093126    -1.087052    -1.069111

        61.1         62.1         63.1         64.1         65.1         66.1         67.1         68.1         69.1         70.1
     -1.059635    -1.023290    -1.017299    -1.002281    -0.993053    -0.983900    -0.939812    -0.897421    -0.887924    -0.875891

        71.1         72.1         73.1         74.1         75.1         76.1         77.1         78.1         79.1         80.1
     -0.834601    -0.831735    -0.822697    -0.820489    -0.808039    -0.806662    -0.784250    -0.775827    -0.769887    -0.750889

        81.1         82.1         83.1         84.1         85.1         86.1         87.1         88.1         89.1         90.1
     -0.746663    -0.739917    -0.732535    -0.727856    -0.727501    -0.719084    -0.702982    -0.694527    -0.692968    -0.683104

        91.1         92.1         93.1         94.1         95.1         96.1         97.1         98.1         99.1        100.1
     -0.660260    -0.656247    -0.648611    -0.647343    -0.642483    -0.636744    -0.619516    -0.610999    -0.606151    -0.595784

       101.1        102.1        103.1        104.1        105.1        106.1        107.1        108.1        109.1        110.1
     -0.591013    -0.585590    -0.579027    -0.574469    -0.570589    -0.569668    -0.566039    -0.561303    -0.559551    -0.556963

       111.1        112.1        113.1        114.1        115.1        116.1        117.1        118.1        119.1        120.1
     -0.555417    -0.543755    -0.541723    -0.539677    -0.536987    -0.535923    -0.534333    -0.533053    -0.530074    -0.528759

       121.1        122.1        123.1        124.1        125.1        126.1        127.1        128.1        129.1        130.1
     -0.527863    -0.523153    -0.520792    -0.517505    -0.516445    -0.511873    -0.510265    -0.506039    -0.504484    -0.502909

       131.1        132.1        133.1        134.1        135.1        136.1        137.1        138.1        139.1        140.1
     -0.500741    -0.493824    -0.486633    -0.483864    -0.482670    -0.478988    -0.476499    -0.474018    -0.469969    -0.465569

       141.1        142.1        143.1        144.1        145.1        146.1        147.1        148.1        149.1        150.1
     -0.464168    -0.462148    -0.455709    -0.451709    -0.447088    -0.445640    -0.445221    -0.440010    -0.438613    -0.435140

       151.1        152.1        153.1        154.1        155.1        156.1        157.1        158.1        159.1        160.1
     -0.434329    -0.431174    -0.428270    -0.422225    -0.419291    -0.413882    -0.409431    -0.407583    -0.405102    -0.402724

       161.1        162.1        163.1        164.1        165.1        166.1        167.1        168.1        169.1        170.1
     -0.399615    -0.397972    -0.396432    -0.391828    -0.386147    -0.382680    -0.382089    -0.380417    -0.380096    -0.368005

       171.1        172.1        173.1        174.1        175.1        176.1        177.1        178.1        179.1        180.1
     -0.354050    -0.351312    -0.344856    -0.341595    -0.339510    -0.336693    -0.328796    -0.323183    -0.318986    -0.315003

       181.1        182.1        183.1
     -0.292276    -0.142026    -0.103285


 HOMO    181.1    -0.292276 =      -7.9532eV
 LUMO    182.1    -0.142026 =      -3.8647eV
 LUMO-HOMO         0.150249 =       4.0885eV


 **********************************************************************************************************************************
 DATASETS  * FILE   NREC   LENGTH (MB)   RECORD NAMES
              1      20       69.17       500      610      700      900      950      970     1000      129      960     1100   
                                          VAR    BASINP    GEOM    SYMINP    ZMAT    AOBASIS   BASIS     P2S    ABASIS      S 
                                         1400     1410     1420     1200     1210     1080     1600     1650     1700     1800   
                                           T        V       ECP      H0       H01     AOSYM     SMH    MOLCAS    OPER     GRID   

              2       5       16.97       700     1000      520     1800     2100   
                                         GEOM     BASIS   MCVARS    GRID      RKS  

 PROGRAMS   *        TOTAL    KS-SCF    KS-SCF       INT
 CPU TIMES  *     18467.96   6933.32  11525.73      8.70
 REAL TIME  *    111077.09 SEC
 DISK USED  *       138.33 MB
 **********************************************************************************************************************************
 SETTING E(2)           =     -2632.89875612  AU                              

 DO I                   =         3.00000000   

 Density functional group BH-LYP=B88+LYP
 Functional: B88(Automatically generated (new) B88)                            Gradient terms: 1
 Functional: LYP(Automatically generated (new) LYP)                            Gradient terms: 1
 Use libxcgrid:  F
 Use grid at  1800.2


 Exact exchange will be calculated, factor:  0.5000

 Functional: B88                       Factor:  0.5000
 Functional: LYP                       Factor:  1.0000

  635055 words reserved for DFT integration

 PROGRAM * RKS-SCF (Restricted closed shell Kohn-Sham)     Authors: W. Meyer, H.-J. Werner, P.J. Knowles, 1993

 NUMBER OF ELECTRONS:     181+  181-    SPACE SYMMETRY=1    SPIN SYMMETRY: Singlet 
 CONVERGENCE THRESHOLDS:    1.00E-05 (Density)    1.00E-06 (Energy)
 INTEGRAL THRESHOLDS:       1.00E-11 (Initial)    1.00E-11 (Final)
 MAX. NUMBER OF ITERATIONS:       60
 INTERPOLATION TYPE:            DIIS
 INTERPOLATION STEPS:              2 (START)      1 (STEP)
 LEVEL SHIFTS:                  0.00 (CLOSED)  0.00 (OPEN) 



 Use fine grid record 1800.2 for energy threshold  1.0D-06
 Molecular orbitals read from record     2100.2  Type=RKS/CANONICAL (state 1.1)

 Molecular orbital dump at record        2100.2

 Direct Fock-matrix evaluation.        Authors: Roland Lindh & Martin Schuetz (1993/96)

 Integral Threshold:                  0.1D-10
 Threshold for writing integrals:     0.1D-06
 Prescreening on density matrix:        ON 
 Calculation will be performed fully direct        

 ITERATION   DDIFF            GRAD            ENERGY        2-EL.EN.            DIPOLE MOMENTS         DIIS   CPU(IT)  CPU(TOT)
    1      0.000D+00      0.000D+00     -2632.78099968  16927.261257   -7.71661    3.32398    2.29897    0   1445.1   1445.3     start
    2      0.000D+00      0.681D-03     -2632.81528895  16925.633202   -7.77346    3.26373    2.39223    1   1040.8   2486.1     diag
    3      0.171D-02      0.220D-03     -2632.81575529  16925.535935   -7.78217    3.25755    2.28811    2    863.8   3349.9     diag
    4      0.338D-03      0.223D-03     -2632.81822573  16926.775235   -7.78542    3.26604    2.35323    3    782.6   4132.5     diag
    5      0.146D-03      0.242D-04     -2632.81826329  16926.167392   -7.77815    3.25206    2.34372    4    675.9   4808.4     diag
    6      0.266D-04      0.880D-05     -2632.81827079  16926.190813   -7.78355    3.25743    2.34677    5    627.6   5436.0     diag
    7      0.115D-04      0.317D-05     -2632.81827190  16926.259034   -7.78110    3.25482    2.34551    6    550.4   5986.4     diag
    8      0.407D-05      0.111D-05     -2632.81827215  16926.250286   -7.78144    3.25541    2.34636    7    484.0   6470.4     orth
    9      0.159D-05      0.447D-06     -2632.81827217  16926.246590   -7.78116    3.25502    2.34576    0    434.0   6904.3     orth

 Final occupancy: 181

 !RKS STATE  1.1 Energy             -2632.818272165413
 Nuclear energy                      7309.68614862
 One-electron energy               -18235.14831869
 Two-electron energy                 8463.12329514
 Density functional                  -170.47939724     B88=-315.71531364 LYP= -12.62174042
 Virial quotient                       -1.03414972
 !RKS STATE  1.1 Dipole moment         -7.78115926     3.25502096     2.34576004
 Dipole moment /Debye                 -19.77643876     8.27289618     5.96193681

 Orbital energies:

         1.1          2.1          3.1          4.1          5.1          6.1          7.1          8.1          9.1         10.1
    -78.425745   -19.814953   -19.796512   -19.776146   -19.771540   -19.745087   -19.723748   -19.722160   -19.715045   -19.700845

        11.1         12.1         13.1         14.1         15.1         16.1         17.1         18.1         19.1         20.1
    -15.039341   -15.018181   -14.994411   -14.980039   -14.932483   -14.928778   -10.834971   -10.785071   -10.780778   -10.772763

        21.1         22.1         23.1         24.1         25.1         26.1         27.1         28.1         29.1         30.1
    -10.771751   -10.771355   -10.750986   -10.741486   -10.731454   -10.728906   -10.719068   -10.711359   -10.711280   -10.710181

        31.1         32.1         33.1         34.1         35.1         36.1         37.1         38.1         39.1         40.1
    -10.701796   -10.699135   -10.698946   -10.691362   -10.672960   -10.656711   -10.641710   -10.635900   -10.633961   -10.623592

        41.1         42.1         43.1         44.1         45.1         46.1         47.1         48.1         49.1         50.1
    -10.615039   -10.614875   -10.610993    -7.132113    -5.442702    -5.197526    -5.195024    -5.193431    -3.566571    -3.565196

        51.1         52.1         53.1         54.1         55.1         56.1         57.1         58.1         59.1         60.1
     -3.563348    -1.332112    -1.293947    -1.271171    -1.259815    -1.257388    -1.252645    -1.233466    -1.226562    -1.206135

        61.1         62.1         63.1         64.1         65.1         66.1         67.1         68.1         69.1         70.1
     -1.184858    -1.158741    -1.152805    -1.136609    -1.116257    -1.106393    -1.054557    -1.012500    -1.002407    -0.984532

        71.1         72.1         73.1         74.1         75.1         76.1         77.1         78.1         79.1         80.1
     -0.949851    -0.940462    -0.935488    -0.928594    -0.921020    -0.900135    -0.887888    -0.873699    -0.871121    -0.853128

        81.1         82.1         83.1         84.1         85.1         86.1         87.1         88.1         89.1         90.1
     -0.840487    -0.836382    -0.836188    -0.823056    -0.820845    -0.811470    -0.791845    -0.782930    -0.782735    -0.779126

        91.1         92.1         93.1         94.1         95.1         96.1         97.1         98.1         99.1        100.1
     -0.751815    -0.745780    -0.740304    -0.731262    -0.725621    -0.720696    -0.704111    -0.694083    -0.686844    -0.683170

       101.1        102.1        103.1        104.1        105.1        106.1        107.1        108.1        109.1        110.1
     -0.680716    -0.677824    -0.673463    -0.665473    -0.661382    -0.658889    -0.657745    -0.648720    -0.644722    -0.642539

       111.1        112.1        113.1        114.1        115.1        116.1        117.1        118.1        119.1        120.1
     -0.633938    -0.633563    -0.631484    -0.628884    -0.626847    -0.621049    -0.612884    -0.609953    -0.608470    -0.606242

       121.1        122.1        123.1        124.1        125.1        126.1        127.1        128.1        129.1        130.1
     -0.601015    -0.599751    -0.594835    -0.593423    -0.592206    -0.590014    -0.586147    -0.583673    -0.582803    -0.576447

       131.1        132.1        133.1        134.1        135.1        136.1        137.1        138.1        139.1        140.1
     -0.571625    -0.570526    -0.563917    -0.561314    -0.553969    -0.548662    -0.546552    -0.546107    -0.538857    -0.536599

       141.1        142.1        143.1        144.1        145.1        146.1        147.1        148.1        149.1        150.1
     -0.532322    -0.524648    -0.521958    -0.521545    -0.518056    -0.515083    -0.513451    -0.510093    -0.507860    -0.504022

       151.1        152.1        153.1        154.1        155.1        156.1        157.1        158.1        159.1        160.1
     -0.503437    -0.501298    -0.498184    -0.492696    -0.488963    -0.484415    -0.479189    -0.477344    -0.471744    -0.468143

       161.1        162.1        163.1        164.1        165.1        166.1        167.1        168.1        169.1        170.1
     -0.466242    -0.462483    -0.459560    -0.456103    -0.450557    -0.449753    -0.445861    -0.443666    -0.440737    -0.425942

       171.1        172.1        173.1        174.1        175.1        176.1        177.1        178.1        179.1        180.1
     -0.424030    -0.418953    -0.415767    -0.411134    -0.402837    -0.393123    -0.386289    -0.384166    -0.382586    -0.372655

       181.1        182.1        183.1
     -0.362934    -0.095124    -0.072622


 HOMO    181.1    -0.362934 =      -9.8759eV
 LUMO    182.1    -0.095124 =      -2.5885eV
 LUMO-HOMO         0.267810 =       7.2875eV


 **********************************************************************************************************************************
 DATASETS  * FILE   NREC   LENGTH (MB)   RECORD NAMES
              1      20       69.17       500      610      700      900      950      970     1000      129      960     1100   
                                          VAR    BASINP    GEOM    SYMINP    ZMAT    AOBASIS   BASIS     P2S    ABASIS      S 
                                         1400     1410     1420     1200     1210     1080     1600     1650     1700     1800   
                                           T        V       ECP      H0       H01     AOSYM     SMH    MOLCAS    OPER     GRID   

              2       5       16.97       700     1000      520     1800     2100   
                                         GEOM     BASIS   MCVARS    GRID      RKS  

 PROGRAMS   *        TOTAL    KS-SCF    KS-SCF    KS-SCF       INT
 CPU TIMES  *     25372.75   6904.80   6933.32  11525.73      8.70
 REAL TIME  *    152677.10 SEC
 DISK USED  *       138.33 MB
 **********************************************************************************************************************************
 SETTING E(3)           =     -2632.81827217  AU                              

 DO I                   =         4.00000000   

 Density functional group PBE0=PBEX+PBEC
 Functional: PBEX(Automatically generated (new) PBEX)                          Gradient terms: 1
 Functional: PBEC(Automatically generated (new) PBEC)                          Gradient terms: 1
 Use libxcgrid:  F
 Use grid at  1800.2


 Exact exchange will be calculated, factor:  0.2500

 Functional: PBEX                      Factor:  0.7500
 Functional: PBEC                      Factor:  1.0000

  635055 words reserved for DFT integration

 PROGRAM * RKS-SCF (Restricted closed shell Kohn-Sham)     Authors: W. Meyer, H.-J. Werner, P.J. Knowles, 1993

 NUMBER OF ELECTRONS:     181+  181-    SPACE SYMMETRY=1    SPIN SYMMETRY: Singlet 
 CONVERGENCE THRESHOLDS:    1.00E-05 (Density)    1.00E-06 (Energy)
 INTEGRAL THRESHOLDS:       1.00E-11 (Initial)    1.00E-11 (Final)
 MAX. NUMBER OF ITERATIONS:       60
 INTERPOLATION TYPE:            DIIS
 INTERPOLATION STEPS:              2 (START)      1 (STEP)
 LEVEL SHIFTS:                  0.00 (CLOSED)  0.00 (OPEN) 



 Use fine grid record 1800.2 for energy threshold  1.0D-06
 Molecular orbitals read from record     2100.2  Type=RKS/CANONICAL (state 1.1)

 Molecular orbital dump at record        2100.2

 Direct Fock-matrix evaluation.        Authors: Roland Lindh & Martin Schuetz (1993/96)

 Integral Threshold:                  0.1D-10
 Threshold for writing integrals:     0.1D-06
 Prescreening on density matrix:        ON 
 Calculation will be performed fully direct        

 ITERATION   DDIFF            GRAD            ENERGY        2-EL.EN.            DIPOLE MOMENTS         DIIS   CPU(IT)  CPU(TOT)
    1      0.000D+00      0.000D+00     -2631.65284753  17083.694590   -7.78116    3.25502    2.34576    0   1033.4   1033.6     start
    2      0.000D+00      0.512D-03     -2631.67176372  17082.445972   -7.73703    3.34003    2.20061    1    900.9   1934.5     diag
    3      0.123D-02      0.318D-03     -2631.67499853  17085.864672   -7.70214    3.32746    2.39864    2    804.5   2739.0     diag

 GLOBAL ERROR fehler on processor   0                                         

 RECURSIVE CALL OF FEHLER. EMERGENCY STOP.
 FILE INFORMATION MAY BE LOST

 GLOBAL ERROR fehler on processor   0                                         
