/users/is16372/.bash_login: line 1: lastpwd: command not found
========= Job started  at Tue Jul 30 16:26:19 BST 2019 ==========
Running on host grendel.chm.bris.ac.uk
Time is Tue Jul 30 16:26:19 BST 2019
Directory is /users/is16372/projects/mcr-1/molpro/embedding/mp2-in-hf/no_trunc/region_4_Zn_H466_D465_H478/rs
PBS job ID is
g-3-5.local
