/users/is16372/.bash_login: line 1: lastpwd: command not found
========= Job started  at Thu Aug 15 12:07:28 BST 2019 ==========
Running on host grendel.chm.bris.ac.uk
Time is Thu Aug 15 12:07:28 BST 2019
Directory is /users/is16372/projects/mcr-1/molpro/mp2/vdz_basis/zinc_ion/run_1/rs
PBS job ID is
g-0-9.local
Write error in iow_direct_write; fd=21, l=32768, p=19645792256; write returns -1
This may indicate a filled disk, or that a disk quota has been exceeded
Write error in iow_direct_write; fd=25, l=32768, p=19646676992; write returns -1
This may indicate a filled disk, or that a disk quota has been exceeded
System error message: No space left on device
System error message: No space left on device
0:0:fehler on processor   0                                         :: 1
(rank:0 hostname:g-0-9.local pid:13949):ARMCI DASSERT fail. src/common/armci.c:ARMCI_Error():208 cond:0
Last System Error Message from Task 0:: Inappropriate ioctl for device
application called MPI_Abort(comm=0x84000007, 1) - process 0
1:1:fehler on processor   1                                         :: 1
(rank:1 hostname:g-0-9.local pid:13950):ARMCI DASSERT fail. src/common/armci.c:ARMCI_Error():208 cond:0
Last System Error Message from Task 1:: Inappropriate ioctl for device
application called MPI_Abort(comm=0x84000004, 1) - process 1
[mpiexec@g-0-9.local] HYDT_bscu_wait_for_completion (tools/bootstrap/utils/bscu_wait.c:75): one of the processes terminated badly; aborting
[mpiexec@g-0-9.local] HYDT_bsci_wait_for_completion (tools/bootstrap/src/bsci_wait.c:22): launcher returned error waiting for completion
