
 Primary working directories    : /mnt/storage/scratch/is16372/2127285/molpro.tdV22sKbbF
 Secondary working directories  : /mnt/storage/scratch/is16372/2127285/molpro.tdV22sKbbF
 Wavefunction directory         : /mnt/storage/home/is16372/projects/mcr-1/molpro/embedding/b3lyp-in-pbe/region_5_more_elec/no_trunc/ps/
 Main file repository           : /mnt/storage/scratch/is16372/2127285/molpro.tdV22sKbbF/

 id        : uob

 Nodes                   nprocs
 compute078.bc4.acrc.priv    9

 Using customized tuning parameters: mindgm=1; mindgv=20; mindgc=4; mindgr=1; noblas=0; minvec=7
 default implementation of scratch files=sf  


 Variables initialized (930), CPU time= 0.04 sec
 memory,550,mw
 gdirect
 set,charge=1
 geomtyp=xyz
 noorient
 
                                                                                 !362 electrons total, 281 orbs max
                                                                                 !b3lyp-in-b3lyp, default of 186 elec, 93 orbs
 
 orbs=[93,98,103,108,113,118]
 
 do i=1,#orbs
 
 geometry={
   C1       3.847930    2.066710    2.525340
   C2       4.849450    0.928010    2.313200
   C3       4.217500   -0.488290    2.376840
   C4       3.261140   -0.698160    1.244120
   O5       3.823050   -1.078220    0.112530
   O6       2.039180   -0.494920    1.360230
   C7       1.637060   -2.066870   -3.858380
   C8       1.971500   -3.225320   -2.926750
   C9       3.458570   -3.534110   -2.870220
  O10       1.583400   -2.906120   -1.546810
  P11       0.041110   -2.916140   -1.046360
  O12       0.205370   -3.508580    0.454780
  O13      -0.381500   -1.443860   -0.786410
  O14      -0.870160   -3.717550   -1.927580
  C15       0.043960   -0.755440    6.177550
  C16       0.429580   -0.334500    4.746340
  C17      -0.751990   -0.104950    3.856120
  C18      -1.184490   -0.730570    2.707050
  N19      -1.710460    0.863990    4.109650
  C20      -2.657880    0.791420    3.137340
  N21      -2.369770   -0.164100    2.266260
  C22       3.791250    3.552160   -2.799400
  C23       2.918920    2.311660   -2.968480
  C24       2.601970    1.596320   -1.663360
  O25       1.854660    0.535630   -1.784940
  O26       3.018570    2.023850   -0.574470
  C27       0.316570    5.145230   -2.352540
  C28      -0.422090    5.220880   -1.007270
  C29      -0.365860    3.902860   -0.302830
  C30      -0.263250    2.635510   -0.811570
  N31      -0.310940    3.741250    1.072720
  C32      -0.161410    2.429100    1.357520
  N33      -0.131460    1.727370    0.228220
  C34      -6.779040    1.796150   -0.711140
  C35      -5.591760    1.981500   -1.672170
  C36      -4.623580    0.841840   -1.662040
  C37      -3.324570    0.766140   -1.235470
  N38      -4.929970   -0.426720   -2.140580
  C39      -3.870560   -1.233670   -2.009060
  N40      -2.883540   -0.521360   -1.472260
 Zn41       0.795670   -0.004110   -0.189320
  H42       4.367620    3.031640    2.528370
  H43       3.333340    1.958880    3.489300
  H44       3.101890    2.092150    1.729310
  H45       5.358090    1.049420    1.347340
  H46       5.625470    0.959850    3.089510
  H47       3.665630   -0.611330    3.316470
  H48       5.008340   -1.246180    2.317740
  H49       1.951270   -2.316370   -4.879250
  H50       2.145180   -1.153630   -3.536420
  H51       0.557340   -1.874970   -3.870440
  H52       1.407980   -4.122560   -3.219790
  H53       4.023620   -2.650660   -2.546650
  H54       3.815610   -3.826240   -3.864740
  H55       3.659720   -4.354550   -2.172140
  H56       0.942290   -0.923010    6.782890
  H57      -0.542900   -1.681350    6.165100
  H58      -0.555740    0.018660    6.672090
  H59       1.050580   -1.111240    4.281510
  H60       1.049310    0.575370    4.787660
  H61      -0.717150   -1.551340    2.173690
  H62      -3.710860   -1.093780    1.376940
  H63      -3.529250    1.436780    3.109810
  H64       3.927210    4.060530   -3.761400
  H65       4.781230    3.287510   -2.410750
  H66       3.342990    4.260860   -2.096070
  H67       1.955160    2.570040   -3.432600
  H68       3.388230    1.584740   -3.648160
  H69       0.263290    6.108500   -2.872340
  H70      -0.127670    4.387250   -3.007810
  H71       1.368520    4.892600   -2.199940
  H72      -1.466980    5.529020   -1.166260
  H73       0.035870    5.989850   -0.369140
  H74      -0.227410    2.313550   -1.842280
  H75      -0.064660    2.023190    2.356340
  H76      -7.445280    2.664510   -0.763310
  H77      -6.430140    1.686570    0.322320
  H78      -7.363740    0.904240   -0.967410
  H79      -5.964190    2.127030   -2.697200
  H80      -5.034100    2.889020   -1.407080
  H81      -2.686710    1.513830   -0.789350
  H82      -1.948640   -0.903190   -1.228070
  H83      -3.820300   -2.281670   -2.282360
  O84      -4.368950   -1.750440    1.035240
  C85      -3.703540   -3.009540    0.964160
  H86      -4.429720   -3.748500    0.610720
  H87      -2.858000   -2.984030    0.261410
  H88      -3.329540   -3.327150    1.948360
  C89       0.598150   -4.887830    0.613330
  H90       0.621700   -5.077040    1.688750
  H91      -0.130750   -5.549310    0.132800
  H92       1.593550   -5.049690    0.183990
  H93       3.137910   -1.112560   -0.630890
  H94      -0.346660    4.509550    1.773630
  H95      -1.717640    1.513730    4.918910
  H96      -5.854710   -0.721970   -2.526270
 }
 
 
 basis={
 default,6-31G(d)
                                                                                 !i.e. C,N,H=6-31G(d)
 O=6-31+G(d,p)
 P=6-31+G(d,p)
 
                                                                                 ! ZINC       (8s,7p,6d) -&gt; [6s,5p,3d]
                                                                                 ! ZINC       (8s,7p,6d) -&gt; [6s,5p,3d]
 s, ZN , 30.3241270, 16.3166820, 11.4081480, 2.5694920, 1.0625950, 0.1515530, 0.0527470, 0.0100000
 c, 1.3, 0.2191430, -0.2325560, -0.9546850
 c, 4.4, 1
 c, 5.5, 1
 c, 6.6, 1
 c, 7.7, 1
 c, 8.8, 1
 p, ZN , 111.8249800, 19.1319100, 5.4688380, 2.5056750, 0.9418680, 0.1711310, 0.0499860
 c, 1.2, 0.0232770, -1.0095390
 c, 3.4, 0.3201510, 0.7180850
 c, 5.5, 1
 c, 6.6, 1
 c, 7.7, 1
 d, ZN , 44.6456290, 13.4383770, 4.6820000, 1.6032110, 0.4827660, 0.1100000
 c, 1.4, 0.0472490, 0.2189260, 0.4525120, 0.5185760
 c, 5.5, 1
 c, 6.6, 1
 
                                                                                 ! Effective core Potentials
                                                                                 ! Zn
 ECP, zn, 10, 3 ;
 1;                                                                              !  f-ul potential
 2,1.000000000,0.000000000;
 2;                                                                              !  s-ul potential
 2,34.150000000,399.987282000;
 2,14.590000000,85.485655000;
 2;                                                                              !  p-ul potential
 2,39.780000000,277.148960000;
 2,14.950000000,69.052205000;
 2;                                                                              !  d-ul potential
 2,43.800000000,-34.149349000;
 2,14.980000000,-3.291831000;
 
                                                       !  Stuttgart RSC 1997 ECP  EMSL  Basis Set Exchange Library   5/3/19 3:40 AM
                                                                                 ! Elements                             References
                                                    ! K      : A. Bergner, M. Dolg, W. Kuechle, H. Stoll, H. Preuss, Mol. Phys. 80,
                                                                                 ! 1431 (1993).
                                                    ! Ca     : M. Kaupp, P. v. R. Schleyer, H. Stoll, H. Preuss, J. Chem. Phys. 94,
                                                                                 ! 1360 (1991).
                                                     ! Rf - Ha:  M. Dolg, H. Stoll, H. Preuss, R.M. Pitzer, J. Phys. Chem. 97, 5852
                                                                                 ! (1993).
                                                                                 !
 
 }
 
 
                                                                                 !proc lowproc
                                                                                 !  {ks,bh-lyp}
                                                                                 !endproc
 
 
 proc highproc
   {ks,b3lyp}
   e(i)=energy
 endproc
 
 
                                                          !first loop, do b3lyp for canonical energy, then do bhlyp for environment
 if (i.eq.1) then
                                                                                 !{df-ks,b3lyp,df_basis=avdz}
   {ks,b3lyp}
   b3_energy=energy
   {ks,pbe;save,2995.3}
   pbe_energy=energy
 end if
 
 {ks,pbe;start,2995.3;maxit,0}
 
 {ibba,bonds=1,iborth='SYM'}
 {embed,n_orbitals=orbs(i),highproc=highproc,lowproc=lowproc,atoms=[C3,C4,O5,O6,C7,C8,C9,O10,P11,O12,O13,O14,C17,C18,N19,C20,N21,Zn41,H47,H48,H49,H50,H51,H52,H53,H54,H55,H61,H62,H63,H86,O84,C85,H87,H88,C89,H90,H91,H92,H93,H95]}
 
 elec(i)=2*orbs(i)
 
 end do
 
 
 table,elec,e
 title,Electrons,Energy
 
 show b3_energy
 show pbe_energy
 
 Commands  initialized (760), CPU time= 0.01 sec, 617 directives.
 Default parameters read. Elapsed time= 0.06 sec

 Checking input...
 Passed
1


                                         ***  PROGRAM SYSTEM MOLPRO  ***
                                       Copyright, TTI GmbH Stuttgart, 2015
                                    Version 2019.1 linked Jan 14 2019 13:09:19


 **********************************************************************************************************************************
 LABEL *                                                                                 
  64 bit mpp version                                                                     DATE: 30-May-19          TIME: 17:36:52  
 **********************************************************************************************************************************

 SHA1:             d688ac825633d238f2093ded1675ba87ccd55965
 **********************************************************************************************************************************
 SETTING CHARGE         =         1.00000000                                  
 SETTING GEOMTYP        =    XYZ

 Variable memory set to  550000000 words,  buffer space 

 SETTING ORBS(1)        =        93.00000000                                  
 SETTING ORBS(2)        =        98.00000000                                  
 SETTING ORBS(3)        =       103.00000000                                  
 SETTING ORBS(4)        =       108.00000000                                  
 SETTING ORBS(5)        =       113.00000000                                  
 SETTING ORBS(6)        =       118.00000000                                  

 DO I                   =         1.00000000   
 SETTING BASIS          =    USERDEF


 Recomputing integrals since basis changed


 Using spherical harmonics

 Library entry C      S 6-31G                selected for orbital group  1
 Library entry C      P 6-31G                selected for orbital group  1
 Library entry C      D 6-31G*               selected for orbital group  1
 Library entry O      S 6-31G                selected for orbital group  2
 Library entry O      S 6-31++G              selected for orbital group  2
 Library entry O      P 6-31G                selected for orbital group  2
 Library entry O      P 6-31++G              selected for orbital group  2
 Library entry O      D 6-31G*               selected for orbital group  2
 Library entry P      S 6-31G                selected for orbital group  5
 Library entry P      S 6-31++G              selected for orbital group  5
 Library entry P      P 6-31G                selected for orbital group  5
 Library entry P      P 6-31++G              selected for orbital group  5
 Library entry P      D 6-31G*               selected for orbital group  5
 Library entry N      S 6-31G                selected for orbital group  8
 Library entry N      P 6-31G                selected for orbital group  8
 Library entry N      D 6-31G*               selected for orbital group  8
 Library entry H      S 6-31G                selected for orbital group 22


 PROGRAM * SEWARD (Integral evaluation for generally contracted gaussian basis sets)     Author: Roland Lindh, 1990

 Geometry written to block  1 of record 700


 Point group  C1  



 ATOMIC COORDINATES

 NR  ATOM    CHARGE       X              Y              Z

   1  C1      6.00    7.271533846    3.905515879    4.772200971
   2  C2      6.00    9.164132355    1.753684741    4.371314471
   3  C3      6.00    7.969919930   -0.922734369    4.491576642
   4  C4      6.00    6.162661454   -1.319331191    2.351046066
   5  O5      8.00    7.224517461   -2.037540502    0.212650881
   6  O6      8.00    3.853491719   -0.935263254    2.570462166
   7  C7      6.00    3.093595049   -3.905818235   -7.291281484
   8  C8      6.00    3.725595055   -6.094971464   -5.530755935
   9  C9      6.00    6.535750083   -6.678499994   -5.423929717
  10  O10     8.00    2.992192346   -5.491770885   -2.923047267
  11  P11    15.00    0.077686641   -5.510705941   -1.977333828
  12  O12     8.00    0.388093054   -6.630255286    0.859409647
  13  O13     8.00   -0.720930517   -2.728499962   -1.486099522
  14  O14     8.00   -1.644364085   -7.025151354   -3.642598283
  15  C15     6.00    0.083072360   -1.427574704   11.673877621
  16  C16     6.00    0.811788549   -0.632113389    8.969282694
  17  C17     6.00   -1.421055148   -0.198326757    7.287010703
  18  C18     6.00   -2.238361697   -1.380577215    5.115583106
  19  N19     7.00   -3.232300947    1.632704474    7.766112968
  20  C20     6.00   -5.022665272    1.495567050    5.928713360
  21  N21     7.00   -4.478216278   -0.310104057    4.282610727
  22  C22     6.00    7.164424170    6.712609551   -5.290099313
  23  C23     6.00    5.515959380    4.368404293   -5.609614206
  24  C24     6.00    4.917010684    3.016607607   -3.143294847
  25  O25     8.00    3.504799454    1.012194004   -3.373047749
  26  O26     8.00    5.704270588    3.824522217   -1.085590967
  27  C27     6.00    0.598230599    9.723075548   -4.445656297
  28  C28     6.00   -0.797634500    9.866033329   -1.903464433
  29  C29     6.00   -0.691375200    7.375336503   -0.572265762
  30  C30     6.00   -0.497470402    4.980392099   -1.533645031
  31  N31     7.00   -0.587591441    7.069937864    2.027147008
  32  C32     6.00   -0.305020694    4.590333729    2.565341009
  33  N33     7.00   -0.248423396    3.264256216    0.431273296
  34  C34     6.00  -12.810528987    3.394231579   -1.343859836
  35  C35     6.00  -10.566894954    3.744492316   -3.159943334
  36  C36     6.00   -8.737299915    1.590847041   -3.140800408
  37  C37     6.00   -6.282526782    1.447794773   -2.334699935
  38  N38     7.00   -9.316293102   -0.806383932   -4.045109948
  39  C39     6.00   -7.314298349   -2.331298428   -3.796573168
  40  N40     7.00   -5.449100869   -0.985227612   -2.782168184
  41  ZN41   20.00    1.503598386   -0.007766774   -0.357762950
  42  H42     1.00    8.253605616    5.728969308    4.777926842
  43  H43     1.00    6.299099680    3.701746711    6.593821366
  44  H44     1.00    5.861722569    3.953590512    3.267922284
  45  H45     1.00   10.125322651    1.983116390    2.546103597
  46  H46     1.00   10.630597622    1.813853621    5.838327759
  47  H47     1.00    6.927036774   -1.155246272    6.267220000
  48  H48     1.00    9.464390939   -2.354938902    4.379893828
  49  H49     1.00    3.687365895   -4.377304903   -9.220446193
  50  H50     1.00    4.053802688   -2.180044749   -6.682865261
  51  H51     1.00    1.053219958   -3.543179792   -7.314071582
  52  H52     1.00    2.660696589   -7.790509332   -6.084521279
  53  H53     1.00    7.603539829   -5.009021449   -4.812471035
  54  H54     1.00    7.210457898   -7.230545687   -7.303300143
  55  H55     1.00    6.915868493   -8.228906896   -4.104749704
  56  H56     1.00    1.780670030   -1.744236110   12.817804433
  57  H57     1.00   -1.025932313   -3.177291020   11.650350531
  58  H58     1.00   -1.050196396    0.035262289   12.608422778
  59  H59     1.00    1.985308472   -2.099939259    8.090881300
  60  H60     1.00    1.982908520    1.087291720    9.047366178
  61  H61     1.00   -1.355217090   -2.931607726    4.107678780
  62  H62     1.00   -7.012509087   -2.066944641    2.602039490
  63  H63     1.00   -6.669315925    2.715120701    5.876689199
  64  H64     1.00    7.421351334    7.673289621   -7.108015845
  65  H65     1.00    9.035215239    6.212493532   -4.555657255
  66  H66     1.00    6.317335537    8.051858455   -3.960998238
  67  H67     1.00    3.694716930    4.856671729   -6.486673895
  68  H68     1.00    6.402826747    2.994724579   -6.894023259
  69  H69     1.00    0.497545991   11.543392032   -5.427935937
  70  H70     1.00   -0.241261334    8.290700940   -5.683937135
  71  H71     1.00    2.586127996    9.245674037   -4.157284090
  72  H72     1.00   -2.772190430   10.448333537   -2.203911990
  73  H73     1.00    0.067784476   11.319176027   -0.697573502
  74  H74     1.00   -0.429742618    4.371975875   -3.481404645
  75  H75     1.00   -0.122189691    3.823274998    4.452837256
  76  H76     1.00  -14.069540121    5.035194156   -1.442446848
  77  H77     1.00  -12.151203543    3.187155390    0.609096524
  78  H78     1.00  -13.915451853    1.708765951   -1.828139950
  79  H79     1.00  -11.270685655    4.019504159   -5.096969303
  80  H80     1.00   -9.513070284    5.459456568   -2.658995835
  81  H81     1.00   -5.077146076    2.860724099   -1.491655316
  82  H82     1.00   -3.682395915   -1.706781738   -2.320715962
  83  H83     1.00   -7.219320714   -4.311731407   -4.313035318
  84  O84     8.00   -8.256118952   -3.307852197    1.956320073
  85  C85     6.00   -6.998676291   -5.687206361    1.821998340
  86  H86     1.00   -8.370957609   -7.083638378    1.154093539
  87  H87     1.00   -5.400837264   -5.638999447    0.493993306
  88  H88     1.00   -6.291918721   -6.287402275    3.681866792
  89  C89     6.00    1.130339681   -9.236660043    1.159025724
  90  H90     1.00    1.174842732   -9.594215123    3.191274993
  91  H91     1.00   -0.247081691  -10.486676080    0.250955629
  92  H92     1.00    3.011373066   -9.542531114    0.347690710
  93  H93     1.00    5.929790504   -2.102433697   -1.192209315
  94  H94     1.00   -0.655092458    8.521814445    3.351674946
  95  H95     1.00   -3.245869181    2.860535127    9.295392731
  96  H96     1.00  -11.063798439   -1.364325570   -4.773958417

 Bond lengths in Bohr (Angstrom)

  1- 2  2.893616482   1-42  2.071106022   1-43  2.074958059   1-44  2.062215648   2- 3  2.933227839
       ( 1.531235900)       ( 1.095982108)       ( 1.098020518)       ( 1.091277525)       ( 1.552197327)

  2-45  2.075553036   2-46  2.075155093   3- 4  2.829371553   3-47  2.072335976   3-48  2.072951150
       ( 1.098335366)       ( 1.098124784)       ( 1.497238947)       ( 1.096632972)       ( 1.096958508)

  4- 5  2.493210132   4- 6  2.351152158   5-93  1.911586040   6-41  3.867395859   7- 8  2.879455865
       ( 1.319349984)       ( 1.244176142)       ( 1.011567769)       ( 2.046537754)       ( 1.523742423)

  7-49  2.072809680   7-50  2.066509892   7-51  2.072475945   8- 9  2.872087859   8-10  2.775225211
       ( 1.096883645)       ( 1.093549941)       ( 1.096707040)       ( 1.519843443)       ( 1.468585937)

  8-52  2.077381395   9-53  2.073937143   9-54  2.071718678   9-55  2.070866358  10-11  3.064159909
       ( 1.099302893)       ( 1.097480273)       ( 1.096306312)       ( 1.095855284)       ( 1.621483594)

 11-12  3.065429239  11-13  2.935944587  11-14  2.834097620  11-41  5.910886025  12-89  2.726544628
       ( 1.622155295)       ( 1.553634968)       ( 1.499739874)       ( 3.127906181)       ( 1.442825282)

 13-41  3.691078614  15-16  2.911806948  15-56  2.071395869  15-57  2.071702700  15-58  2.073056872
       ( 1.953234686)       ( 1.540861880)       ( 1.096135489)       ( 1.096297857)       ( 1.097014454)

 16-17  2.829098950  16-59  2.074427826  16-60  2.081819624  17-18  2.603997687  17-19  2.619699542
       ( 1.497094692)       ( 1.097739931)       ( 1.101651502)       ( 1.377976233)       ( 1.386285297)

 18-21  2.618530945  18-61  2.049758809  19-20  2.569094862  19-95  1.961236549  20-21  2.503303164
       ( 1.385666902)       ( 1.084685649)       ( 1.359506454)       ( 1.037841687)       ( 1.324690986)

 20-63  2.049750228  22-23  2.883543692  22-64  2.072133751  22-65  2.071081938  22-66  2.068249610
       ( 1.084681109)       ( 1.525905608)       ( 1.096525959)       ( 1.095969363)       ( 1.094470560)

 23-24  2.875556469  23-67  2.079558330  23-68  2.079239356  24-25  2.462681637  24-26  2.346625115
       ( 1.521678952)       ( 1.100454877)       ( 1.100286083)       ( 1.303195000)       ( 1.241780533)

 25-41  3.759929271  27-28  2.903724466  27-69  2.070884541  27-70  2.071179171  27-71  2.064656580
       ( 1.989668885)       ( 1.536584814)       ( 1.095864906)       ( 1.096020817)       ( 1.092569210)

 28-29  2.826119535  28-72  2.080435865  28-73  2.077196824  29-30  2.587973699  29-31  2.619348421
       ( 1.495518053)       ( 1.100919249)       ( 1.099205222)       ( 1.369496704)       ( 1.386099492)

 30-33  2.620696627  30-74  2.041696566  31-32  2.553024808  31-94  1.966437452  32-33  2.513151374
       ( 1.386812932)       ( 1.080419294)       ( 1.351002548)       ( 1.040593886)       ( 1.329902435)

 32-75  2.045592422  33-41  3.794508265  34-35  2.907702792  34-76  2.070648839  34-77  2.071624758
       ( 1.082480893)       ( 2.007967300)       ( 1.538690054)       ( 1.095740177)       ( 1.096256611)

 34-78  2.072721918  35-36  2.825946289  35-79  2.079187935  35-80  2.074270286  36-37  2.587696477
       ( 1.096837204)       ( 1.495426376)       ( 1.100258873)       ( 1.097656565)       ( 1.369350005)

 36-38  2.626732798  37-40  2.610445271  37-81  2.039616669  38-39  2.528857004  38-96  1.973903205
       ( 1.390007136)       ( 1.381388148)       ( 1.079318660)       ( 1.338213496)       ( 1.044544593)

 39-40  2.513938295  39-83  2.048870100  40-82  1.963370802  62-84  1.871729315  84-85  2.694537179
       ( 1.330318855)       ( 1.084215365)       ( 1.038971085)       ( 0.990476498)       ( 1.425887669)

 85-86  2.068640910  85-87  2.078222999  85-88  2.078184799  89-90  2.063943615  89-91  2.069884303
       ( 1.094677627)       ( 1.099748250)       ( 1.099728036)       ( 1.092191926)       ( 1.095335602)

 89-92  2.071257640
       ( 1.096062341)

 Bond angles

  1- 2- 3  113.98960436   1- 2-45  110.03074751   1- 2-46  110.04185618   2- 1-42  110.17987448

  2- 1-43  110.80106432   2- 1-44  111.31025681   2- 3- 4  110.91217958   2- 3-47  110.02257988

  2- 3-48  109.55339528   3- 2-45  108.99345841   3- 2-46  106.56979564   3- 4- 5  114.65857981

  3- 4- 6  122.26552991   4- 3-47  108.12285693   4- 3-48  108.83809146   4- 5-93  110.58802206

  4- 6-41  124.42193655   5- 4- 6  123.05149007   6-41-11   97.51379724   6-41-13  114.88995757

  6-41-25  110.41765957   6-41-33  109.26328591   7- 8- 9  113.07645687   7- 8-10  110.56410622

  7- 8-52  110.18345055   8- 7-49  109.46513899   8- 7-50  110.66576670   8- 7-51  110.84492330

  8- 9-53  110.55921941   8- 9-54  109.81901418   8- 9-55  110.81801457   8-10-11  122.68534884

  9- 8-10  105.53218313   9- 8-52  110.22145867  10- 8-52  107.00235888  10-11-12  101.04351141

 10-11-13  107.72886017  10-11-14  113.57161680  10-11-41   81.33598328  11-12-89  118.57978014

 11-13-41  125.85412540  11-41-13   23.73967729  11-41-25   99.27723250  11-41-33  138.45051452

 12-11-13  102.63870643  12-11-14  114.21206394  12-11-41   93.55616960  12-89-90  106.24088654

 12-89-91  110.36075815  12-89-92  110.20320629  13-11-14  116.06664558  13-11-41   30.40619732

 13-41-25  105.99641728  13-41-33  114.89197947  14-11-41  143.61616255  15-16-17  113.37116313

 15-16-59  109.97343954  15-16-60  109.36429883  16-15-56  110.46355639  16-15-57  110.74111699

 16-15-58  111.27003793  16-17-18  132.37306121  16-17-19  122.96307569  17-16-59  107.64878996

 17-16-60  109.85558137  17-18-21  110.37337039  17-18-61  128.19592364  17-19-20  108.28327649

 17-19-95  125.80038494  18-17-19  104.64505834  18-21-20  105.76784783  19-20-21  110.93003933

 19-20-63  123.10873963  20-19-95  125.89284272  21-18-61  121.43065739  21-20-63  125.95834049

 22-23-24  113.96697307  22-23-67  110.88680817  22-23-68  111.20468695  23-22-64  110.52247540

 23-22-65  111.06198646  23-22-66  111.31398747  23-24-25  114.96387352  23-24-26  121.35617925

 24-23-67  106.83942993  24-23-68  107.94370289  24-25-41  116.81987632  25-24-26  123.67015316

 25-41-33  100.28773776  27-28-29  110.54381422  27-28-72  110.09606327  27-28-73  110.02431231

 28-27-69  110.40317288  28-27-70  111.26173803  28-27-71  110.60641700  28-29-30  130.04704398

 28-29-31  124.86844721  29-28-72  110.51080089  29-28-73  109.11235978  29-30-33  109.54780488

 29-30-74  129.24533722  29-31-32  109.07634287  29-31-94  125.52066490  30-29-31  104.93876350

 30-33-32  106.79837184  30-33-41  116.91327078  31-32-33  109.63122834  31-32-75  124.65292119

 32-31-94  125.37337273  32-33-41  129.93915048  33-30-74  121.12999641  33-32-75  125.70824030

 34-35-36  113.79925814  34-35-79  109.67095587  34-35-80  109.92391477  35-34-76  110.11860748

 35-34-77  110.80946944  35-34-78  111.30650804  35-36-37  131.17879210  35-36-38  123.39934575

 36-35-79  109.04206393  36-35-80  107.42922009  36-37-40  107.51722609  36-37-81  130.62381093

 36-38-39  109.99782398  36-38-96  125.46630479  37-36-38  105.42008683  37-40-39  109.35024241

 37-40-82  126.12349929  38-39-40  107.70693203  38-39-83  126.49753539  39-38-96  124.52072879

 39-40-82  124.44967568  40-37-81  121.85894772  40-39-83  125.79440397  42- 1-43  107.83389834

 42- 1-44  107.79777535  43- 1-44  108.80132622  45- 2-46  106.93017169  47- 3-48  109.35685055

 49- 7-50  109.32152428  49- 7-51  108.15487029  50- 7-51  108.33457390  53- 9-54  108.31735028

 53- 9-55  108.68418169  54- 9-55  108.57812689  56-15-57  108.41322007  56-15-58  107.87448981

 57-15-58  107.96610565  59-16-60  106.38240726  62-84-85  107.01145494  64-22-65  108.12335487

 64-22-66  108.32212154  65-22-66  107.36373250  67-23-68  105.55375002  69-27-70  107.73453626

 69-27-71  108.43990039  70-27-71  108.29116769  72-28-73  106.46674299  76-34-77  108.51867853

 76-34-78  108.00938362  77-34-78  107.97717695  79-35-80  106.71466168  84-85-86  107.61441425

 84-85-87  111.72580925  84-85-88  111.66120917  86-85-87  108.62509297  86-85-88  108.63854369

 87-85-88  108.48805893  90-89-91  109.98033438  90-89-92  109.90924949  91-89-92  110.07898309

 NUCLEAR CHARGE:                  363
 NUMBER OF PRIMITIVE AOS:        1541
 NUMBER OF SYMMETRY AOS:         1492
 NUMBER OF CONTRACTIONS:          786   (  786A   )
 NUMBER OF CORE ORBITALS:          51   (   51A   )
 NUMBER OF VALENCE ORBITALS:      230   (  230A   )


 NUCLEAR REPULSION ENERGY 7223.74872065


 Eigenvalues of metric

         1 0.102E-03 0.284E-03 0.515E-03 0.644E-03 0.728E-03 0.108E-02 0.112E-02 0.114E-02


 OPERATOR DM      FOR CENTER  0  COORDINATES:    0.000000    0.000000    0.000000


 **********************************************************************************************************************************
 DATASETS  * FILE   NREC   LENGTH (MB)   RECORD NAMES
              1      19       56.75       500      610      700      900      950      970     1000      129      960     1100   
                                          VAR    BASINP    GEOM    SYMINP    ZMAT    AOBASIS   BASIS     P2S    ABASIS      S 
                                         1400     1410     1420     1200     1210     1080     1600     1650     1700   
                                           T        V       ECP      H0       H01     AOSYM     SMH    MOLCAS    OPER   

 PROGRAMS   *        TOTAL       INT
 CPU TIMES  *         2.11      1.97
 REAL TIME  *         3.25 SEC
 DISK USED  *        58.94 MB (local),      530.45 MB (total)
 GA USED    *         0.00 MB       (max)       0.00 MB       (current)
 **********************************************************************************************************************************
